<svg xmlns="http://www.w3.org/2000/svg" width="30" height="90" viewBox="0 0 30 90">
    <g fill="none" fill-rule="evenodd">
        <path fill="#F7B17D" fill-rule="nonzero" d="M20.451 7.846c0-1.92-2.107-1.306-2.465-1.186-.359.12-1.196-2.64-1.196-2.64s-4.302-.36-5.139.48c0 0-.239 3.6-.12 5.88.12 2.28.85 3.24 1.686 3.24.264-.015.524-.076.767-.18v4.2L19.046 15l-.624-4.958.04-.023s1.99-.365 1.99-2.173z"/>
        <path fill="#161B36" fill-rule="nonzero" d="M11.498 7.153s-1.042-.973-1.162-3.013c-.12-2.04.311-4.196 1.583-4.116 1.271.08 2.889.155 4.16 0 1.272-.155 4.16.534 4.372 2.768.68 1.039.997 2.274.902 3.513-.16 2.075-.848 4.812-2.996 5.426l-.099-1.643s2.193-1.864 1.504-2.745c-.885-1.13-2.12-.107-2.252.665 0 0-.394-.401-.45-1.863 0 0-1.06-.771-1.087-1.836 0 0-3.392-.345-4.107.24l-.368 2.604z"/>
        <path fill="#030F1C" fill-rule="nonzero" d="M13.99 13.432s1.722-.804 2.278-1.39c0 0-.128 1.578-1.266 2.687-1.137 1.109-1.012.212-1.012.212v-1.51z" opacity=".6" style="mix-blend-mode:overlay"/>
        <path fill="#0B122D" fill-rule="nonzero" d="M18.06 8.63c-.008.002-.015.002-.023 0-.015-.006-.027-.018-.033-.032-.006-.015-.006-.032 0-.047.023-.053.554-1.305 1.128-1.111.031.01.048.045.038.077-.005.015-.016.027-.03.034-.015.007-.031.008-.046.003-.389-.133-.837.71-.98 1.044-.01.02-.031.033-.054.032z"/>
        <path fill="#0B122D" fill-rule="nonzero" d="M19.047 8.418c-.029 0-.054-.02-.06-.05-.011-.13-.078-.25-.183-.328-.112-.066-.244-.088-.371-.061-.033.007-.064-.014-.072-.046-.008-.032.012-.064.044-.072.159-.033.325-.005.464.078.134.096.221.244.239.408.005.033-.017.064-.049.07l-.012.001zM13.984 13.498c-.023 0-.045-.015-.054-.036-.006-.015-.007-.031-.001-.046.006-.014.017-.026.031-.032.02-.01 1.984-.892 2.813-1.958.02-.023.056-.027.081-.008.025.02.03.055.013.082-.847 1.09-2.777 1.957-2.858 1.993-.008.003-.016.005-.025.005z"/>
        <path fill="#FFF" fill-rule="nonzero" d="M16.517 3.542c-.01 0-.021-.003-.03-.008-.99-.571-.845-1.968-.837-2.028.004-.033.033-.056.066-.053.033.005.056.034.053.067 0 .014-.143 1.378.779 1.91.028.016.038.053.021.081-.01.02-.03.032-.052.031zM18.42 5.16c-.016 0-.031-.006-.042-.017-1.013-.97-.612-2.544-.607-2.56.008-.033.042-.052.075-.044.033.009.053.043.044.076 0 .015-.386 1.52.575 2.442.017.017.023.042.014.065s-.03.038-.055.038h-.004z"/>
        <circle cx="14.214" cy="7.254" r="1" fill="#161B36" fill-rule="nonzero"/>
        <circle cx="12.001" cy="7.408" r="1" fill="#161B36" fill-rule="nonzero"/>
        <path fill="#161B36" fill-rule="nonzero" d="M13.751 5.778c.08-.09.189-.16.516-.14.328.019.825.33.717.409-.107.079-.437-.19-.695-.1-.258.09-.407.163-.494.12-.11-.067-.082-.246-.044-.289zM12.33 5.686c-.104-.06-.23-.09-.534.036-.305.126-.674.578-.545.619.129.04.358-.322.626-.32.268 0 .437.022.504-.052.084-.089 0-.255-.051-.283z"/>
        <path fill="#030F1C" fill-rule="nonzero" d="M12.914 9.744c-.138.004-.275-.023-.396-.078-.08-.037-.136-.102-.152-.178-.03-.157.16-.398.393-.675.06-.066.114-.136.163-.208.047-.085.034-.861 0-1.56h.143c.014.24.08 1.465 0 1.621-.056.075-.117.146-.183.214-.143.174-.393.466-.368.587.009.04.04.076.084.095.205.074.436.08.646.016l.044.12c-.121.032-.248.047-.374.046z" opacity=".6"/>
        <path stroke="#000" stroke-width=".5" d="M13.22 11.356c.318-.081.628-.193.924-.334.299-.143.548-.371.717-.656"/>
        <path fill="#201F20" fill-rule="nonzero" d="M8.378 42.176s-1.434 18.016-1.353 20.97c.082 2.952.318 21.15.318 21.15s1.913 1.036 3.896 0c0 0 1.195-11.254 1.748-14.606.554-3.352.4-7.9.4-7.9l2.868-7.105 4.942 29.842s2.53.645 3.722-.153c0 0-.239-5.666 0-11.252.24-5.586-.239-9.658-.956-11.812 0 0 1.588-11.174 1.27-18.675l-16.855-.459z"/>
        <path fill="#FFF" fill-rule="nonzero" d="M25.182 47.244h-.01c-3.697-.66-3.09-4.775-3.083-4.816.002-.015.01-.03.023-.039.013-.01.03-.013.045-.011.016.002.03.01.039.024.01.013.013.029.01.044 0 .041-.598 4.04 2.988 4.68.033.003.057.033.054.066-.003.033-.032.057-.065.054v-.002zM8 46.405c-.026 0-.05-.019-.056-.046-.007-.026.005-.054.03-.067.026-.013 2.583-1.386 2.448-3.853 0-.016.005-.031.015-.043.01-.012.026-.019.041-.02.016 0 .032.005.044.015.012.011.02.026.02.042.14 2.544-2.486 3.952-2.51 3.966-.01.005-.02.007-.031.006z"/>
        <path fill="#030F1C" fill-rule="nonzero" d="M8.378 42.176l-.105 1.415c6.645 2.64 16.988.8 16.988.8l-.034-1.756-16.849-.459zM16.247 54.685l-1.591-5.945s-.837 3.22-.478 6.704c.358 3.483 0 4.371 0 4.371l2.069-5.13z" opacity=".6" style="mix-blend-mode:overlay"/>
        <path fill="#FFF" fill-rule="nonzero" d="M8.03 46.741s1.627.133 1.674 1.587c.038 1.15-.265 5.533-.583 8.64-.318 3.106-.257 8.965-.317 11.438-.06 2.473-1.652 2.16-1.652 2.16s-.205-7.04-.088-8.863c.117-1.823.424-9.08.967-14.965M16.71 57.561s2.18-.063 2.666 2.812c.597 3.535 1.855 13.812 2.12 15.622.265 1.81.127 4.003-1.031 4.159L16.71 57.561z" opacity=".6" style="mix-blend-mode:overlay"/>
        <path fill="#FFF" fill-rule="nonzero" d="M13.403 62.832c-.016-.002-.03-.01-.04-.022-.01-.012-.015-.028-.014-.044 0-.02.183-1.963-.597-3.26-.009-.014-.012-.03-.008-.046s.014-.03.028-.037c.028-.017.064-.008.081.02.796 1.332.612 3.316.611 3.335-.004.031-.03.054-.06.054z"/>
        <path fill="#6FA3EF" fill-rule="nonzero" d="M7.579 84.527l-4.183 3.04-2.64.217c-.559.198-.718.985-.756 1.267h11.448l-.411-4.524H7.579zM24.877 84.077L21.01 84.488 20.343 89.051 27.972 89.051z"/>
        <path fill="#FFF" fill-rule="nonzero" d="M6.733 86.668h-2.1l-.65.474h2.75c.093.015.186-.027.238-.107.051-.08.051-.182 0-.261-.052-.08-.145-.121-.238-.106M7.806 85.894H5.707l-.65.48h2.749c.132 0 .239-.108.239-.24 0-.133-.107-.24-.239-.24M8.77 85.192h-2.1l-.65.472h2.75c.114-.02.197-.12.197-.236 0-.117-.083-.216-.198-.236" opacity=".6" style="mix-blend-mode:overlay"/>
        <path fill="#3268AE" fill-rule="nonzero" d="M11.275 87.142c-2.212 0-1.854 1.909-1.854 1.909H0l.037.33c.059.33.353.565.686.548h10.499c.287 0 .226-.878.226-.878l-.173-1.91z"/>
        <rect width="4.345" height="1" x="7.206" y="83.654" fill="#3268AE" fill-rule="nonzero" rx=".276"/>
        <rect width="4.357" height="1" x="20.848" y="83.639" fill="#3268AE" fill-rule="nonzero" rx=".276"/>
        <path fill="#3268AE" fill-rule="nonzero" d="M26.375 87.448h-4.436c-.881 0-1.596.717-1.596 1.603v.88h7.625v-.88c0-.884-.713-1.601-1.593-1.603z"/>
        <rect fill="#FFF" fill-rule="nonzero" opacity=".6" style="mix-blend-mode:overlay" width="2.733" height="1" x="22.416" y="86.662" rx=".238"/>
        <rect fill="#FFF" fill-rule="nonzero" opacity=".6" style="mix-blend-mode:overlay" width="2.733" height="1" x="22.206" y="85.885" rx=".238"/>
        <rect fill="#FFF" fill-rule="nonzero" opacity=".6" style="mix-blend-mode:overlay" width="2.733" height="1" x="21.979" y="85.072" rx=".238"/>
        <path fill="#3268AE" fill-rule="nonzero" d="M29.963 32.916c-.006-.256-.03-.539-.067-.84v-.02-.005c-.394-3.13-2.33-8.575-3.283-11.573-.813-2.554-2.174-3.422-2.678-3.666h-.01c-.06-.03-.121-.055-.184-.077-1.06-.373-4.319-1.064-4.319-1.064l-3.944.905-2.358-.586s-2.64 1.18-3.967 2.04l-.105.07c-.075.05-.146.1-.21.148l-.1.076-.013.01c-.065.053-.127.109-.185.169-.598.397-2.079 1.623-2.63 4.3-.685 3.347-1.53 8.28-1.735 11.482-.139.92.164 2.223.956 2.76.89.6 2.196.65 3.759.393-.013.36-.025.72-.032 1.08-.025 1.152-1.113 3.416-.225 4.15 2.869 2.368 16.879 0 16.879 0-.023-1.383-.2-2.759-.532-4.101-.237-.87-.404-1.756-.5-2.652 2.016.26 3.714.086 4.44-.528.753-.635 1-1.396 1.025-2.274.013-.065.019-.131.018-.197z"/>
        <path fill="#0B122D" fill-rule="nonzero" d="M22.775 24.988c-.008-.003-.015-.007-.02-.012-1.647-1.514-1.565-4.012-1.564-4.037 0-.033.027-.06.06-.06s.06.027.06.06c0 .025-.082 2.468 1.524 3.943.011.011.017.027.017.043 0 .016-.006.03-.017.042-.015.018-.038.026-.06.02zM10.249 40.49c-.01 0-.02-.004-.029-.01-1.043-.6-1.404-1.896-1.42-1.95-.009-.034.011-.068.044-.077.033-.009.067.011.076.044 0 .013.358 1.301 1.364 1.88.028.017.038.053.021.082-.011.02-.033.032-.056.03zM8.655 26.117c-.03 0-.055-.022-.059-.052-.398-2.657-.21-4.578-.208-4.597.004-.033.033-.057.066-.054.016.002.03.01.04.022.01.012.015.028.014.044 0 .02-.19 1.927.206 4.567.003.016-.001.032-.01.045-.01.013-.024.021-.04.024h-.01z"/>
        <path fill="#030F1C" fill-rule="nonzero" d="M15.118 22.178c0 .103-.083.186-.185.186s-.185-.083-.185-.186c0-.102.083-.186.185-.186.102.001.185.084.185.186M15.249 25.87c-.002.103-.086.185-.188.184-.103 0-.185-.084-.185-.186 0-.103.082-.187.184-.188.102 0 .184.084.185.186" opacity=".6" style="mix-blend-mode:overlay"/>
        <path fill="#030F1C" fill-rule="nonzero" d="M15.847 39.36c0 .214-.173.388-.387.388-.214 0-.388-.174-.388-.388 0-.214.174-.388.388-.388.103 0 .202.04.275.113.072.073.113.172.112.275" opacity=".6"/>
        <path fill="#030F1C" fill-rule="nonzero" opacity=".6" style="mix-blend-mode:overlay" d="M14.092 18.136L16.517 16.898 15.47 16.566z"/>
        <path fill="#0B122D" fill-rule="nonzero" d="M14.98 35.7l-.12.042c-.019.582-.042 1.18-.063 1.775-.095 2.585-.194 5.257-.12 6.19.004.03.03.053.06.053.033-.003.057-.032.054-.064-.078-.924.02-3.593.12-6.176.03-.61.048-1.224.069-1.82zM14.903 29.72c-.189-2.784-.446-7.822-.385-8.934.076-1.346 1-4.11 1.008-4.138.006-.03-.01-.06-.04-.07-.028-.01-.06.004-.072.031-.01.029-.939 2.808-1.014 4.17-.062 1.111.194 6.12.381 8.917l.122.023z"/>
        <path fill="#030F1C" fill-rule="nonzero" d="M24.482 35.915c-.466-.06-.95-.143-1.442-.25-.358 2.267-1.502 3.96-2.589 5.11-1.434 1.524-4.398 1.889-6.527 2.941 4.076.224 11.588-1.052 11.588-1.052s.165-1.982-.717-4.869c-.174-.613-.279-1.244-.313-1.88zM22.282 24.162c-.296 2.164-.195 4.364.298 6.49.542 0 1.088 0 1.627.008-.409-1.325-1.22-3.985-1.925-6.498zM16.238 18.136L21.368 16.099 19.418 15.661z" opacity=".6" style="mix-blend-mode:overlay"/>
        <path fill="#FCC92C" fill-rule="nonzero" d="M19.418 15.661l-.545-2.048c-.62 1.458-1.876 2.548-3.403 2.953-1.02-.467-1.486-1.624-1.486-1.624l-.874 1.038.98 2.16 1.379-1.57c.61.585.768 1.57.768 1.57l3.18-2.479zM16.517 24.09H20.451999999999998V25.09H16.517z"/>
        <path fill="#030F1C" fill-rule="nonzero" d="M7.859 31.116c-.211.382-.291.822-.229 1.254.46-.083.948-.158 1.454-.23v-.092c-.008-.834-.12-2.242-.25-3.84-.132-1.551-.287-3.284-.4-4.852-.683.85-1.03 1.925-.973 3.016.12 2.188 1.194 3.168.398 4.744z" opacity=".6" style="mix-blend-mode:overlay"/>
        <path fill="#F2AC7D" fill-rule="nonzero" d="M8.514 32.224c1.572-.24 3.365-.423 4.978-.624.178-.472.252-.977.218-1.48-.336-.14-.661-.306-.973-.496-.44-.226-.864-.348-2.257-.6-1.172-.21-2.271 2.454-2.191 2.93.021.124.107.227.225.27zM22.14 29.294c-1.279.61-1.604.816-2.044 1.046-.186.271-.406.519-.653.736-.067 1.496.5 2.172.822 2.434.39-.047.71-.092.71-.092s1.076.547 2.927-1.089c.288-.254 1.17-.31 1.122-.79-.048-.48-1.808-2.758-2.884-2.245z"/>
        <path fill="#FFF" fill-rule="nonzero" d="M17.546 31.002s-.218.613-1.58.953c-1.36.34-6.453.888-7.18.997-.727.11-1.652.288-2.253 1.176-.184.271-.43-1.356.922-1.726 0 0 1.409-.278 4.115-.574 3.067-.336 5.976-.826 5.976-.826z" opacity=".6" style="mix-blend-mode:overlay"/>
        <path fill="#030F1C" fill-rule="nonzero" d="M4.303 32.744c.428.136.727.525.747.976.079.806.226 2.796 1.855 2.988 2.205.26 4.888-2.234 6.207-.382l-2.62.767s-3.847 1.08-5.36-.05c-1.513-1.13-.83-4.299-.83-4.299z" opacity=".6" style="mix-blend-mode:overlay"/>
        <path fill="#0B122D" fill-rule="nonzero" d="M16.238 35.32c-.021.003-.043-.004-.057-.021-.014-.017-.018-.04-.01-.06.007-.02.024-.036.046-.04l4.24-1.599c.03-.011.065.004.077.035.006.015.005.031-.001.046-.007.015-.019.026-.034.032l-4.244 1.603-.017.004zM14.964 31.337c-.033.002-.061-.023-.063-.057-.002-.033.023-.061.056-.063l4.51-.6c.032-.004.062.019.066.051.004.033-.019.063-.05.068l-4.51.6h-.009zM18.06 30.338h-.012l-4.136-.756c-.021-.003-.039-.018-.046-.039-.007-.02-.003-.043.01-.06.015-.017.037-.024.058-.02l4.135.757c.022.002.04.015.05.034.008.02.006.043-.006.06-.012.018-.033.028-.054.026v-.002z"/>
    </g>
</svg>
