<svg xmlns="http://www.w3.org/2000/svg" width="504" height="457" viewBox="0 0 504 457">
    <g fill="none" fill-rule="evenodd">
        <g fill-rule="nonzero" transform="translate(1 1) translate(142.195 33.3)">
            <path fill="#DCE8F9" d="M0.781 0.805H255.25900000000001V162.257H0.781z"/>
            <path fill="#050F1B" d="M.781.805H255.25900000000001V16.574H.781zM113.507 90.635v47.353H97.359V98.14c4.617-.663 11.98-2.51 16.148-7.505z" opacity=".6"/>
            <path fill="#2F6FB5" d="M129.654 85.947v52.089h-16.147V90.682l.142-.19c4.57-5.729 10.867-7.102 16.005-4.545z"/>
            <path fill="#F2AE6A" d="M145.778 97.809v40.25h-16.124V85.97c2.122 1.104 3.923 2.735 5.233 4.736 2.815 3.43 6.618 5.91 10.891 7.103z"/>
            <path fill="#050F1B" d="M161.926 95.394v42.618h-16.148v-40.25c4.648 1.665 9.79 1.224 14.088-1.208.757-.41 1.444-.797 2.06-1.16z" opacity=".6"/>
            <path fill="#2F6FB5" d="M178.073 93.429v44.63h-16.147V95.441c4.813-3.044 10.734-3.782 16.147-2.012z"/>
            <path fill="#F2AE6A" d="M194.15 89.972v47.993h-16.148V93.429l1.99.663c3.787 1.373 8.996-.095 14.158-4.12z"/>
            <path fill="#050F1B" d="M210.368 67.053v71.03H194.15V89.972c7.423-6.011 13.009-13.985 16.124-23.014l.094.095z" opacity=".6"/>
            <circle cx="8.453" cy="8.689" r="3.457" fill="#60A3DD"/>
            <circle cx="20.267" cy="8.689" r="3.457" fill="#60A3DD"/>
            <circle cx="32.674" cy="8.689" r="3.457" fill="#60A3DD"/>
            <circle cx="3.977" cy="3.954" r="3.457" fill="#050F1B" opacity=".6" transform="translate(233.833 4.735)"/>
            <rect width="34.734" height="6.345" x=".426" y=".236" fill="#050F1B" opacity=".6" rx="3.173" transform="translate(192.682 5.635)"/>
            <path fill="#A9C1E9" d="M225.64 138.486L86.491 138.486 86.491 39.232 87.036 39.232 87.036 137.941 225.64 137.941z"/>
            <g>
                <path fill="#050F1B" d="M44.938 46.217c-4.66 4.462-10.79 7.072-17.236 7.34h-2.108c-2.765-.121-5.496-.664-8.097-1.61C4.702 47.235-2.421 33.574 1.04 20.386l26.045 8.642.545.544 17.307 16.645z" opacity=".6" transform="translate(17.474 23.677)"/>
                <path fill="#F2AE6A" d="M47.495 10.82L28.222 27.157l18.16 17.521c8.528-9.525 8.997-23.793 1.113-33.858z" transform="translate(17.474 23.677)"/>
                <path fill="#2F6FB5" d="M46.146 9.234C41.384 4.034 34.746.95 27.702.663v24.174L46.146 9.234z" transform="translate(17.474 23.677)"/>
                <path fill="#60A3DD" d="M25.594.663v25.642L1.657 18.373l.142-.402c1.147-3.129 2.874-6.013 5.09-8.5.474-.521.948-1.018 1.469-1.516C13.022 3.505 19.152.912 25.594.663z" transform="translate(17.474 23.677)"/>
            </g>
            <path fill="#A9C1E9" d="M81.851 45.27L81.448 44.915 86.775 39.019 92.032 44.915 91.629 45.27 86.775 39.824zM220.336 143.505L219.981 143.103 225.427 138.249 219.981 133.324 220.336 132.922 226.232 138.249z"/>
            <circle cx="86.775" cy="88.741" r="2.462" fill="#F2AE6A"/>
            <circle cx="86.775" cy="138.225" r="2.462" fill="#2F6FB5"/>
            <rect width="52.941" height="3.717" x=".165" y=".236" fill="#050F1B" opacity=".6" rx="1.681" transform="translate(17.474 88.504)"/>
            <rect width="52.941" height="3.717" x=".165" y=".734" fill="#050F1B" opacity=".6" rx="1.681" transform="translate(17.474 97.075)"/>
            <rect width="52.941" height="3.717" x=".165" y=".355" fill="#050F1B" opacity=".6" rx="1.681" transform="translate(17.474 106.546)"/>
            <rect width="52.941" height="3.717" x=".165" y=".52" fill="#050F1B" opacity=".6" rx="1.681" transform="translate(17.474 115.449)"/>
            <rect width="26.471" height="9.352" x=".165" y=".852" fill="#050F1B" opacity=".6" rx="1.847" transform="translate(17.474 127.855)"/>
            <rect width="49.106" height="2.273" x=".615" y=".308" fill="#050F1B" opacity=".6" rx="1.136" transform="translate(176.108 26.044)"/>
            <circle cx="4.025" cy="3.883" r="3.22" fill="#050F1B" opacity=".6" transform="translate(166.638 23.677)"/>
            <rect width="49.106" height="2.273" x=".615" y=".403" fill="#050F1B" opacity=".6" rx="1.136" transform="translate(176.108 35.515)"/>
            <circle cx="4.025" cy="3.978" r="3.22" fill="#050F1B" opacity=".6" transform="translate(166.638 33.148)"/>
            <rect width="49.106" height="2.273" x=".615" y=".497" fill="#050F1B" opacity=".6" rx="1.136" transform="translate(176.108 44.986)"/>
            <circle cx="4.025" cy="4.072" r="3.22" fill="#050F1B" opacity=".6" transform="translate(166.638 42.618)"/>
        </g>
        <g fill-rule="nonzero">
            <path fill="#68E1BD" d="M62.53 83.84c-1.207-9.045 8.43-18.942 0-32.225-8.429-13.283-10.844-23.203-9.636-35.255.567-5.627-1.662-11.175-5.967-14.845-1.003-.896-2.3-1.394-3.646-1.397-1.353 0-2.66.497-3.67 1.397-4.304 3.67-6.534 9.218-5.966 14.845 1.207 12.052-1.208 21.996-9.637 35.255-8.429 13.26 1.208 23.18 0 32.224-1.207 9.045-7.103 31.301-5.824 46.17 1.089 11.838 9.139 20.67 22.374 23.038.9.168 1.81.27 2.723.307.867-.017 1.73-.112 2.581-.284 13.33-2.367 21.31-11.104 22.517-23.06 1.326-14.894-4.641-37.126-5.849-46.17z" transform="translate(1 1) translate(22.5 202.305)"/>
            <path fill="#050F1B" d="M46.762 149.448c-.85.17-1.714.265-2.581.284-.916-.013-1.828-.116-2.723-.308C28.2 147.056 20.15 138.32 19.084 126.41c-1.184-12.88 4.995-42.618 4.948-42.902v.331c-1.208 9.045-7.103 31.301-5.825 46.194 1.09 11.838 9.14 20.646 22.375 23.014.899.168 1.809.27 2.723.307.867-.019 1.73-.114 2.58-.284 12.384-2.178 20.244-9.897 22.162-20.551-2.936 8.784-10.347 15.01-21.285 16.929z" opacity=".6" transform="translate(1 1) translate(22.5 202.305)"/>
            <path fill="#C5DFFB" d="M70.225 192.54H44.181v-21.428h1.8c16.634-.002 30.286-13.162 30.898-29.785-.607.046-1.217.046-1.824 0-.879 15.702-13.868 27.985-29.596 27.986h-1.278v-16.006h-1.823v16.006h-1.302c-14.97-.02-27.58-11.188-29.407-26.045-.403.098-.817.138-1.231.118h-.64c1.628 15.77 14.927 27.749 30.78 27.726h1.847v21.427H16.361c-1.073 0-1.942.87-1.942 1.942s.87 1.941 1.942 1.941h53.912c1.072 0 1.941-.869 1.941-1.941 0-.523-.21-1.024-.585-1.39-.374-.365-.88-.564-1.404-.552z" transform="translate(1 1) translate(22.5 202.305)"/>
            <path fill="#050F1B" d="M76.879 141.327c-.612 16.623-14.264 29.783-30.899 29.785h-1.8v21.451h-1.822v-21.451H40.51c-15.853.023-29.152-11.956-30.78-27.726h.64c.413.02.828-.02 1.23-.118 1.828 14.857 14.438 26.025 29.407 26.045h1.302v-16.006h1.824v16.006h1.278c15.727-.001 28.717-12.284 29.596-27.986.623.049 1.248.049 1.87 0z" opacity=".6" transform="translate(1 1) translate(22.5 202.305)"/>
            <path fill="#C5DFFB" d="M68.663 243.776c-.893 1.808-2.72 2.968-4.736 3.007H22.66c-2.016-.04-3.843-1.199-4.736-3.007-4.238-8.642-15.105-33.147-3.456-38.025 2.324-.694 4.318-2.208 5.61-4.262.719-1.723.357-3.707-.922-5.067h48.324c-1.28 1.36-1.641 3.344-.924 5.067 1.293 2.054 3.287 3.568 5.612 4.262 11.649 4.807.781 29.383-3.504 38.025z" transform="translate(1 1) translate(22.5 202.305)"/>
            <path fill="#050F1B" d="M66.555 201.49H19.983c.718-1.724.356-3.708-.923-5.068h48.419c-1.28 1.36-1.641 3.344-.924 5.067z" opacity=".6" transform="translate(1 1) translate(22.5 202.305)"/>
            <path fill="#9AF0C8" d="M18.657 125.653c-3.243-4.168-3.551-5.778-1.894-7.885 2.165-2.786 2.165-6.685 0-9.47-3.315-3.623-2.865-7.246-2.723-11.839.024-.157.024-.317 0-.474 0-1.961-1.59-3.551-3.551-3.551-1.962 0-3.552 1.59-3.552 3.551-.023.157-.023.317 0 .474.142 4.522.592 8.145-2.723 11.838-2.164 2.786-2.164 6.685 0 9.471 1.658 2.107 1.35 3.717-1.917 7.885-2.108 2.722-2.747 12.572 4.12 16.573 1.19.69 2.53 1.08 3.906 1.137 1.285-.06 2.547-.365 3.717-.9 7.411-3.836 6.796-14.04 4.617-16.81z" transform="translate(1 1) translate(22.5 202.305)"/>
            <path fill="#050F1B" d="M14.206 142.51c-1.17.538-2.432.844-3.717.9-1.382-.061-2.73-.451-3.93-1.136-3.806-2.515-5.925-6.916-5.517-11.46-.034 4.136 2.046 8.002 5.516 10.252 1.199.696 2.547 1.094 3.93 1.16 1.288-.061 2.551-.375 3.718-.923 3.73-2.159 6.009-6.157 5.967-10.465.431 4.716-1.891 9.26-5.967 11.672z" opacity=".6" transform="translate(1 1) translate(22.5 202.305)"/>
            <path fill="#9AF0C8" d="M84.81 107.706c3.173-6.322 1.445-17.048-1.87-22.92-3.315-5.871-3.054-6.18-1.397-14.206.52-2.05.52-4.2 0-6.25-.724-2.444-2.968-4.12-5.517-4.12-2.548 0-4.793 1.676-5.516 4.12-.508 2.052-.508 4.198 0 6.25 1.657 7.98 1.917 8.287-1.397 14.206-3.315 5.92-5.044 16.574-1.87 22.92 3.172 6.345-4.452 10.583-4.452 20.906 0 4.57 3.125 9.045 8.642 11.696 2.914 1.421 6.32 1.421 9.234 0 5.517-2.651 8.642-7.103 8.642-11.696-.047-10.323-7.648-14.585-4.499-20.906z" transform="translate(1 1) translate(22.5 202.305)"/>
            <path fill="#050F1B" d="M89.262 128.612c0 4.57-3.126 9.045-8.642 11.696-2.92 1.397-6.315 1.397-9.234 0-5.493-2.651-8.619-7.103-8.642-11.696v-1.065c.69 4.931 3.97 9.115 8.594 10.962 2.92 1.396 6.315 1.396 9.234 0 4.625-1.852 7.91-6.031 8.619-10.962.07.331.07.71.07 1.065zM58.6 105.977c-.19.592-4.285 14.064-14.42 15.769v31.561h-1.822v-15.58c-11.98-2.51-16.053-14.205-16.219-14.75-.144-.476.104-.983.568-1.16.483-.142.992.118 1.16.592 0 0 3.813 11.01 14.49 13.472v-14.396c-.083-.129-.14-.274-.165-.426-.01-.21.048-.418.166-.592V96.175c-8.879-2.605-12.738-13.07-12.904-13.52-.158-.476.095-.992.568-1.16.464-.158.97.084 1.137.545 0 0 3.551 9.613 11.199 12.24V76.027c-.131-.26-.131-.568 0-.829v-23.44c-3.883-3.196-3.978-9.991-4.002-10.3.073-.446.459-.775.912-.775s.84.329.912.776c.044 2.696.795 5.333 2.178 7.647V37.93c.012-.492.408-.887.9-.9.496 0 .9.403.9.9v36.32c5.54-3.22 6.013-11.838 6.013-11.957 0-.497.403-.9.9-.9s.9.403.9.9c0 .45-.569 10.608-7.814 13.899v43.66c8.808-1.776 12.644-14.206 12.691-14.443.138-.477.636-.753 1.113-.616.242.071.446.237.566.459.12.222.147.483.073.725zM11.436 118.857v20.836c0 1.203.07 2.404.213 3.599-.403.098-.817.137-1.231.118h-.64c0-1.042-.142-2.083-.142-3.149v-2.25c-4.735-2.06-6.156-8.286-6.203-8.57-.1-.325-.01-.68.236-.915.245-.236.603-.313.923-.2.321.114.55.398.593.736.637 2.751 2.21 5.195 4.451 6.914v-34.947c0-.497.403-.9.9-.9s.9.403.9.9v14.987c.973-1.646 1.624-3.462 1.918-5.35.065-.498.52-.848 1.018-.782.497.065.847.521.781 1.018-.42 2.962-1.714 5.732-3.717 7.955z" opacity=".6" transform="translate(1 1) translate(22.5 202.305)"/>
            <path fill="#050F1B" d="M83.816 122.006c-1.077 3.614-3.57 6.638-6.914 8.382v10.939c-.607.046-1.216.046-1.823 0v-27.418c-5.043-2.794-6.369-9.779-6.416-10.086-.048-.237.003-.483.142-.68.139-.197.353-.328.592-.362.483-.087.946.229 1.041.71.66 3.194 2.32 6.096 4.736 8.287V69.49c0-.497.403-.9.9-.9.496 0 .9.403.9.9v17.332c.573-.877.99-1.846 1.23-2.865.128-.479.603-.778 1.09-.687.232.056.433.203.557.407.125.204.163.45.106.682-.432 1.963-1.477 3.737-2.984 5.067v38.925c2.467-1.587 4.295-3.993 5.162-6.796.049-.235.195-.439.403-.56.207-.122.456-.15.686-.079.456.148.716.627.592 1.09z" opacity=".6" transform="translate(1 1) translate(22.5 202.305)"/>
        </g>
        <g stroke="#99B0D0" transform="translate(1 1) translate(0 165.6)">
            <path d="M5.4 31.5H119.7V284.4H5.4zM0 284.4H5.4V289.79999999999995H0zM119.7 284.4H125.10000000000001V289.79999999999995H119.7zM119.7 26.1H125.10000000000001V31.5H119.7zM0 26.1H5.4V31.5H0zM63 8.606L63 31.5"/>
            <circle cx="63" cy="4.5" r="4.5"/>
        </g>
        <g>
            <g fill-rule="nonzero">
                <path fill="#D2E1FB" d="M22.066 0.26L0.094 169.928 6.771 169.928 36.864 0.26z" transform="translate(1 1) translate(151.666 93.392) translate(103.61 185.58)"/>
                <path fill="#A9C1E9" d="M32.555 0.26L4.403 169.715 12.146 169.928 47.377 0.26z" transform="translate(1 1) translate(151.666 93.392) translate(103.61 185.58)"/>
            </g>
            <g fill="#C5DFFB" fill-rule="nonzero" transform="translate(1 1) translate(151.666 93.392) translate(211.624 120.752)">
                <path d="M111.612 23.463l-.26 89.144c0 13.076-10.6 23.676-23.677 23.676h-51.19s46.88-7.79 55.239-22.73c12.146-21.664 6.321-89.782 6.321-89.782l13.567-.308z"/>
                <rect width="84.503" height="62.601" x="49.484" y=".544" rx="14.182" transform="rotate(-180 91.735 31.845)"/>
                <path d="M114.311 134.886H6.961c-3.836 0-6.961 2.202-6.961 4.925v2.368c0 2.7 3.125 4.901 6.96 4.901h116.017c3.836 0 6.937-2.202 6.937-4.901v-2.368c0-2.723-3.101-4.925-6.937-4.925h-8.666z"/>
                <path d="M53.959 134.721H68.165V188.633H53.959z" transform="rotate(-180 61.062 161.677)"/>
                <path d="M24.245 226.042s32.626-6.535 32.887-6.535v-30.78h7.837v30.78c.213 0 32.792 6.677 32.792 6.677 1.74.292 2.959 1.88 2.79 3.636-.167 1.757-1.665 3.085-3.429 3.041H53.249l-28.412-.19c-1.67-.089-3.02-1.392-3.169-3.058-.149-1.665.95-3.187 2.577-3.57z"/>
            </g>
            <g>
                <g>
                    <g fill-rule="nonzero">
                        <g fill="#F3B9B7">
                            <path d="M123.404 30.4L123.404 44.654 134.65 44.654 135.195 30.4zM.758 10.109L8.689 18.065 19.178 8.405 10.868.047z" transform="translate(1 1) translate(151.666 93.392) translate(73.398) translate(0 208.356) translate(0 84.336) translate(30.78 4.168)"/>
                        </g>
                        <g fill="#493A39">
                            <path d="M168.72 49.721c0-2.367-3.22-3.906-3.22-3.906s-6.06 4.735-11.317 0c-1.643.433-3.232 1.053-4.735 1.846l-.829.403-1.326.663c.332-.805.947-2.534.45-3.339-.16-.268-.445-.437-.757-.45-.328-.042-.652.094-.853.356-.388.83-.455 1.774-.19 2.652-.852-.758-2.367-1.87-3.053-1.563-.297.13-.478.435-.45.758-.032.418.114.83.402 1.136.949.69 2.095 1.055 3.268 1.042-.948.473-2.013.97-3.078 1.444l-.19-.166c-.092-.09-.24-.09-.331 0-.094.1-.094.255 0 .355l-2.368 1.042-.947.355-.237-.236c-.054-.096-.163-.147-.27-.128-.11.019-.194.103-.213.212-.019.108.032.216.128.27l-1.894.64c-1.87.568-3.48.994-4.073 1.137h-.236c-3.978.947-7.861 3.267-8.477 5.327v1.989c0 .902.732 1.633 1.634 1.633h41.53c.901 0 1.633-.731 1.633-1.633v-1.54s.095-7.931 0-10.299zm-25.452-1.752c-.188-.196-.283-.463-.26-.734 0-.22.047-.34.142-.355 1.142.422 2.165 1.112 2.983 2.013-1.018.028-2.019-.262-2.865-.83v-.094zm3.48.924v-.237c-.189-.64-.567-2.368 0-3.007.12-.116.284-.177.45-.166.15-.006.29.078.356.213.355.568-.166 2.368-.616 3.22l-.19-.023zM33.597 12.217c-1.445-.822-2.978-1.48-4.57-1.965l-.852-.284-1.42-.474c.828-.331 2.367-1.136 2.699-2.036.073-.302-.007-.62-.213-.852-.219-.252-.544-.384-.876-.355-.758 0-1.516 1.041-1.989 1.728 0-1.136-.308-2.936-1.042-3.267-.308-.115-.655-.03-.876.213-.32.27-.503.67-.497 1.089.163 1.16.704 2.233 1.539 3.054l-3.196-1.16v-.26c-.013-.135-.126-.238-.26-.237-.13.021-.228.13-.238.26-.852-.331-1.704-.663-2.367-.994l-.924-.426v-.332c0-.067-.028-.131-.077-.176-.05-.045-.116-.067-.183-.06-.13 0-.237.105-.237.236-.64-.308-1.255-.592-1.8-.9-1.728-.9-3.172-1.752-3.67-2.083l-.212-.118C8.83.663 4.475-.45 2.58.568L1.16 1.965c-.325.309-.509.736-.509 1.184 0 .448.184.875.508 1.184l29.288 29.454c.309.324.737.508 1.184.508.448 0 .876-.184 1.184-.508l1.09-1.066s5.871-5.706 7.457-7.434c1.587-1.729.498-5.043.498-5.043s-7.98-.9-8.264-8.027zm-9.21-6.203c-.004-.282.117-.55.332-.734.089-.1.22-.154.355-.142.5 1.114.727 2.332.663 3.551-.713-.732-1.184-1.666-1.35-2.675zm1.8 3.125l.118-.237c.308-.568 1.302-2.107 2.06-2.178.165-.016.327.056.426.19.107.104.152.256.118.402-.165.64-1.728 1.444-2.722 1.847v-.024z" transform="translate(1 1) translate(151.666 93.392) translate(73.398) translate(0 208.356) translate(0 84.336)"/>
                        </g>
                        <path fill="#050F1B" d="M165.525 58.718c.967 0 1.752-.784 1.752-1.752 0-.967-.785-1.752-1.752-1.752-.968 0-1.753.785-1.753 1.752 0 .465.185.91.514 1.24.328.328.774.512 1.239.512z" opacity=".4" transform="translate(1 1) translate(151.666 93.392) translate(73.398) translate(0 208.356) translate(0 84.336)"/>
                        <path fill="#050F1B" d="M164.933 54.101h3.835v-.497h-3.835c-1.779 0-3.22 1.442-3.22 3.22v3.102H123.83v1.989c0 .433.172.849.478 1.155.307.306.722.479 1.155.479h41.53c.433 0 .848-.173 1.155-.479.306-.306.478-.722.478-1.155v-1.989h-6.51v-3.102c-.008-.74.29-1.452.822-1.967.533-.515 1.254-.788 1.995-.756zM147.364 48.869c-.047.145-.102.287-.165.426.764.746 1.483 1.537 2.154 2.368.083.104.083.251 0 .355h-.165c-.06.03-.13.03-.19 0-.721-.935-1.513-1.814-2.368-2.628h-.378c-.947.473-2.013.97-3.078 1.444.852.809 1.643 1.68 2.367 2.605.05.04.08.1.08.165s-.03.126-.08.166c-.045.021-.097.021-.142 0-.06.03-.13.03-.19 0-.721-.942-1.513-1.828-2.367-2.652l-2.51 1.066-.9.331c.796.788 1.54 1.626 2.226 2.51.051.045.08.11.08.177 0 .068-.029.133-.08.178-.045.021-.097.021-.142 0-.06.03-.13.03-.19 0-.727-.93-1.518-1.808-2.367-2.628-3.03 1.09-6.227 1.847-6.227 1.847.317 1.197 1.202 2.162 2.368 2.58 1.823.498 12.099-3.054 14.822-4.38 2.722-1.326 0-5.02 0-5.02s-1.232.45-2.558 1.09zM32.532 29.288c.685.681 1.793.679 2.475-.005.682-.684.682-1.791 0-2.475-.682-.684-1.79-.687-2.475-.006-.331.33-.517.776-.517 1.243 0 .467.186.914.517 1.243z" opacity=".4" transform="translate(1 1) translate(151.666 93.392) translate(73.398) translate(0 208.356) translate(0 84.336)"/>
                        <path fill="#050F1B" d="M35.373 25.595l2.723 2.722.331-.331-2.699-2.723c-1.256-1.252-3.29-1.252-4.546 0l-2.178 2.178L2.368.616.948 2.013c-.325.308-.509.736-.509 1.183 0 .448.184.876.508 1.184l29.288 29.454c.309.324.737.508 1.184.508.448 0 .876-.184 1.184-.508l1.42-1.397-4.593-4.617 2.179-2.178c1.04-1.02 2.699-1.041 3.764-.047zM26.684 9.47l-.426.19c.004 1.093-.067 2.185-.214 3.268-.01.063-.048.119-.101.155-.054.036-.12.048-.183.034h-.142c-.023-.061-.023-.129 0-.19.16-1.168.23-2.348.213-3.527l-.26-.284-3.196-1.16c.022 1.155-.041 2.31-.19 3.456-.024.135-.148.228-.284.213-.046.017-.096.017-.142 0-.034-.067-.034-.146 0-.213.166-1.184.229-2.38.19-3.575-.877-.331-1.729-.663-2.51-1.018l-.876-.379c.013 1.117-.058 2.233-.213 3.339-.006.067-.04.13-.094.17-.055.041-.124.056-.19.043h-.143c-.027-.069-.027-.145 0-.213.16-1.161.231-2.333.213-3.505-2.888-1.397-5.682-3.125-5.682-3.125-.625 1.06-.695 2.358-.19 3.48.924 1.634 10.703 6.417 13.544 7.435 2.84 1.018 3.504-3.599 3.504-3.599l-2.628-.994z" opacity=".4" transform="translate(1 1) translate(151.666 93.392) translate(73.398) translate(0 208.356) translate(0 84.336)"/>
                    </g>
                    <path fill="#2C2B6E" fill-rule="nonzero" d="M239.278 2.107S177.102 1.16 172.983.71c-4.12-.45 0-.118-1.894.19-6.843 2.13-14.206 4.593-21.31 7.102-6.629 2.368-13.116 4.736-18.941 6.914-9.956 3.368-19.704 7.32-29.193 11.839-11.105 5.658-22.257 20.03-30.78 29.098l-1.705 1.87c-2.747 2.96-5.517 5.896-8.263 8.832-7.648 8.074-15.32 16.03-22.99 24.08 1.21 5.441 5.658 9.569 11.175 10.37 20.48-13.709 41.08-24.127 54.788-35.728 6.866-5.801 8.666-8.003 13.733-11.957 2.087-1.709 4.65-2.734 7.34-2.936 7.292.237 14.797.166 22.256 0 1.397 27.134 5.516 71.03 5.516 71.03 1.919 1.574 4.314 2.45 6.796 2.486 6.227 0 8.002-2.486 8.002-2.486.498-27.82 1.966-29.454 3.362-44.252 1.076-8.716 1.495-17.501 1.255-26.28l37.694-.38c12.383 0 24.174-9.47 27.986-21.143 3.693-11.01 1.468-27.252 1.468-27.252z" transform="translate(1 1) translate(151.666 93.392) translate(73.398) translate(0 208.356)"/>
                    <path fill="#FFF" fill-rule="nonzero" d="M48.68 79.601c1.718 6.368 6.411 11.511 12.596 13.804l-2.77 1.728s-10.774-3.67-11.839-13.448L48.68 79.6z" opacity=".6" transform="translate(1 1) translate(151.666 93.392) translate(73.398) translate(0 208.356)"/>
                    <path fill="#050F1B" fill-rule="nonzero" d="M171.444.71l-3.291 1.184c27.252 11.554 71.67 7.458 71.67 7.458l-.403-6.085L171.444.71z" opacity=".6" transform="translate(1 1) translate(151.666 93.392) translate(73.398) translate(0 208.356)"/>
                    <g>
                        <path d="M151.294 1.538c-.165.498 0 0 0-.142v.142z" transform="translate(1 1) translate(151.666 93.392) translate(73.398) translate(0 208.356) translate(60.092 3.268)"/>
                        <path fill="#FFF" fill-rule="nonzero" d="M2.675 63.288c5.612-.9 29.43-29.43 35.279-31.917 5.848-2.486 46.974-15.271 51-21.782.9-1.405 1.167-3.124.733-4.736-6.63 2.368-13.116 4.736-18.941 6.914-9.955 3.37-19.703 7.323-29.193 11.838-11.105 5.659-22.257 20.03-30.78 29.099l-1.705 1.87C6.32 57.534 3.55 60.47.805 63.406c.626.031 1.253-.009 1.87-.118z" opacity=".6" transform="translate(1 1) translate(151.666 93.392) translate(73.398) translate(0 208.356) translate(60.092 3.268)"/>
                    </g>
                    <path fill="#050F1B" fill-rule="nonzero" d="M147.01 46.454c-.38-8.784-.616-15.177 3.385-17.995 3.45-2.001 7.052-3.727 10.773-5.161 13.022-5.493 34.047-13.188 47.709-18.09-4.746-.729-9.595-.414-14.206.924-12.762 2.96-33.669 9.234-48.846 13.709-3.67 1.089-12.051 4.451-14.206 8.784-3.362 6.558 0 15.769-6.25 20.978-.332.284-1.066.497-1.42.9h23.25c-.071-1.374-.142-2.723-.19-4.05zM239.775 17.663c-.22 4.006-.88 7.976-1.965 11.838-4.002 11.578-15.603 21.143-27.986 21.143l-32.745.332c7.103-14.206 24.103-3.15 39.516-11.625 6.559-3.647 17.26-18.942 23.18-21.688z" opacity=".6" transform="translate(1 1) translate(151.666 93.392) translate(73.398) translate(0 208.356)"/>
                    <path fill="#0C122B" fill-rule="nonzero" d="M172.012 51.994c-.135-.005-.26-.068-.347-.172-.086-.104-.123-.24-.103-.373.349-2.664.349-5.362 0-8.026-.047-.122-.047-.257 0-.379.053-.121.144-.221.26-.284.256-.09.538.021.664.26.366 2.83.366 5.695 0 8.524-.024.247-.226.44-.474.45zm.284-6.44c0 2.368-.237 5.422-.26 5.895.189-1.959.276-3.927.26-5.895z" transform="translate(1 1) translate(151.666 93.392) translate(73.398) translate(0 208.356)"/>
                    <path fill="#FFF" fill-rule="nonzero" d="M173.48 18.35s1.468 2.604-2.06 4.735c-4.735 2.722-16.905 6.44-18.326 10.488-1.42 4.05-.45 22.28-.544 26.045-.095 3.765-4.404 6.582-4.404 6.582l-1.137-19.675c-.165-6.44-1.491-14.893 3.386-17.995 7.008-4.498 23.085-10.18 23.085-10.18zM151.532 108.51c5.175 2.426 11.161 2.426 16.337 0v2.96s-8.998 4.049-15.959 0l-.378-2.96z" opacity=".6" transform="translate(1 1) translate(151.666 93.392) translate(73.398) translate(0 208.356)"/>
                </g>
                <g fill-rule="nonzero">
                    <path fill="#F3B9B7" d="M38.45 34.994c1.421-7.766-7.623-6.842-9.162-6.63-1.54.214-2.936-11.6-2.936-11.6s-17.284-4.736-21.31-1.848c0 0-3.622 14.443-4.735 23.677-1.113 9.234 1.09 13.78 4.499 14.396 1.09.124 2.195.068 3.267-.166L4.972 69.87l22.587-6.96 1.09-20.6h.189s8.334.024 9.613-7.316z" transform="translate(1 1) translate(151.666 93.392) translate(73.398) translate(188.847 36.983)"/>
                    <path fill="#322418" d="M2.225 27.489s2.368-7.814 2.936-10.016c.084-1.263 1.041-2.294 2.295-2.472 1.253-.177 2.46.548 2.89 1.739 1.905 3.772 5.896 6.025 10.11 5.706 3.694-.166 5.351-.853 5.02 2.77-.332 3.622-.166 9.778 1.255 8.405 1.42-1.373 3.314-4.735 5.635-4.735 3.551 0 4.924 4.475 3.67 6.771-1.255 2.297-2.676 3.623-7.34 5.162l-.569 10.725c13.023-12.027 20.457-30.448 7.104-37.456C30.187 11.483 26.612-.237 15.863.33c-7.6.403-8.618 6.014-10.015 10.773C-4.168 9.826 2.225 27.49 2.225 27.49z" transform="translate(1 1) translate(151.666 93.392) translate(73.398) translate(188.847 36.983)"/>
                    <path fill="#0C122B" d="M28.222 36.415h-.142c-.083-.104-.083-.251 0-.355.142-.19 3.22-4.878 5.422-3.67.118.065.16.214.095.331-.066.118-.214.16-.332.095-1.491-.829-3.954 2.368-4.735 3.528-.07.099-.202.13-.308.07z" transform="translate(1 1) translate(151.666 93.392) translate(73.398) translate(188.847 36.983)"/>
                    <path fill="#0C122B" d="M32.413 36.297c-.135-.013-.237-.126-.237-.26.048-.538-.132-1.071-.497-1.469-.417-.334-.934-.518-1.468-.52-.067.006-.133-.016-.183-.061-.05-.045-.078-.11-.077-.177 0-.118 0-.236.236-.26.67-.013 1.319.224 1.823.663.478.49.72 1.164.663 1.847-.012.134-.125.237-.26.237zM8.05 53.178c-.118-.003-.222-.078-.26-.19-.017-.128.063-.25.189-.283 0 0 8.736-2.155 12.903-5.872.045-.051.11-.08.178-.08.068 0 .133.029.178.08.09.092.09.24 0 .331-4.262 3.812-12.762 5.896-13.117 5.99l-.071.024z" transform="translate(1 1) translate(151.666 93.392) translate(73.398) translate(188.847 36.983)"/>
                    <path fill="#FFF" d="M25.665 20.883c-.053.022-.113.022-.166 0-3.172-3.528-.805-8.808-.71-9.045.063-.119.207-.17.332-.118.09.092.09.24 0 .331 0 0-2.368 5.21.615 8.5.051.045.08.11.08.178 0 .068-.029.133-.08.178l-.07-.024z" transform="translate(1 1) translate(151.666 93.392) translate(73.398) translate(188.847 36.983)"/>
                    <path fill="#050F1B" d="M8.026 53.06c3.594-.887 7.063-2.223 10.323-3.978-1.219 4.014-3.712 7.522-7.103 9.992-5.47 3.67-4.286.118-4.286.118l1.066-6.132z" opacity=".6" transform="translate(1 1) translate(151.666 93.392) translate(73.398) translate(188.847 36.983)"/>
                    <g transform="translate(1 1) translate(151.666 93.392) translate(73.398) translate(188.847 36.983) translate(1.468 19.841)">
                        <ellipse cx="12.261" cy="8.317" fill="#171B34" rx="1.515" ry="1" transform="rotate(-79.75 12.26 8.317)"/>
                        <ellipse cx="3.126" cy="7.28" fill="#171B34" rx="1.515" ry="1" transform="rotate(-79.75 3.126 7.28)"/>
                        <path fill="#171B34" d="M11.46 1.965c.402-.308.899-.497 2.225-.19 1.326.308 3.125 1.966 2.604 2.202-.52.237-1.633-1.089-2.746-.923-1.113.166-1.8.355-2.107 0-.308-.355-.142-.923.023-1.09zM5.753.544C5.374.236 4.877.024 3.551.308 2.225.592.355 2.154.852 2.415c.497.26 1.681-1.042 2.794-.829 1.113.213 1.776.403 2.107.142.332-.26.166-1.018 0-1.184z"/>
                        <path fill="#050F1B" d="M4.735 17.378c-.467-.064-.908-.252-1.278-.544-.248-.205-.395-.507-.403-.829 0-.639.852-1.515 1.847-2.367.252-.238.489-.491.71-.758.521-2.086.893-4.207 1.113-6.345h.497c-.226 2.214-.63 4.408-1.207 6.558-.235.292-.488.569-.758.829-.64.615-1.681 1.633-1.705 2.154.004.173.092.332.237.426.637.436 1.418.606 2.178.474v.497c-.413.032-.828 0-1.23-.095z" opacity=".6"/>
                        <g>
                            <path fill="#171B34" d="M.047 2.083c-.02-.155.024-.31.123-.432.098-.12.242-.196.398-.207.757 0 2.13-.213 3.196-.38C4.894.838 6.01.537 7.102.166c.186-.073.398-.04.55.09.154.128.225.33.184.526-.189 1.515-.9 4.404-3.362 4.593-1.03.198-2.096-.045-2.938-.671C.695 4.077.154 3.126.046 2.083z" transform="translate(3.268 19.841)"/>
                            <path fill="#D35B57" d="M.947 4.167c1.71-1.674 4.202-2.274 6.487-1.563 0 0-.497 2.675-2.865 2.888-1.357.227-2.733-.277-3.622-1.325z" transform="translate(3.268 19.841)"/>
                        </g>
                    </g>
                </g>
                <g fill-rule="nonzero">
                    <path fill="#5AAA84" d="M145.446 45.507l-14.064-2.25c-.97-.142-2.889.876-3.054 1.847l-.663 4.262c-.076.555.107 1.113.497 1.515-2.604 10.584-5.47 18.492-6.085 20.552-1.586 5.303-11.838 25.878-18.231 30.519l-.166.142c-4.9-1.373-9.944-2.604-9.944-2.604l-17.237 7.103-8.902-6.63s-4.594-.426-9.92-1.42c-8.035-5.481-15.08-12.286-20.836-20.126-.712-.895-1.25-1.914-1.587-3.007-1.562-4.735-6.132-15.863-8.452-22.185.546-.413.796-1.11.639-1.776l-.947-4.214c-.213-.947-2.202-1.847-3.15-1.61L9.447 48.82c-.947.213-1.917 2.368-1.704 3.386l.757 3.552c.148.648.654 1.154 1.303 1.302.923 4.262 1.894 8.405 2.983 12.62.544 2.13 1.113 4.214 1.681 6.203 1.823 6.322 3.765 12.099 5.682 17.284 4.735 8.735 10.664 16.768 17.616 23.866 3.338 3.575 6.582 6.772 9.329 9.352.402 13.662 1.728 31.917 1.539 39.28-.19 7.719-1.279 16.574-1.847 26.637-.26 4.735-5.09 13.922-1.516 17.07 11.531 10.182 69.894 2.368 69.894 2.368.096-5.702-.452-11.397-1.633-16.976-1.809-7.306-2.25-14.884-1.303-22.35.308-3.742 1.682-22.517 2.794-37.742 2.628-4.356 21.31-35.515 25.595-49.72 2.17-10.257 3.75-20.628 4.735-31.065.808-.077 1.46-.69 1.587-1.492l.426-3.575c.19-1.041-.947-3.172-1.918-3.314z" transform="translate(1 1) translate(151.666 93.392) translate(73.398) translate(124.92)"/>
                    <path fill="#FFF" d="M53.249 166.14c-.592 5.8-3.457 6.653-5.328 8.168.398-3.933.58-7.885.545-11.838 0-6.44-.853-22.067-1.468-36.32-5.048-4.648-9.793-9.615-14.206-14.87-7.956-9.99-11.602-14.205-14.42-23.321-2.012-5.824-4.735-15.082-6.345-21.475 1.658.166 4.523 2.131 6.275 6.488 1.752 4.356 3.954 14.206 7.103 18.278 7.502 9.327 15.468 18.272 23.866 26.802 4.356 3.907 3.599 16.077 3.74 21.31.238 11.72.9 19.343.238 26.778z" opacity=".6" transform="translate(1 1) translate(151.666 93.392) translate(73.398) translate(124.92)"/>
                    <path fill="#0C122B" d="M47.66 141.16c-.126.003-.236-.087-.26-.212-.776-6.287-.84-12.64-.189-18.942.006-.063.037-.12.086-.16.049-.04.112-.06.174-.053.135.024.228.148.214.284-.63 6.303-.559 12.655.213 18.942.013.066-.002.136-.043.19-.04.054-.103.089-.17.094l-.024-.142zM52.278 200.566h-.142c-2.775-2.014-4.753-4.939-5.588-8.263 0-.131.106-.237.237-.237.13 0 .237.106.237.237.828 3.188 2.725 5.996 5.374 7.955.09.092.09.24 0 .332-.04 0-.08-.008-.118-.024z" transform="translate(1 1) translate(151.666 93.392) translate(73.398) translate(124.92)"/>
                    <path fill="#050F1B" d="M0.828 8.807L19.794 2.131 11.767 0.047z" opacity=".6" transform="translate(1 1) translate(151.666 93.392) translate(73.398) translate(124.92) translate(81.969 99.443)"/>
                    <path fill="#2C2B6E" d="M93.736 99.49l-1.965-8.524s-3.055 5.114-12.715 10.702l-2.557 4.854 4.736-1.705c.598 1.097 1.098 2.246 1.491 3.433l11.01-8.76z" transform="translate(1 1) translate(151.666 93.392) translate(73.398) translate(124.92)"/>
                    <path fill="#050F1B" d="M79.056 101.668l-2.557 4.854 4.736-1.705c-.557-1.158-1.292-2.22-2.179-3.15z" opacity=".6" transform="translate(1 1) translate(151.666 93.392) translate(73.398) translate(124.92)"/>
                    <path fill="#2C2B6E" d="M76.5 106.522l-.877-5.21c-2.322-.947-3.951-3.075-4.262-5.563l-3.764 4.143 3.362 8.145 2.865-3.504 2.675 1.989z" transform="translate(1 1) translate(151.666 93.392) translate(73.398) translate(124.92)"/>
                    <path fill="#050F1B" d="M2.225 0.403L3.101 5.635 0.402 3.623z" opacity=".6" transform="translate(1 1) translate(151.666 93.392) translate(73.398) translate(124.92) translate(73.398 100.91)"/>
                    <g fill="#F3B9B7">
                        <path d="M150.797 8.57l-1.894-.662s-.71-1.208-1.468-1.492c-.62-.133-1.267-.067-1.847.19 0 0-2.888-.521-3.03-1.516-.13-1.28-.825-2.434-1.895-3.149-2.036-.497-6.51-2.794-8.405 1.279-2.107 4.546 1.918 11.957 2.368 12.904l-.166 3.859-3.67 23.25c.15-.023.301-.023.45 0l13.259 2.108c1.492-10.844 3.22-22.92 3.67-24.364.222-.733.507-1.446.852-2.13 1.784-1.972 2.895-4.46 3.173-7.104.19-.805-.355-2.936-1.397-3.172zM17.662 16.147s4.617-8.476 2.51-13.022c-1.894-4.072-6.369-1.776-8.405-1.278-1.07.714-1.765 1.869-1.894 3.149C9.73 5.99 6.842 6.51 6.842 6.51c-.58-.257-1.227-.323-1.847-.19-.757.285-1.468 1.492-1.468 1.492l-1.894.663C.615 8.807.047 10.844.118 11.696c.284 2.638 1.385 5.121 3.149 7.103.345.685.63 1.398.852 2.131.521 1.681 3.457 16.574 5.588 27.702l13.638-3.15h.355l-5.872-25.5-.166-3.835zM76.499 106.545L78.796 102.165 75.86 102.71z" transform="translate(1 1) translate(151.666 93.392) translate(73.398) translate(124.92)"/>
                    </g>
                    <g opacity=".6" style="mix-blend-mode:overlay" fill="#050F1B">
                        <path d="M48.632 29.785s-1.445 22.327-2.534 33.337c-.994 9.826-1.207 17.71.26 23.18 1.901 6.553 2.654 13.386 2.226 20.196 0 0-31.3 4.096-48.135 2.557 8.974-4.025 21.31-5.067 27.465-11.128 7.27-7.103 14.467-19.392 10.986-38.522-3.409-18.54 1.54-27.537 4.617-34.569C46.808 17.307 56.682 6.511 65.158.45c-9.613 17.853-16.526 29.336-16.526 29.336z" transform="translate(1 1) translate(151.666 93.392) translate(73.398) translate(124.92) translate(66.295 105.078)"/>
                    </g>
                    <g opacity=".6" style="mix-blend-mode:overlay" fill="#050F1B">
                        <path d="M3.504 9.66l15.508-3.528c.923-.19-9.045-1.397-12.857 1.444C3.67 9.4 2.391 7.103 2.32 5.682 2.32 3.693 4.687.828 4.687.828l-2.367.545h-.166C1.207 1.586.236 3.741.449 4.759l.758 3.551c.09.505.396.945.837 1.204.442.26.975.313 1.46.146z" transform="translate(1 1) translate(151.666 93.392) translate(73.398) translate(124.92) translate(7.103 47.354)"/>
                    </g>
                    <g opacity=".6" style="mix-blend-mode:overlay" fill="#050F1B">
                        <path d="M16.432 8.831L.734 6.463c-.947-.142 8.902-2.036 12.928.521 2.604 1.658 3.717-.71 3.67-2.13 0-2.013-2.794-4.736-2.794-4.736s2.367.379 2.367.355h.166c.97.142 2.107 2.368 1.941 3.244l-.497 3.575c-.064.484-.322.922-.715 1.212-.393.29-.887.408-1.368.327z" transform="translate(1 1) translate(151.666 93.392) translate(73.398) translate(124.92) translate(128.422 44.986)"/>
                    </g>
                    <g fill="#0C122B">
                        <path d="M6.748 2.296c-.906-.098-1.704-.64-2.131-1.444-1.077.444-2.286.444-3.362 0-.13-.04-.205-.177-.166-.308.04-.13.177-.205.308-.166 2.368.734 3.149 0 3.149 0 .083-.035.177-.035.26 0 .085.03.147.102.166.19 0 0 .26 1.065 1.894 1.397.125.034.206.155.19.284-.084.075-.205.094-.308.047z" transform="translate(1 1) translate(151.666 93.392) translate(73.398) translate(124.92) translate(135.525 3.268)"/>
                        <path d="M6.132 9.233c-.13 0-.236-.106-.236-.236C5.898 5.446 3.915 2.192.758.567c-.09-.091-.09-.239 0-.33.063-.12.207-.172.331-.12 3.307 1.73 5.385 5.148 5.398 8.88-.001.085-.045.163-.115.21-.071.048-.16.057-.24.026z" transform="translate(1 1) translate(151.666 93.392) translate(73.398) translate(124.92) translate(135.525 3.268)"/>
                        <path d="M7.53 8.641c-.318-.009-.628-.098-.9-.26l-.26-.166c-.073-.08-.073-.203 0-.284.083-.063.199-.063.283 0l.26.166c.373.186.812.186 1.184 0 .608-.32 1.03-.908 1.137-1.586l.473-2.06c.012-.058.046-.108.095-.139.05-.031.11-.041.166-.027.108.024.18.127.166.237l-.498 2.06c-.12.817-.633 1.524-1.373 1.894-.228.113-.48.17-.734.165zM14.206 9.73h-.45c-1.042-.26-1.515-1.136-1.397-2.604l.403-1.989c0-.076.04-.146.106-.184.066-.038.148-.038.213 0 .066.038.107.108.107.184l-.403 1.942c-.118 1.634.569 2.012 1.09 2.154.76.14 1.51-.29 1.775-1.018l.403-.876c.08-.072.203-.072.284 0 .04.036.064.088.064.142 0 .055-.023.106-.064.142l-.379.853c-.305.711-.98 1.194-1.752 1.255z" transform="translate(1 1) translate(151.666 93.392) translate(73.398) translate(124.92) translate(135.525 3.268)"/>
                        <path d="M10.915 9.068h-.26c-1.09-.284-1.563-1.16-1.445-2.628l.426-1.966c.006-.055.035-.105.08-.137.046-.032.103-.043.157-.028.057.006.109.034.144.078.036.045.052.102.046.158L9.66 6.511c-.142 1.61.545 1.988 1.09 2.13.238.048.486-.003.686-.142.466-.495.764-1.125.852-1.799.024-.122.138-.204.26-.19.122.024.205.138.19.261-.12.787-.484 1.516-1.042 2.084-.232.15-.505.225-.781.213zM5.872 6.842c-.065-.016-.12-.059-.15-.117-.032-.059-.038-.128-.016-.19l.805-2.866c.044-.128.173-.208.308-.19.064.017.12.06.15.118.032.059.038.128.016.19l-.805 2.89c-.053.119-.18.187-.308.165z" transform="translate(1 1) translate(151.666 93.392) translate(73.398) translate(124.92) translate(135.525 3.268)"/>
                    </g>
                    <g fill="#0C122B">
                        <path d="M10.18 2.296c-.118-.009-.215-.096-.236-.213-.023-.063-.014-.134.023-.19.037-.055.099-.09.166-.094 1.634-.332 1.87-1.35 1.87-1.397.024-.093.097-.166.19-.19.073-.042.164-.042.237 0 0 0 .852.758 3.149 0 .062-.03.136-.03.197.003s.103.094.11.163c.023.063.017.132-.014.19-.032.06-.087.102-.151.118-1.068.449-2.271.449-3.339 0-.443.8-1.245 1.338-2.154 1.444l-.048.166z" transform="translate(1 1) translate(151.666 93.392) translate(73.398) translate(124.92) translate(0 3.268)"/>
                        <path d="M10.772 9.233c-.13 0-.236-.106-.236-.236.003-3.735 2.084-7.158 5.398-8.88.113-.016.224.044.273.147.048.103.024.227-.06.304-3.148 1.63-5.122 4.883-5.114 8.429-.012.134-.126.237-.26.236z" transform="translate(1 1) translate(151.666 93.392) translate(73.398) translate(124.92) translate(0 3.268)"/>
                        <path d="M9.375 8.641c-.228-.001-.453-.05-.662-.142-.735-.375-1.245-1.08-1.374-1.894l-.473-2.06c-.017-.103.043-.203.142-.236.056-.014.116-.005.166.027.049.031.083.081.094.138l.474 2.06c.133.668.547 1.246 1.136 1.587.373.186.811.186 1.184 0l.26-.166c.063-.062.158-.079.238-.042.08.036.13.119.125.207-.006.088-.065.164-.15.19l-.26.166c-.28.132-.59.189-.9.165zM2.793 9.73C1.976 9.69 1.261 9.17.97 8.406L.568 7.67c-.063-.084-.063-.2 0-.284.091-.068.216-.068.307 0l.38.876c.272.72 1.016 1.147 1.775 1.018.545-.142 1.231-.521 1.09-2.179l-.403-1.917c0-.118.095-.213.213-.213.117 0 .213.095.213.213l.402 1.965c0 1.491-.355 2.368-1.397 2.628-.12-.002-.239-.017-.355-.047z" transform="translate(1 1) translate(151.666 93.392) translate(73.398) translate(124.92) translate(0 3.268)"/>
                        <path d="M5.99 9.068c-.272.008-.54-.075-.758-.237-.578-.553-.946-1.29-1.042-2.084-.014-.056-.004-.116.027-.165.032-.05.082-.084.139-.095.06-.014.123-.001.173.035.05.036.082.093.087.154.089.675.387 1.304.853 1.8.207.142.464.193.71.142.521-.142 1.208-.521 1.066-2.155l-.38-1.941c-.013-.054-.003-.111.029-.157s.082-.075.137-.08c.057-.014.117-.004.166.027.05.031.084.081.095.139l.402 1.941c0 1.492-.355 2.368-1.42 2.652l-.284.024zM11.057 6.842c-.108.005-.205-.063-.237-.166L9.99 3.788c-.022-.063-.016-.132.015-.19.032-.06.086-.102.15-.118.138-.03.274.054.309.19l.828 2.864c.022.129-.046.256-.165.308h-.071z" transform="translate(1 1) translate(151.666 93.392) translate(73.398) translate(124.92) translate(0 3.268)"/>
                    </g>
                </g>
            </g>
            <g fill-rule="nonzero">
                <g>
                    <path fill="#C3D2EB" d="M0.118 0H234.045V11.531H0.118z" transform="translate(1 1) translate(151.666 93.392) translate(0 174.308) translate(2.368)"/>
                    <path fill="#A9C1E9" d="M232.554 0H329.03700000000003V11.531H232.554z" transform="translate(1 1) translate(151.666 93.392) translate(0 174.308) translate(2.368)"/>
                </g>
                <g>
                    <path fill="#D2E1FB" d="M22.422 0.284L0.45 169.928 7.103 169.928 37.173 0.284z" transform="translate(1 1) translate(151.666 93.392) translate(0 174.308) translate(0 11.27)"/>
                    <path fill="#A9C1E9" d="M32.934 0.284L4.735 169.715 12.478 169.928 47.709 0.284z" transform="translate(1 1) translate(151.666 93.392) translate(0 174.308) translate(0 11.27)"/>
                </g>
                <g>
                    <path fill="#D2E1FB" d="M26.044 0.284L47.993 169.928 41.316 169.928 11.223 0.284z" transform="translate(1 1) translate(151.666 93.392) translate(0 174.308) translate(172.84 11.27)"/>
                    <path fill="#A9C1E9" d="M15.485 0.284L43.636 169.715 35.918 169.928 0.687 0.284z" transform="translate(1 1) translate(151.666 93.392) translate(0 174.308) translate(172.84 11.27)"/>
                    <g>
                        <path fill="#D2E1FB" d="M25.618 0.284L47.59 169.928 40.818 169.928 10.725 0.284z" transform="translate(1 1) translate(151.666 93.392) translate(0 174.308) translate(172.84 11.27) translate(103.61)"/>
                        <path fill="#A9C1E9" d="M15.105 0.284L43.186 169.715 35.444 169.928 0.213 0.284z" transform="translate(1 1) translate(151.666 93.392) translate(0 174.308) translate(172.84 11.27) translate(103.61)"/>
                    </g>
                </g>
            </g>
            <g fill-rule="nonzero">
                <path fill="#4670CE" d="M99.868 47.093v1.658c0 .261-.105.512-.292.694-.187.183-.44.283-.702.277h-86.16c-.257-.005-.512-.045-.757-.12-.827-.215-1.544-.73-2.013-1.443-.259-.378-.436-.805-.52-1.255l-.285-1.397L.663 4.12c-.193-.895.028-1.83.603-2.542C1.841.865 2.706.451 3.622.45h59.926c.366-.003.729.07 1.066.213.97.368 1.686 1.208 1.894 2.226l8.855 43.21h23.535c.54.013.97.454.97.994z" transform="translate(1 1) translate(151.666 93.392) translate(107.446 124.587)"/>
                <path fill="#000" d="M99.868 47.093v1.658c0 .261-.105.512-.292.694-.187.183-.44.283-.702.277H74.866c-1.679.01-3.128-1.172-3.457-2.818L62.625 4.12c-.595-.74-.63-1.783-.085-2.56.546-.777 1.539-1.1 2.436-.792.898.308 1.484 1.173 1.437 2.12l8.855 43.21h23.535c.276-.019.547.077.75.266.202.188.316.453.315.73z" transform="translate(1 1) translate(151.666 93.392) translate(107.446 124.587)"/>
                <path fill="#FFF" d="M31.3 30.33c-1.58-.004-2.938-1.124-3.243-2.675v-.143c-.191-.977.065-1.988.697-2.758.632-.77 1.574-1.216 2.57-1.22 1.59-.006 2.96 1.116 3.268 2.676v.119c.2.985-.056 2.007-.694 2.783-.638.776-1.593 1.224-2.598 1.218z" transform="translate(1 1) translate(151.666 93.392) translate(107.446 124.587)"/>
            </g>
        </g>
        <g stroke="#99B0D0" transform="translate(1 1) translate(245.1 179.1)">
            <path d="M5.4 31.5H119.7V88.2H5.4zM0 88.2H5.4V93.60000000000001H0zM119.7 88.2H125.10000000000001V93.60000000000001H119.7zM119.7 26.1H125.10000000000001V31.5H119.7zM0 26.1H5.4V31.5H0zM63 8.606L63 31.5"/>
            <circle cx="63" cy="4.5" r="4.5"/>
        </g>
        <g stroke="#99B0D0" transform="translate(1 1) translate(133.5)">
            <path d="M5.4 31.5H266.4V198.9H5.4zM0 198.9H5.4V204.3H0zM266.4 198.9H271.79999999999995V204.3H266.4zM266.4 26.1H271.79999999999995V31.5H266.4zM0 26.1H5.4V31.5H0zM135.9 8.606L135.9 31.5"/>
            <circle cx="135.9" cy="4.5" r="4.5"/>
        </g>
    </g>
</svg>
