<svg xmlns="http://www.w3.org/2000/svg" width="47" height="90" viewBox="0 0 47 90">
    <g fill="none" fill-rule="evenodd">
        <path fill="#201F20" fill-rule="nonzero" d="M20.094 42.16s-1.44 18.018-1.359 20.97c.08 2.952.32 21.15.32 21.15s1.918 1.038 3.907 0c0 0 1.199-11.254 1.754-14.606.555-3.351.399-7.9.399-7.9l2.87-7.103 4.958 29.84s2.538.647 3.735-.151c0 0-.24-5.666 0-11.254.24-5.587-.24-9.656-.96-11.811 0 0 1.595-11.173 1.277-18.676l-16.901-.458z"/>
        <path fill="#FFF" fill-rule="nonzero" d="M36.95 47.23h-.01c-3.71-.662-3.1-4.776-3.094-4.817.003-.022.018-.04.038-.047.02-.008.043-.004.06.01.017.013.025.035.022.056 0 .04-.6 4.04 2.997 4.68.033.003.058.032.055.065-.002.033-.031.058-.064.055l-.004-.002zM19.715 46.39c-.028.001-.053-.018-.06-.045-.007-.028.007-.056.032-.068.025-.013 2.592-1.386 2.457-3.853-.001-.016.004-.032.015-.043.01-.012.026-.02.041-.02.016-.002.032.004.044.014.012.011.019.027.019.043.14 2.544-2.494 3.951-2.518 3.96-.009.007-.02.011-.03.013z"/>
        <path fill="#030F1C" fill-rule="nonzero" d="M20.094 42.16l-.106 1.417c6.665 2.64 17.041.798 17.041.798l-.033-1.756-16.902-.458zM27.985 54.67l-1.595-5.95s-.84 3.22-.48 6.704c.36 3.485 0 4.372 0 4.372l2.075-5.125z" opacity=".6" style="mix-blend-mode:overlay"/>
        <path fill="#FFF" fill-rule="nonzero" d="M19.744 46.726s1.631.133 1.678 1.586c.037 1.15-.267 5.533-.586 8.64-.32 3.107-.257 8.965-.318 11.44-.061 2.474-1.656 2.16-1.656 2.16s-.207-7.04-.088-8.864c.118-1.822.424-9.079.968-14.965M28.45 57.546s2.188-.066 2.676 2.814c.599 3.534 1.86 13.812 2.125 15.62.265 1.809.129 4.004-1.034 4.16L28.45 57.547z" opacity=".6" style="mix-blend-mode:overlay"/>
        <path fill="#FFF" fill-rule="nonzero" d="M25.133 62.818c-.016-.002-.03-.01-.04-.021-.01-.013-.016-.028-.014-.044 0-.02.182-1.965-.6-3.262-.01-.018-.011-.041 0-.06.01-.019.03-.03.05-.031.022 0 .043.01.054.029.798 1.332.614 3.315.611 3.335-.003.03-.03.054-.061.054z"/>
        <path fill="#6FA3EF" fill-rule="nonzero" d="M19.292 84.511l-4.197 3.04-2.652.218c-.56.197-.72.984-.757 1.266H23.17l-.412-4.524h-3.466zM36.643 84.061L32.763 84.473 32.094 89.035 39.747 89.035z"/>
        <path fill="#FFF" fill-rule="nonzero" d="M18.443 86.653h-2.106l-.653.473h2.758c.094.017.189-.025.241-.105.053-.08.053-.183 0-.263-.052-.08-.147-.121-.241-.105M19.52 85.88h-2.106l-.653.472h2.757c.115-.02.199-.12.199-.236 0-.117-.084-.217-.199-.237M20.486 85.176H18.38l-.652.48h2.758c.132 0 .24-.107.24-.24s-.108-.24-.24-.24" opacity=".6" style="mix-blend-mode:overlay"/>
        <path fill="#3268AE" fill-rule="nonzero" d="M22.999 87.126c-2.22 0-1.86 1.91-1.86 1.91h-9.45l.037.33c.058.33.353.566.688.549h10.53c.289 0 .229-.88.229-.88l-.174-1.909z"/>
        <rect width="4.358" height="1" x="18.918" y="83.639" fill="#3268AE" fill-rule="nonzero" rx=".276"/>
        <rect width="4.37" height="1" x="32.603" y="83.624" fill="#3268AE" fill-rule="nonzero" rx=".276"/>
        <path fill="#3268AE" fill-rule="nonzero" d="M38.146 87.432H33.69c-.425.001-.831.171-1.13.473-.3.302-.468.71-.467 1.135v.882h7.653v-.882c.002-.426-.167-.835-.467-1.137-.3-.301-.709-.471-1.134-.471z"/>
        <rect fill="#FFF" fill-rule="nonzero" opacity=".6" style="mix-blend-mode:overlay" width="2.742" height="1" x="34.176" y="86.646" rx=".238"/>
        <rect fill="#FFF" fill-rule="nonzero" opacity=".6" style="mix-blend-mode:overlay" width="2.742" height="1" x="33.963" y="85.87" rx=".238"/>
        <rect fill="#FFF" fill-rule="nonzero" opacity=".6" style="mix-blend-mode:overlay" width="2.742" height="1" x="33.736" y="85.057" rx=".238"/>
        <path fill="#F7B17D" fill-rule="nonzero" d="M32.098 7.844c0-1.92-2.114-1.304-2.474-1.184-.36.12-1.199-2.64-1.199-2.64s-4.316-.36-5.155.48c0 0-.24 3.6-.12 5.88s.851 3.24 1.69 3.24c.266-.015.527-.076.771-.18v4.2L30.694 15l-.626-4.958.04-.023s1.99-.365 1.99-2.175z"/>
        <path fill="#161B36" fill-rule="nonzero" d="M23.116 7.153s-1.045-.973-1.165-3.013c-.12-2.04.312-4.2 1.587-4.116 1.276.084 2.898.155 4.174 0 1.276-.155 4.172.534 4.386 2.768.68 1.04.998 2.274.903 3.513-.16 2.075-.85 4.812-3.004 5.426l-.1-1.643s2.2-1.864 1.51-2.745c-.888-1.13-2.127-.107-2.26.663 0 0-.395-.4-.452-1.86 0 0-1.063-.772-1.09-1.837 0 0-3.402-.345-4.12.24l-.369 2.604z"/>
        <path fill="#030F1C" fill-rule="nonzero" d="M25.616 13.432s1.728-.804 2.285-1.39c0 0-.128 1.578-1.27 2.687-1.14 1.109-1.015.212-1.015.212v-1.51z" opacity=".6" style="mix-blend-mode:overlay"/>
        <circle cx="25.839" cy="7.252" r="1" fill="#161B36" fill-rule="nonzero"/>
        <circle cx="23.621" cy="7.405" r="1" fill="#161B36" fill-rule="nonzero"/>
        <path fill="#161B36" fill-rule="nonzero" d="M25.376 5.776c.08-.09.19-.16.518-.14.329.018.828.33.72.408-.108.08-.44-.19-.698-.1-.259.09-.408.164-.495.12-.112-.064-.083-.245-.045-.288zM23.95 5.683c-.103-.059-.23-.09-.535.036-.306.126-.676.579-.547.62.13.04.36-.322.628-.321.269.001.44.023.505-.052.084-.093 0-.254-.05-.283z"/>
        <path stroke="#030F1C" stroke-width=".5" d="M24.499 7.036s.07 1.44 0 1.592c-.07.152-.495.638-.462.848.034.21.413.25.69.16" opacity=".6" style="mix-blend-mode:overlay"/>
        <path fill="#161B36" fill-rule="nonzero" d="M24.293 10.883c-.01-.035-.007-.073.011-.105s.048-.056.083-.066c.178-.051.503-.147.75-.231.258-.103.51-.223.751-.36.043-.024.095-.023.137.001.043.025.069.07.07.119.016.37-.028 1.09-.608 1.238-.706.177-1.076-.206-1.194-.596z"/>
        <path fill="#E55151" fill-rule="nonzero" d="M24.6 11.344s.606-.849 1.474-.656c0 0 0 .664-.559.813-.601.16-.916-.157-.916-.157z"/>
        <path fill="#0B122D" fill-rule="nonzero" d="M29.699 8.63c-.008.002-.016.002-.024 0-.015-.006-.026-.018-.032-.033-.006-.015-.006-.031 0-.046.022-.053.557-1.304 1.131-1.111.031.011.048.045.037.077-.01.03-.044.047-.075.037-.391-.133-.84.71-.982 1.044-.01.02-.032.033-.055.032z"/>
        <path fill="#0B122D" fill-rule="nonzero" d="M30.694 8.418c-.03 0-.054-.02-.059-.05-.013-.131-.083-.25-.19-.328-.113-.065-.245-.087-.372-.06-.033.008-.066-.013-.074-.046-.008-.033.013-.066.046-.074.16-.033.326-.006.465.078.135.095.222.244.24.408.005.033-.016.064-.049.07l-.007.002zM25.611 13.498c-.033.006-.065-.015-.072-.048-.006-.034.015-.066.048-.072.02-.01 1.99-.892 2.822-1.958.02-.023.056-.027.081-.008.025.02.031.055.013.082-.85 1.09-2.785 1.957-2.866 1.993-.008.005-.017.009-.026.01z"/>
        <path fill="#FFF" fill-rule="nonzero" d="M28.15 3.542c-.01 0-.02-.002-.03-.008-.993-.572-.847-1.968-.838-2.028.003-.033.033-.056.066-.053.032.005.056.034.052.067 0 .014-.142 1.378.78 1.91.03.016.04.053.024.082-.011.02-.032.031-.054.03zM30.058 5.16c-.015 0-.03-.006-.04-.017-1.016-.97-.614-2.544-.61-2.56.009-.031.042-.05.074-.041.031.008.05.041.042.073 0 .014-.388 1.52.576 2.442.012.011.018.026.018.042 0 .016-.006.032-.018.043-.01.011-.026.018-.042.018z"/>
        <path fill="#3268AE" fill-rule="nonzero" d="M46.42 26.292c-1.492-1.736-5.156-5.568-7.122-7.214-1.967-1.647-3.493-2.51-4.703-2.596-1.38-.37-3.533-.827-3.533-.827l-3.965.905-2.366-.586s-2.647 1.181-3.98 2.04l-.105.07c-.076.05-.146.1-.21.149l-.101.075c-.005.003-.009.007-.012.011-.048.038-.093.078-.137.12-1.414 1.13-2.7 3.033-3.717 4.852-.761 1.382-1.442 2.807-2.038 4.268-.048.114-.15.196-.272.216-.121.021-.245-.022-.328-.114l-3.588-4.052-3.864-4.58c-.775 1.033-1.187 1.365-2.531 1.604 5.689 9.923 7.21 13.56 9.232 14.025.839.195 1.663-.18 2.724-.927 1.816-1.276 3.41-2.843 4.715-4.638.1 1.224.172 2.28.177 2.95.018 1.869-.172 4.031-.225 6.464-.025 1.152-1.116 3.416-.225 4.15 2.878 2.368 16.93 0 16.93 0-.022-1.38-.2-2.755-.532-4.096-.676-2.578-.583-3.885-.503-5.4.042-.823.188-4.648.32-8.105 2.02 1.453 4.996 3.553 5.275 3.84.255.264-.026 1.109-.904 3.756-.282.849-.547 1.622-.794 2.318-.985 2.784-1.355 3.61-1.355 3.61 1.358.204 2.182.673 2.747 1.771 2.525-4.791 3.901-7.454 4.945-9.96.678-1.62.719-3.314.045-4.099z"/>
        <path fill="#0B122D" fill-rule="nonzero" d="M21.863 40.483c-.01 0-.02-.003-.03-.008-1.045-.6-1.407-1.897-1.423-1.953-.008-.031.01-.064.042-.073.032-.008.065.01.075.042 0 .013.36 1.301 1.366 1.88.03.016.04.053.023.082-.01.019-.03.03-.053.03zM20.263 26.11c-.03 0-.055-.021-.059-.05-.4-2.658-.21-4.579-.209-4.598.004-.033.033-.057.066-.054.016.002.03.01.041.022.01.012.015.028.013.044 0 .02-.19 1.927.208 4.567.002.016-.002.032-.011.045-.01.013-.024.021-.04.024h-.01z"/>
        <g opacity=".6" style="mix-blend-mode:overlay" fill="#030F1C" fill-rule="nonzero">
            <path d="M.49.212C.49.288.445.357.375.386.305.416.225.4.171.346.117.292.101.211.131.141.16.071.229.026.305.026.407.027.49.11.49.212M.621 3.905c0 .103-.084.187-.187.187s-.187-.084-.187-.187c0-.104.084-.187.187-.187s.187.083.187.187M.93 7.96c0 .104-.085.188-.188.188s-.187-.084-.187-.187c0-.104.084-.187.187-.187s.187.083.187.187" style="mix-blend-mode:overlay" transform="translate(26.258 21.96)"/>
            <path d="M.995 11.748c0 .103-.083.186-.186.186-.102 0-.186-.083-.186-.186s.084-.186.186-.186c.05 0 .097.02.132.054.035.035.054.083.054.132M.81 17.082c0 .076-.046.145-.116.174-.07.03-.15.013-.204-.04-.054-.054-.07-.135-.04-.205.029-.07.098-.115.173-.115.103 0 .186.083.186.186" transform="translate(26.258 21.96)"/>
        </g>
        <path fill="#030F1C" fill-rule="nonzero" opacity=".6" style="mix-blend-mode:overlay" d="M25.718 18.13L28.15 16.892 27.101 16.56z"/>
        <path fill="#0B122D" fill-rule="nonzero" d="M26.37 43.754c-.032 0-.058-.023-.06-.054-.08-.932.018-3.6.12-6.19.096-2.64.197-5.363.108-6.233-.164-1.625-.584-9.12-.507-10.504.077-1.362 1.008-4.141 1.017-4.17.011-.03.045-.047.077-.037.03.01.047.044.037.076-.01.027-.936 2.792-1.011 4.137-.077 1.386.343 8.863.507 10.486.089.878-.012 3.608-.109 6.25-.096 2.58-.194 5.25-.12 6.175.001.016-.004.031-.014.043-.01.013-.025.02-.041.021h-.005z"/>
        <path fill="#030F1C" fill-rule="nonzero" d="M36.182 32.18c.12-1.974.24-5.433.285-7.118-.884-.636-1.587-1.15-1.799-1.336-.32-.27-.61-.536-.87-.796-.24 1.491-.447 4.503.613 8.415 1.232 4.546-.615 7.627-2.308 9.424-1.44 1.524-4.414 1.889-6.548 2.941 4.089.224 11.63-1.052 11.63-1.052s.164-1.982-.72-4.869c-.413-1.309-.43-3.222-.283-5.609zM27.871 18.13L33.017 16.093 31.061 15.655z" opacity=".6" style="mix-blend-mode:overlay"/>
        <path fill="#FCC92C" fill-rule="nonzero" d="M31.06 15.655l-.546-2.048c-.623 1.459-1.884 2.549-3.417 2.953-1.024-.467-1.49-1.624-1.49-1.624l-.876 1.038.984 2.16 1.382-1.574c.611.584.77 1.57.77 1.57l3.194-2.475zM28.15 24.084H32.097V25.084H28.15z"/>
        <path fill="#030F1C" fill-rule="nonzero" d="M20.444 28.2c-.12-1.474-.272-3.11-.383-4.614-.052.05-.105.1-.16.155-1.474 1.484-.828 3.893-1.012 5.069-.185 1.176-3.562 2.672-3.088 4.92 1.817-1.276 3.41-2.843 4.716-4.638l-.073-.892z" opacity=".6" style="mix-blend-mode:overlay"/>
        <path fill="#FFF" fill-rule="nonzero" d="M13.92 29.563c-1.124-1.2-4.873-5.342-3.677-5.954l3.59 4.053c.083.092.207.135.329.115.121-.021.224-.103.271-.217.597-1.46 1.277-2.886 2.039-4.268.492.998-.395 3.792-1.994 6.222-.06.09-.16.148-.267.158-.109.01-.215-.03-.29-.109z" style="mix-blend-mode:overlay"/>
        <path fill="#0B122D" fill-rule="nonzero" d="M13.607 29.948c-.015 0-.03-.006-.042-.016-.023-.024-.023-.062 0-.086.708-.73.6-1.729.6-1.738-.002-.016.002-.032.012-.045.01-.013.025-.02.04-.023.033-.002.062.02.066.053 0 .043.12 1.067-.63 1.836-.012.013-.028.02-.046.02z"/>
        <path fill="#FFF" fill-rule="nonzero" d="M42.82 29.23c-.12 1.293-1.29 5.373-2.31 5.64-.156.043-.314.076-.474.1.247-.697.512-1.47.795-2.32.878-2.646 1.182-3.516.904-3.755-.762-.654-3.609-2.647-4.724-3.445.277-.188.84-.417 1.4-.135.93.468 4.53 2.623 4.41 3.916z" opacity=".6" style="mix-blend-mode:overlay"/>
        <path fill="#0B122D" fill-rule="nonzero" d="M43.272 30.066c-.03 0-.055-.022-.06-.052 0-.04-.15-.97-1.244-1.027-.033-.002-.058-.03-.056-.063.002-.034.03-.059.063-.057.666.003 1.235.478 1.357 1.133.004.033-.019.062-.051.067l-.009-.001z"/>
        <path fill="#F7B17D" fill-rule="nonzero" d="M4.663 15.434c-.12-.47-.445-1.694-.504-2.18-.007-.06-.04-.113-.091-.145-.05-.032-.113-.04-.17-.02-.387.116-.666.456-.705.859l.007 1.27-2.72.477c-.156.027-.35.177-.36.335 0 0-.025.36.217.52l.065.035c.034.02.057.054.061.094.004.039-.012.078-.042.103-.142.107-.247.255-.301.424-.018.189.076.37.24.466.066.043.101.12.09.198l-.03.212c-.035.272.15.524.42.572-.024.302.197.568.498.6 0 0 .16.443.84.6.494.105.996.173 1.5.204l.33.538c1.173-.23 1.598-.562 2.293-1.473-.192-.425-.406-.891-.5-1.088-.463-.966-.955-1.88-1.138-2.6zM39.05 38.65l-.024.076s-.044.39-.635.56c-.62.18-1.5.09-1.5.09s-.16 1.184-.468 1.288c-.309.105-2.813 1.546-2.492 2.08.321.534-.027.6.134.887.294.52.675.22.773.392.097.173-.24.449.173.6.448.163.84-.083.968.046.128.128 0 .36.263.462.394.156.976-.276 2.38-1.595 1.406-1.319 1.88-1.994 2.264-2.587.163-.252.31-.513.442-.781-.508-.868-1.21-1.3-2.277-1.518z"/>
        <path fill="#0B122D" fill-rule="nonzero" d="M34.058 43.105c-.022 0-.042-.011-.053-.03-.016-.029-.006-.065.022-.083l1.974-1.138c.028-.017.065-.007.082.021.016.03.006.066-.022.083l-1.974 1.139c-.009.005-.019.008-.029.008zM34.835 44.083c-.021 0-.042-.011-.053-.03-.008-.014-.01-.03-.006-.045.005-.016.015-.029.03-.036l2.175-1.252c.019-.01.042-.01.06 0 .02.01.03.03.03.052s-.011.042-.03.052l-2.176 1.257c-.01.003-.02.004-.03.002zM35.977 44.729c-.02 0-.04-.01-.05-.027-.019-.027-.011-.064.016-.082l1.37-.906c.028-.018.065-.011.083.016.01.014.012.03.01.045-.004.016-.013.03-.027.038l-1.37.906c-.01.007-.02.01-.032.01zM35.59 24.418h-.023c-1.996-1.018-2.583-3.453-2.59-3.478-.007-.033.014-.066.047-.074.033-.007.066.013.074.046 0 .024.58 2.4 2.525 3.393.03.015.041.05.026.08-.012.022-.035.035-.06.033zM3.529 17.476c-.018 0-.034-.008-.046-.02-.54-.628-.67-1.51-.337-2.266.018-.026.05-.034.078-.02.027.014.04.046.03.075-.313.713-.189 1.542.32 2.131.023.024.023.061 0 .085-.013.01-.029.016-.045.015zM.803 16.705c-.028-.006-.049-.03-.049-.06 0-.029.02-.054.05-.06l1.05-.077h.012c.083.011.167-.014.231-.07.088-.076.12-.198.085-.31-.036-.11-.134-.19-.25-.2l-.96-.087c-.021-.002-.04-.015-.049-.034-.009-.02-.007-.043.006-.06.012-.018.033-.028.054-.026l.96.088c.163.015.303.126.354.283.05.156.003.328-.12.437-.089.076-.205.113-.321.1l-1.043.075-.01.001z"/>
        <path fill="#0B122D" fill-rule="nonzero" d="M.803 17.808c-.031 0-.057-.025-.06-.056-.001-.016.004-.032.015-.044.01-.012.026-.02.042-.02l.735-.048c.255-.016.56-.106.563-.446 0-.194-.762-.405-1.304-.492-.033-.006-.056-.037-.05-.07.005-.033.036-.056.069-.05.24.038 1.408.247 1.405.61 0 .34-.24.54-.676.567l-.735.045-.004.004zM1.637 19.225c-.03 0-.054-.02-.06-.049-.002-.016.001-.032.01-.045.009-.014.023-.023.039-.026l.656-.12c.096-.015.164-.103.155-.2-.008-.097-.09-.17-.188-.17l-1.028-.008c-.034 0-.06-.028-.06-.061s.028-.06.06-.06l1.03.01c.156.003.285.124.298.28.014.156-.092.297-.246.328l-.656.12-.01.001z"/>
        <path fill="#0B122D" fill-rule="nonzero" d="M1.22 18.607c-.028 0-.052-.02-.058-.048-.006-.032.014-.064.047-.072l1.044-.218h.014c.036 0 .07-.022.085-.054.035-.064.035-.14 0-.204-.038-.062-.109-.098-.182-.091L.8 17.808c-.034-.003-.058-.033-.056-.066.004-.033.032-.057.065-.054l1.363.11c.115-.005.224.053.282.152.056.1.056.224 0 .325-.036.07-.107.116-.186.12l-1.037.217-.01-.005z"/>
    </g>
</svg>
