<svg xmlns="http://www.w3.org/2000/svg" width="51" height="90" viewBox="0 0 51 90">
    <g fill="none" fill-rule="evenodd">
        <path fill="#F7B17D" fill-rule="nonzero" d="M40.403 7.846c0-1.92-2.111-1.306-2.47-1.186-.36.12-1.197-2.64-1.197-2.64s-4.31-.36-5.148.48c0 0-.24 3.6-.12 5.88s.851 3.24 1.69 3.24c.264-.015.524-.076.768-.18v4.2l5.07-2.64-.625-4.958.04-.023s1.992-.365 1.992-2.173z"/>
        <path fill="#161B36" fill-rule="nonzero" d="M32.458 10.883c-.01-.036-.006-.074.012-.106.018-.032.048-.055.084-.065.176-.051.5-.147.748-.231.258-.103.508-.224.75-.36.042-.024.094-.023.136.001.043.025.069.07.07.119.016.37-.028 1.09-.608 1.238-.704.179-1.077-.204-1.197-.6"/>
        <path fill="#E55151" fill-rule="nonzero" d="M32.765 11.344s.605-.849 1.472-.656c0 0 0 .664-.557.813-.598.16-.915-.157-.915-.157"/>
        <path fill="#161B36" fill-rule="nonzero" d="M31.434 7.153S30.39 6.18 30.271 4.14c-.12-2.04.311-4.2 1.585-4.116 1.274.084 2.893.155 4.167 0s4.168.534 4.38 2.768c.679 1.038.995 2.273.9 3.51-.16 2.075-.849 4.812-3 5.427l-.1-1.643S40.4 8.221 39.71 7.34c-.886-1.13-2.122-.106-2.255.665 0 0-.395-.4-.451-1.862 0 0-1.062-.772-1.089-1.836 0 0-3.397-.346-4.113.24l-.367 2.606z"/>
        <path fill="#030F1C" fill-rule="nonzero" d="M33.93 13.432s1.726-.804 2.282-1.39c0 0-.128 1.578-1.267 2.687-1.14 1.109-1.014.212-1.014.212v-1.51z" opacity=".6" style="mix-blend-mode:overlay"/>
        <path fill="#161B36" fill-rule="nonzero" d="M33.716 6.092c.096-.073.216-.12.535-.04.32.081.75.48.628.537-.122.057-.4-.269-.666-.229-.266.04-.43.084-.508.02-.095-.081-.034-.252.011-.288M32.175 6.025c-.12-.031-.245-.029-.508.168-.264.197-.51.731-.375.737.134.006.262-.4.528-.467s.43-.087.479-.176c.058-.112-.064-.24-.12-.262"/>
        <path fill="#030F1C" fill-rule="nonzero" d="M32.778 9.742c-.12.004-.24-.023-.346-.077-.07-.037-.12-.103-.133-.179-.026-.156.14-.398.345-.676.052-.066.1-.135.141-.207.042-.085.03-.862 0-1.56h.125c.013.24.07 1.465 0 1.621-.05.076-.104.148-.165.216-.125.174-.342.466-.322.587.008.04.035.076.074.095.179.074.38.08.565.018l.038.12c-.104.03-.213.043-.322.042z" opacity=".6"/>
        <path fill="#0B122D" fill-rule="nonzero" d="M38.007 8.63c-.008.002-.015.002-.023 0-.015-.006-.026-.018-.032-.032-.007-.015-.006-.032 0-.047.023-.053.554-1.305 1.129-1.111.02.007.035.024.04.045.004.021-.004.043-.02.057-.016.014-.038.019-.058.012-.387-.132-.838.71-.981 1.044-.01.02-.032.033-.055.032z"/>
        <path fill="#0B122D" fill-rule="nonzero" d="M38.996 8.418c-.03 0-.054-.02-.059-.05-.012-.13-.079-.25-.184-.328-.113-.066-.245-.087-.373-.061-.033.007-.066-.013-.073-.046-.008-.034.013-.067.046-.074.16-.034.325-.006.464.078.135.095.223.244.24.408.003.016-.001.032-.01.045-.01.013-.023.022-.04.024l-.011.004zM33.927 13.498c-.033.007-.066-.015-.072-.048-.007-.033.014-.065.047-.072.02-.01 1.987-.892 2.817-1.958.012-.018.034-.028.056-.026.022.003.041.018.05.038.007.021.003.045-.012.062-.848 1.09-2.78 1.957-2.862 1.993-.007.005-.015.009-.024.01z"/>
        <path fill="#FFF" fill-rule="nonzero" d="M36.461 3.542c-.01 0-.02-.003-.03-.008-.99-.571-.846-1.968-.838-2.027.002-.016.01-.03.022-.04.013-.01.028-.015.044-.014.033.005.057.034.053.067 0 .014-.142 1.378.78 1.91.029.016.038.053.022.081-.01.02-.03.032-.053.031zM38.367 5.16c-.015 0-.03-.006-.042-.017-1.014-.97-.613-2.544-.608-2.56.009-.031.042-.05.073-.041.016.004.029.014.037.027.008.014.01.03.005.046 0 .015-.387 1.52.576 2.442.017.017.023.042.014.065s-.03.038-.055.038z"/>
        <path stroke="#161B36" stroke-linecap="round" stroke-width=".5" d="M32.204 7.49s-.341-.446-.588.112M33.806 7.49s.34-.446.587.112"/>
        <path fill="#201F20" fill-rule="nonzero" d="M28.41 42.138s-1.436 18.017-1.355 20.969c.082 2.952.319 21.15.319 21.15s1.915 1.038 3.901 0c0 0 1.197-11.254 1.752-14.605.554-3.352.398-7.901.398-7.901l2.866-7.104 4.95 29.841s2.535.647 3.729-.15c0 0-.24-5.668 0-11.254.24-5.586-.24-9.658-.958-11.812 0 0 1.591-11.174 1.273-18.676l-16.875-.458z"/>
        <path fill="#FFF" fill-rule="nonzero" d="M45.242 47.206h-.01c-3.704-.662-3.096-4.776-3.089-4.817.003-.016.011-.03.024-.04.013-.009.029-.013.044-.01.033.005.055.035.05.068-.006.04-.598 4.04 2.994 4.68.033.003.057.032.054.065-.003.033-.032.058-.065.055l-.002-.001zM28.032 46.367c-.022 0-.043-.012-.053-.033-.015-.029-.003-.065.026-.08.026-.013 2.588-1.386 2.453-3.853-.002-.033.023-.06.056-.063.016-.001.032.004.044.015.012.01.019.026.02.042.14 2.544-2.49 3.951-2.515 3.96-.01.006-.02.01-.031.012z"/>
        <path fill="#030F1C" fill-rule="nonzero" d="M28.41 42.138l-.105 1.415c6.656 2.64 17.016.799 17.016.799l-.034-1.752-16.877-.462zM36.291 54.647l-1.593-5.945s-.838 3.22-.479 6.703c.36 3.484 0 4.372 0 4.372l2.072-5.13z" opacity=".6" style="mix-blend-mode:overlay"/>
        <path fill="#FFF" fill-rule="nonzero" d="M33.443 62.794h-.006c-.032-.004-.056-.033-.054-.066 0-.02.184-1.964-.598-3.26-.008-.014-.011-.03-.007-.046.004-.016.013-.03.027-.038.029-.016.065-.007.083.02.797 1.333.612 3.316.61 3.336-.003.028-.026.05-.055.054z"/>
        <path fill="#6FA3EF" fill-rule="nonzero" d="M27.61 84.488l-4.19 3.04-2.649.217c-.559.198-.718.985-.756 1.267h11.47l-.412-4.524h-3.464zM44.936 84.038L41.062 84.45 40.394 89.012 48.036 89.012z"/>
        <path fill="#3268AE" fill-rule="nonzero" d="M31.311 87.103c-2.215 0-1.856 1.91-1.856 1.91h-9.437l.037.33c.059.33.353.564.687.548h10.516c.288 0 .227-.879.227-.879l-.174-1.909z"/>
        <rect width="4.352" height="1" x="27.236" y="83.616" fill="#3268AE" fill-rule="nonzero" rx=".276"/>
        <rect width="4.364" height="1" x="40.901" y="83.6" fill="#3268AE" fill-rule="nonzero" rx=".276"/>
        <path fill="#3268AE" fill-rule="nonzero" d="M46.436 87.41h-4.442c-.884 0-1.6.717-1.6 1.602v.881h7.642v-.88c0-.426-.169-.834-.469-1.134-.3-.3-.706-.47-1.13-.47z"/>
        <rect fill="#FFF" fill-rule="nonzero" opacity=".6" style="mix-blend-mode:overlay" width="2.738" height="1" x="42.471" y="86.623" rx=".238"/>
        <rect fill="#FFF" fill-rule="nonzero" opacity=".6" style="mix-blend-mode:overlay" width="2.738" height="1" x="42.261" y="85.847" rx=".238"/>
        <rect fill="#FFF" fill-rule="nonzero" opacity=".6" style="mix-blend-mode:overlay" width="2.738" height="1" x="42.033" y="85.034" rx=".238"/>
        <path fill="#FFF" fill-rule="nonzero" d="M28.062 46.703s1.63.133 1.676 1.586c.037 1.151-.267 5.533-.585 8.64-.319 3.107-.257 8.965-.318 11.44-.06 2.474-1.654 2.16-1.654 2.16s-.206-7.04-.089-8.863c.118-1.823.425-9.08.969-14.966M36.754 57.523s2.183-.063 2.67 2.812c.599 3.535 1.857 13.812 2.123 15.621.266 1.81.127 4.004-1.033 4.16l-3.76-22.593zM26.763 86.63h-2.101l-.651.48h2.753c.132 0 .24-.108.24-.24 0-.133-.108-.24-.24-.24M27.838 85.856H25.74l-.65.473h2.753c.114-.02.198-.12.198-.236 0-.117-.084-.216-.198-.237M28.803 85.153h-2.106l-.652.473h2.753c.115-.02.198-.12.198-.236 0-.117-.083-.217-.198-.237" opacity=".6" style="mix-blend-mode:overlay"/>
        <path fill="#36C9D8" fill-rule="nonzero" d="M16.615 16.54l-2.146-1.694.185-.24c.055-.07.043-.172-.027-.229l-.434-.337.137-.176c.022-.028.032-.063.028-.098-.005-.035-.023-.067-.05-.088l-1.618-1.28c-.027-.022-.062-.032-.097-.027-.035.004-.067.021-.088.049l-.143.18-.434-.342c-.034-.027-.077-.04-.12-.034-.042.005-.081.027-.108.06l-.185.24-2.146-1.702c-.1-.08-.228-.117-.355-.102-.127.015-.243.08-.321.182l-8.47 10.78c-.08.1-.117.228-.101.355.015.128.08.244.18.323l7.246 5.72c.1.08.228.116.355.101.127-.015.243-.08.322-.181l8.47-10.78c.08-.1.117-.229.101-.356-.015-.128-.08-.244-.181-.323z"/>
        <path fill="#FFF" fill-rule="nonzero" d="M15.923 16.568l-1.734-1.364-.146.186c-.056.07-.158.083-.229.028l-2.698-2.132c-.034-.026-.056-.065-.061-.108-.005-.043.007-.087.033-.12l.146-.187-1.727-1.364c-.09-.072-.205-.104-.32-.09-.113.013-.217.071-.288.162l-7.735 9.84c-.072.09-.104.205-.09.32.013.114.071.218.161.29l6.413 5.061c.09.072.204.104.319.09.114-.013.218-.071.289-.162l7.734-9.84c.071-.09.105-.204.092-.319-.012-.114-.07-.219-.16-.29zM6.06 16.48c.062-.079.174-.092.253-.032l2.168 1.7c.061.048.086.129.06.202-.024.073-.093.122-.17.122-.04 0-.08-.014-.111-.039l-2.173-1.7c-.038-.03-.063-.073-.068-.12-.006-.048.007-.096.037-.133h.004zm-1.64 2.095c.062-.078.174-.092.253-.031l3.253 2.55c.077.062.091.175.03.254-.034.043-.086.068-.14.068-.041 0-.08-.013-.112-.038l-3.253-2.55c-.078-.062-.092-.175-.03-.253zm4.243 5.016c-.034.043-.086.068-.141.068-.04 0-.08-.013-.11-.038l-4.778-3.745c-.079-.062-.093-.175-.031-.254.06-.078.174-.092.252-.03l4.778 3.746c.078.061.091.174.03.253zm1.463-2.231c-.034.044-.086.07-.141.07-.04 0-.079-.014-.11-.039l-4.608-3.61c-.079-.062-.093-.175-.032-.254.062-.078.175-.092.253-.031l4.604 3.612c.038.029.063.072.07.119.006.047-.007.095-.036.133zm1.219-2.422c-.034.044-.086.07-.142.07-.04 0-.079-.014-.11-.038l-4.191-3.285c-.078-.06-.093-.174-.032-.252.061-.079.174-.093.252-.032l4.19 3.284c.038.03.063.073.07.12.005.048-.008.096-.037.133zm2.204.04c-.034.044-.086.07-.142.07-.04 0-.079-.014-.11-.039L7.721 14.64c-.079-.061-.092-.175-.031-.253.06-.079.174-.093.252-.031l5.576 4.364c.038.03.064.074.07.122.005.049-.009.098-.04.136z" opacity=".6" style="mix-blend-mode:overlay"/>
        <path fill="#3268AE" fill-rule="nonzero" d="M50.714 29.4c-4.102-10.363-4.251-12.013-7.708-12.857-1.37-.377-3.644-.858-3.644-.858l-3.95.905-2.37-.592s-2.643 1.181-3.973 2.04l-.106.07c-.075.05-.146.1-.21.149l-.1.075-.013.011c-.088.07-.168.147-.24.233l-.02.032c-1.537 1.34-2.479 4.162-3.044 6.732-.332 1.545-.575 3.108-.727 4.68-.012.124-.087.232-.198.287-.111.055-.242.049-.348-.017l-4.598-2.847-5.06-3.233c-.103 1.186-.65 2.153-1.756 2.512 6.211 6.207 9.08 8.955 11.145 10.053 1.714.911 2.652.342 3.892-1.24.467-.595.9-1.216 1.298-1.86-.05 1.472-.16 3.093-.199 4.857-.025 1.152-1.115 3.416-.225 4.15 2.873 2.368 16.907 0 16.907 0-.023-1.38-.201-2.755-.532-4.096-.587-2.237-.599-3.517-.534-4.807.756.096 1.487.176 2.23.25 3.411.338 5.075-2.126 4.083-4.629zm-6.113-.406c.006-.139.01-.28.017-.422l.213.433-.23-.01z"/>
        <path fill="#0B122D" fill-rule="nonzero" d="M42.603 24.689c-.007-.004-.014-.009-.02-.015-1.436-1.722-1.012-4.186-1.008-4.21.003-.022.018-.04.038-.047.02-.008.043-.004.06.01s.025.036.021.057c0 .024-.412 2.435.983 4.114.02.025.017.063-.008.084-.019.015-.045.018-.066.007zM30.179 40.506c-.01 0-.021-.002-.03-.007-1.044-.6-1.407-1.897-1.421-1.953-.006-.021 0-.044.016-.06.016-.015.039-.02.06-.015.021.006.038.023.043.044 0 .013.365 1.301 1.366 1.88.023.013.035.04.028.067-.007.026-.03.044-.058.044h-.004zM28.582 26.135c-.03 0-.056-.022-.06-.052-.399-2.657-.21-4.578-.207-4.597.002-.021.015-.04.035-.049.02-.009.042-.007.06.006.017.013.026.034.024.055 0 .02-.189 1.927.207 4.567.003.016 0 .032-.01.045-.01.013-.024.022-.04.024h-.01z"/>
        <path fill="#030F1C" fill-rule="nonzero" d="M35.055 22.2c0 .103-.083.186-.186.186-.102 0-.185-.083-.185-.186s.083-.186.185-.186c.05 0 .097.02.132.054.035.035.054.083.054.132M35.185 25.888c0 .102-.083.186-.185.186-.103 0-.186-.084-.186-.186 0-.103.083-.186.186-.186.102 0 .185.083.185.186" opacity=".6" style="mix-blend-mode:overlay"/>
        <path fill="#030F1C" fill-rule="nonzero" d="M36.077 34.005c.001.158-.093.3-.239.362-.145.061-.313.028-.425-.083-.112-.111-.146-.28-.086-.425.06-.146.202-.242.36-.242.215 0 .39.174.39.388M35.828 39.268c0 .157-.094.3-.24.362-.145.06-.313.028-.425-.083-.112-.112-.146-.28-.086-.426.06-.146.203-.241.36-.241.215 0 .39.173.39.388" opacity=".6"/>
        <path fill="#030F1C" fill-rule="nonzero" opacity=".6" style="mix-blend-mode:overlay" d="M34.028 18.154L36.455 16.916 35.407 16.583z"/>
        <path fill="#0B122D" fill-rule="nonzero" d="M34.761 28.523c-.173-2.838-.359-6.755-.306-7.72.074-1.345 1-4.11 1.01-4.137.01-.034-.008-.069-.042-.08-.033-.01-.068.008-.079.041-.01.029-.94 2.808-1.015 4.17-.054.96.133 4.878.307 7.72l.125.006zM34.87 31.897c.025 1.2-.057 3.448-.139 5.64-.094 2.585-.192 5.259-.113 6.19.002.031.028.055.06.055.032-.003.057-.032.055-.065-.08-.924.019-3.594.113-6.175.08-2.17.162-4.398.14-5.612l-.116-.033z"/>
        <path fill="#030F1C" fill-rule="nonzero" opacity=".6" style="mix-blend-mode:overlay" d="M36.176 18.154L41.316 16.117 39.362 15.679z"/>
        <path fill="#FCC92C" fill-rule="nonzero" d="M39.362 15.68l-.546-2.05c-.621 1.46-1.88 2.548-3.41 2.953-1.02-.466-1.485-1.623-1.485-1.623l-.879 1.038.983 2.16 1.38-1.568c.61.584.77 1.568.77 1.568l3.187-2.479zM36.455 24.107H40.396V25.107H36.455z"/>
        <path fill="#030F1C" fill-rule="nonzero" d="M44.64 28.613c-.226-.46-.478-.948-1.182-2.316l-.13-.251-.132-.25c-.37-.706-.77-1.456-1.188-2.226-.184 1.767-.13 3.55.16 5.303l2.458.12.015-.38zM44.402 33.778c-.43-.056-.87-.12-1.323-.184.218 3.347-1.283 5.713-2.682 7.2-1.437 1.525-4.406 1.89-6.538 2.942 4.083.225 11.612-1.052 11.612-1.052s.164-1.981-.718-4.868c-.315-1.013-.396-2.378-.35-4.038zM29.01 32.066c-.007-.84-.12-2.242-.25-3.84l-.169-1.975c-.245.398-.44.824-.584 1.269-.773 2.415.029 3.859-.007 5.138-.028.997-2.125 2.458-1.142 3.814.507-.54.828-.933.828-.933.467-.595.9-1.216 1.298-1.86.02-.559.03-1.099.026-1.613z" opacity=".6" style="mix-blend-mode:overlay"/>
        <path fill="#FFF" fill-rule="nonzero" d="M23.787 31.542c-.253-.12-3.016-1.624-4.09-2.61-.6-.548-.507-1.225-.232-1.49l4.598 2.847c.106.065.237.072.348.017.11-.055.186-.163.198-.287.152-1.573.395-3.135.727-4.68.399.168.838.567.718 1.68-.131 1.225-.146 3.571-.623 4.35-.124.207-.71.633-1.644.173z" opacity=".6" style="mix-blend-mode:overlay"/>
        <path fill="#0B122D" fill-rule="nonzero" d="M24.486 32.546c-.01 0-.02-.002-.028-.007-.014-.007-.025-.02-.03-.034-.005-.016-.003-.032.004-.046.467-.903.077-1.829.073-1.839-.011-.03.003-.064.033-.076.03-.013.064 0 .077.03.017.04.416.988-.076 1.94-.01.02-.03.032-.053.032z"/>
        <path fill="#F7B17D" fill-rule="nonzero" d="M14.377 24.454l-.425-.347-.681-1.842-.456-.96c-.05-.16-.146-.302-.276-.407 0 0-.754-.511-.947-.344-.192.166.12.565.417.973.202.272.223.464.187.59-.076.256-.089.526-.039.787l.015.075-1.585 2.015s.567.752 1.183.894c.444.103.907.422 1.233.687.8-.402 1.243-1.18 1.374-2.121zM33.354 28.807l-.404-.147s-.426-1.053-1.882-1.733c-.878-.41-1.681-.966-2.375-1.643-.627.535 1.125 2.312 1.125 2.312s-5.498-.414-5.627.096c-.128.51 2.668.738 2.668.738-.277.686.558.87.558.87-.404.53.54.84.54.84s-.366.315.22.64c.585.325 3.843.179 3.843.179l.926.163c.482-.54.762-1.482.408-2.315z"/>
        <path stroke="#030F1C" stroke-linecap="round" stroke-linejoin="round" stroke-width=".5" d="M26.987 28.398L28.028 28.398M27.541 29.291L28.907 29.291M28.109 30.124L29.027 30.124"/>
        <path fill="#0B122D" fill-rule="nonzero" d="M39.48 28.806l-6.326-.3c-.033 0-.06-.027-.06-.06s.027-.06.06-.06l6.326.299c.015 0 .03.008.04.02.011.012.017.027.016.043-.001.031-.026.056-.056.058zM39.699 33.056h-.015l-7-1.657c-.033-.008-.053-.04-.045-.072.003-.015.013-.029.026-.037.014-.009.03-.011.046-.007l7.003 1.656c.033.003.057.033.053.066-.003.034-.033.057-.066.054l-.002-.003zM46.257 30.206c-.03 0-.055-.02-.06-.05-.006-.04-.172-.96-1.267-.996-.033-.001-.06-.03-.058-.062 0-.016.007-.031.019-.042.012-.01.027-.017.043-.016 1.197.034 1.379 1.086 1.381 1.097.005.032-.016.063-.049.068l-.01.001z"/>
        <path fill="#FFF" fill-rule="nonzero" d="M42.161 29.838c-1.362-.17-1.676-.608-1.676-1.044l4.342.205c-.315-.644-1.734-3.392-1.779-3.48.41-.132.933.232 1.37.923.51.809 1.94 2.773 1.355 3.336-.333.326-2.838.156-3.612.06z" opacity=".6" style="mix-blend-mode:overlay"/>
    </g>
</svg>
