<svg xmlns="http://www.w3.org/2000/svg" width="92" height="116" viewBox="0 0 92 116">
    <g fill="none">
        <g>
            <path fill="#F47D7D" d="M7.133 28.007L7.133 38.542 17.948 32.935 16.478 21.266z" transform="matrix(-1 0 0 1 92 0) translate(42.7)"/>
            <path fill="#030F1C" d="M7.14 29.589s3.682-1.708 4.9-2.954c-.254 2.151-1.205 4.16-2.709 5.719-2.429 2.359-2.163.455-2.163.455l-.028-3.22z" opacity=".6" style="mix-blend-mode:overlay" transform="matrix(-1 0 0 1 92 0) translate(42.7)"/>
            <g>
                <path fill="#F47D7D" d="M1.162 8.05S.938 4.9 2.898 2.8c2.8-3.101 10.913-3.262 13.188 0 3.073 4.417 1.4 9.8-.364 12.236C13.958 17.472 1.12 8.785 1.162 8.05z" transform="matrix(-1 0 0 1 92 0) translate(42.7) translate(.7 4.2)"/>
                <path fill="#F47D7D" d="M1.26 6.377s-.511 7.665-.252 12.516 1.813 6.895 3.598 6.895 5.663-2.289 7.7-4.585c.99-1.21 2.173-2.248 3.5-3.073 0 0 3.08-2.191 3.08-4.249 0-4.081-3.332-3.157-4.102-2.905-.77.252-2.555-5.6-2.555-5.6S3.052 4.592 1.26 6.377z" transform="matrix(-1 0 0 1 92 0) translate(42.7) translate(.7 4.2)"/>
                <path fill="#0B122D" d="M14.959 15.169h-.049c-.032-.012-.058-.037-.07-.07-.014-.03-.014-.067 0-.098.049-.112 1.183-2.8 2.408-2.366.033.01.06.032.076.063.016.03.019.066.008.098-.023.07-.098.107-.168.084-.826-.287-1.792 1.505-2.1 2.219-.02.04-.06.067-.105.07z" transform="matrix(-1 0 0 1 92 0) translate(42.7) translate(.7 4.2)"/>
                <path fill="#0B122D" d="M17.066 14.7c-.062 0-.116-.044-.126-.105-.028-.278-.17-.531-.392-.7-.238-.142-.52-.187-.791-.126-.033.008-.069.003-.098-.016-.03-.019-.05-.048-.056-.082-.01-.033-.007-.068.01-.098.018-.03.047-.05.081-.056.34-.07.695-.01.994.168.285.203.469.52.504.868.006.033-.002.068-.021.096-.02.027-.05.046-.084.051h-.021zM6.251 25.536c-.052.001-.099-.03-.119-.077-.014-.031-.014-.067 0-.099.012-.032.038-.057.07-.069.042 0 4.2-1.897 6.006-4.165.028-.036.072-.055.117-.05.046.006.084.036.102.078.018.042.012.09-.016.126-1.813 2.317-5.936 4.165-6.111 4.242l-.049.014z" transform="matrix(-1 0 0 1 92 0) translate(42.7) translate(.7 4.2)"/>
                <g>
                    <path fill="#161B36" d="M7.217 3.836c0 .434-.217.784-.483.784s-.476-.35-.476-.784c0-.434.217-.784.476-.784s.483.35.483.784zM2.485 4.2c0 .434-.21.784-.476.784s-.476-.35-.476-.784c0-.434.21-.784.476-.784s.476.315.476.784zM5.747.7c.175-.189.406-.336 1.106-.294.7.042 1.764.7 1.526.868-.238.168-.931-.406-1.484-.21-.553.196-.868.35-1.057.245C5.649 1.204 5.67.784 5.747.7zM2.709.497c-.217-.126-.49-.189-1.141.077S.126 1.806.406 1.89c.28.084.756-.7 1.337-.7s.938.049 1.078-.112C2.961.917 2.8.56 2.709.497z" transform="matrix(-1 0 0 1 92 0) translate(42.7) translate(.7 4.2) translate(0 8.4)"/>
                    <path fill="#030F1C" d="M3.745 9.135c-.243.006-.484-.05-.7-.161-.14-.081-.237-.22-.266-.378-.056-.336.287-.854.7-1.442.109-.14.207-.287.294-.441.081-1.11.081-2.223 0-3.332h.259c.088 1.149.088 2.302 0 3.451-.093.166-.198.325-.315.476-.259.371-.7.994-.658 1.253.019.085.072.159.147.203.367.158.78.17 1.155.035l.084.245c-.228.064-.463.095-.7.091z" opacity=".6" transform="matrix(-1 0 0 1 92 0) translate(42.7) translate(.7 4.2) translate(0 8.4)"/>
                    <g>
                        <path fill="#161B36" d="M.637 1.771c-.041-.158.048-.32.203-.371.378-.105 1.071-.308 1.596-.49C2.988.695 3.524.44 4.039.147c.091-.048.2-.046.29.005.089.051.146.144.151.247 0 .784-.063 2.317-1.295 2.632-.504.194-1.066.168-1.55-.071C1.15 2.72.789 2.29.637 1.77z" transform="matrix(-1 0 0 1 92 0) translate(42.7) translate(.7 4.2) translate(0 8.4) translate(2.8 9.8)"/>
                        <path fill="#E55151" d="M1.295 2.751S2.59.938 4.438 1.351c.011.77-.466 1.464-1.19 1.729-.664.238-1.404.114-1.953-.329z" transform="matrix(-1 0 0 1 92 0) translate(42.7) translate(.7 4.2) translate(0 8.4) translate(2.8 9.8)"/>
                    </g>
                </g>
            </g>
            <path fill="#A2003F" d="M1.701 15.981s-.049-5.138 1.659-5.761c1.708-.623 6.118-.392 7.259.119 1.925.861 1.225 4.746 1.925 5.831s1.344 4.9 2.051 3.5c.707-1.4.315-3.619 2.499-3.5 2.184.119 2.877 2.464-.574 6.16l.385 2.303s3.913-4.704 4.487-7.868c.574-3.164.189-8.351-1.736-9.31-.346-1.385-1.42-2.472-2.8-2.835-.602-.161-1.498-2.044-2.317-2.52-.287-.168-.441 1.148-.749.959C11.69 1.757 9.268.147 7.679.147 6.09.147 4.69 1.435 3.577 2.828c-.196.245-.553-.588-.7-.343-.805 1.141-1.176 3.283-1.295 3.605-2.282 6.027.119 9.891.119 9.891z" transform="matrix(-1 0 0 1 92 0) translate(42.7)"/>
            <path fill="#FFF" d="M12.824 7.875c-.039.002-.076-.017-.098-.049-.573-1.012-1.042-2.079-1.4-3.185-.011-.032-.01-.066.005-.096s.04-.054.072-.065c.031-.013.067-.013.098.002.03.015.054.042.063.075.368 1.08.837 2.123 1.4 3.115.048.051.048.13 0 .182-.04.032-.093.04-.14.021zM2.548 8.729h-.056c-.062-.034-.087-.111-.056-.175.421-.933.777-1.894 1.064-2.877.02-.069.092-.109.161-.091.066.023.103.094.084.161-.28.995-.634 1.968-1.057 2.912-.025.053-.083.082-.14.07zM20.3 12.873h-.063c-1.435-.854-4.788-1.4-4.823-1.4-.034-.005-.064-.024-.084-.051-.02-.028-.027-.063-.021-.096.003-.033.02-.063.047-.083.027-.02.06-.028.093-.022.14 0 3.444.525 4.9 1.4.057.039.076.115.042.175-.014.04-.05.07-.091.077z" transform="matrix(-1 0 0 1 92 0) translate(42.7)"/>
        </g>
        <g transform="matrix(-1 0 0 1 92 0) translate(0 30.1)">
            <g fill="#F47D7D">
                <path d="M6.888 1.176s0 3.416-.259 3.941c-.295.818-.71 1.587-1.232 2.282-.651.7-4.62 2.583-4.774 2.905-.154.322 1.19 1.54 2.394 1.015 1.204-.525 2.261-1.239 2.513-.994.252.245.105 1.519.112 2.31 0 .469 7.245-.49 7.504-1.176.399-1.05.616-4.116.063-5.446-.7-1.736-.532-5.432-.532-5.432l-5.789.595z" transform="translate(77.7 65.8)"/>
                <path d="M5.691 11.564s-.371 5.733-.154 6.216c.217.483.973.826 1.295.035.322-.791.441-6.097.441-6.097l-1.582-.154zM7.434 11.704s-.168 6.93.049 7.413c.217.483.973.833 1.295.035.322-.798.469-7.546.469-7.546l-1.813.098zM9.52 10.451s-.168 6.93.056 7.413c.224.483.966.826 1.288 0 .322-.826.469-7.546.469-7.546l-1.813.133zM11.585 9.604s-.154 6.202.042 6.636c.196.434.868.742 1.162 0 .294-.742.413-6.755.413-6.755l-1.617.119z" transform="translate(77.7 65.8)"/>
            </g>
            <g>
                <path fill="#F47D7D" d="M14.063.035s-2.513 2.317-3.087 2.464c-.957.163-1.927.238-2.898.224-1.799 0-4.641-1.274-4.984-1.176-.343.098-.336 1.925.861 2.457 1.197.532 2.569.196 2.429 1.183 0 .168-.308.63-1.701 1.505-.399.252 5.698 5.103 6.3 4.641 1.008-.805 3.409-2.044 4.2-3.808.791-1.764 3.227-3.612 3.227-3.612L14.063.035z" transform="translate(0 59.5)"/>
                <path fill="#0B122D" d="M12.124 8.4c-4.2 0-5.642-2.38-5.705-2.485-.028-.039-.031-.09-.008-.132.022-.043.066-.068.114-.067.048.001.09.03.111.073 0 0 1.554 2.534 5.964 2.345.035-.002.068.01.094.034.025.024.04.057.039.092.002.033-.01.066-.032.091-.022.025-.054.04-.087.042l-.49.007z" transform="translate(0 59.5)"/>
                <path fill="#F47D7D" d="M5.67 6.006S.987 8.967.7 9.422c-.287.455-.112 1.274.7 1.078.812-.196 5.222-3.171 5.222-3.171L5.67 6.006zM6.65 7.525s-5.25 4.543-5.453 5.033c-.203.49.042 1.274.847.98.805-.294 5.894-4.739 5.894-4.739L6.65 7.525zM8.722 8.239s-4.837 4.963-5.012 5.467c-.175.504.154 1.267.931.903.777-.364 5.474-5.208 5.474-5.208L8.722 8.239zM10.36 9.443s-3.724 4.963-3.822 5.425c-.098.462.28 1.113.931.7.651-.413 4.263-5.257 4.263-5.257l-1.372-.868z" transform="translate(0 59.5)"/>
            </g>
            <path fill="#B6D3F2" d="M39.2 9.842c-1.821 1.429-3.333 3.213-4.445 5.243-1.526 3.059-6.3 23.016-6.454 24.038-.154 1.022-16.905 22.169-16.905 22.169s4.081-.427 5.6 4.501c0 0 14.525-13.335 17.073-16.051 2.548-2.716 5.096-6.034 6.202-9.856C41.377 36.064 39.2 9.842 39.2 9.842z"/>
            <path fill="#030F1C" d="M39.41 20.3s-4.249 2.037-3.913 9.856c.336 7.819 2.541 8.624-.854 13.244-3.395 4.62-7.084 5.992-7.784 13.3 0 0 12.208-10.22 13.398-16.758 1.19-6.538-.847-19.642-.847-19.642z" opacity=".6" style="mix-blend-mode:overlay"/>
            <path fill="#B6D3F2" d="M73.444 53.333c-1.07-3.731-1.436-7.629-1.078-11.494.168-3.227 1.078-28.084 1.19-29.897.112-1.813-.511-4.305-2.8-5.096-2.289-.791-9.226-2.268-9.226-2.268L60.361.217c-1.321 3.11-4.006 5.436-7.273 6.3-1.417-.759-2.534-1.975-3.171-3.451l-1.869 2.205s-8.547 3.682-9.905 5.495c-1.358 1.813 1.246 22.568 1.302 28.7 0 3.983-.371 8.582-.483 13.762-.056 2.457-2.38 7.273-.483 8.834 6.125 5.04 36.071 0 36.071 0-.04-2.942-.41-5.87-1.106-8.729z"/>
            <path fill="#12496F" d="M44.555 6.867s-.805 34.762.833 57.211l-2.562-.378c-1.396-18.398-1.864-36.855-1.4-55.3 0 0 1.204-1.743 3.129-1.533z"/>
            <path fill="#0B122D" d="M51.555 64.4c-.067 0-.122-.052-.126-.119-.168-1.981.042-7.7.245-13.174.203-5.6.42-11.417.231-13.265-.371-3.654 1.064-29.771 1.078-30.037.002-.033.017-.065.042-.087.025-.022.058-.034.091-.032.07.004.126.062.126.133 0 .266-1.449 26.362-1.085 29.995.189 1.869 0 7.7-.231 13.3-.203 5.495-.413 11.2-.245 13.146.004.071-.048.133-.119.14h-.007z"/>
            <path fill="#B6D3F2" d="M69.209 6.384c1.869.56 3.297.518 6.727 4.9 2.8 3.5 13.3 21.574 14.525 23.275 1.225 1.701 1.61 3.311 1.526 7.301-.084 3.99-1.022 27.86-1.022 27.86s-3.906-2.8-7.56 0c0 0-1.274-21.91-1.442-23.611-.168-1.701-.749-3.738-1.225-7.644L64.4 19.327s-4.753-5.089-.623-10.192c3.066-3.808 3.955-3.122 5.432-2.751z"/>
            <path fill="#12496F" d="M63.399 5.033S58.1 15.771 57.4 33.341c-.464 10.224-.029 20.47 1.302 30.618l3.374-.294S57.001 23.863 66.92 5.789c-.007 0-2.226-1.792-3.521-.756z"/>
            <path fill="#FFF" d="M49.938 3.052c.637 1.476 1.754 2.692 3.171 3.451l-2.94 3.339-2.1-4.585 1.869-2.205zM60.382.217c-1.321 3.11-4.006 5.436-7.273 6.3.85.937 1.42 2.094 1.645 3.339l6.797-5.264L60.382.217z" opacity=".6" style="mix-blend-mode:overlay"/>
            <path fill="#030F1C" d="M72.87 29.253l-5.264-6.797c-.4 5.198-.039 10.426 1.071 15.519 2.331 9.751-1.309 16.24-4.9 20.062-3.059 3.241-9.401 4.018-13.951 6.258 8.715.483 24.766-2.24 24.766-2.24-.1-3.502-.615-6.98-1.533-10.36-1.603-6.195-.189-22.442-.189-22.442z" opacity=".6" style="mix-blend-mode:overlay"/>
            <path fill="#0B122D" d="M80.738 38.57c-.034-.007-.063-.027-.082-.056-.019-.03-.024-.065-.016-.098.345-1.443 1.337-2.647 2.688-3.262.031-.014.067-.014.099 0 .032.012.057.038.069.07.014.031.014.067 0 .099-.012.032-.038.057-.07.069-1.264.59-2.195 1.72-2.534 3.073-.014.071-.083.118-.154.105zM70.161 25.557c-.023.006-.047.006-.07 0-3.654-2.534-3.668-8.057-3.668-8.113.004-.07.062-.126.133-.126.07.004.126.062.126.133 0 .049 0 5.439 3.556 7.896.048.051.048.13 0 .182-.022.018-.049.028-.077.028zM31.878 40.495c-.037.001-.073-.014-.098-.042-.882-.977-2.204-1.432-3.5-1.204-.07.013-.137-.03-.154-.098-.008-.033-.003-.069.016-.098.019-.03.048-.05.082-.056 1.378-.233 2.779.253 3.717 1.288.048.051.048.13 0 .182-.018.015-.04.024-.063.028zM38.549 26.831c-.063.004-.119-.042-.126-.105-.516-3.24-.666-6.527-.448-9.8.01-.069.07-.12.14-.119.035.002.067.018.09.044.022.027.033.061.029.096-.222 3.247-.074 6.51.441 9.723.006.033-.002.068-.021.096-.02.027-.05.046-.084.051l-.021.014zM41.958 57.4c-.02.007-.043.007-.063 0-2.233-1.281-3.003-4.032-3.038-4.151-.008-.032-.004-.067.013-.096.018-.029.045-.05.078-.058.067-.019.138.018.161.084 0 0 .777 2.8 2.912 4.004.057.039.076.115.042.175-.025.032-.065.048-.105.042z"/>
            <path fill="#FFF" d="M13.804 58.212s1.4.504 3.857-2.1c2.457-2.604 10.962-14.658 11.781-15.743.819-1.085 4.305-17.731 4.305-18.949.04-.637-.154-1.267-.546-1.771 0 0-3.871 14.294-4.9 19.474-4.361 6.041-14.497 19.089-14.497 19.089zM36.757 12.145c1.776-1.298 3.766-2.274 5.88-2.884 1.967-.492 3.886-1.16 5.733-1.995l-.875-1.757S40.992 8.4 39.2 9.842c-.897.675-1.717 1.447-2.443 2.303zM73.647 30.156s1.778-1.141 3.388.812c1.61 1.953 6.545 6.076 6.671 8.365.126 2.289.126 11.977.637 14.994.511 3.017 1.05 7.224-1.4 7.308 0 0-.868-14.742-.973-15.547-.105-.805-1.225-7.644-1.225-7.644l-7.098-8.288z" opacity=".6" style="mix-blend-mode:overlay"/>
            <path fill="#030F1C" opacity=".6" style="mix-blend-mode:overlay" d="M54.754 9.842L65.716 5.509 61.551 4.578z"/>
            <circle fill="#030F1C" opacity=".6" style="mix-blend-mode:overlay" cx="53.508" cy="18.452" r="1"/>
            <circle fill="#030F1C" opacity=".6" style="mix-blend-mode:overlay" cx="53.109" cy="26.313" r="1"/>
            <circle fill="#030F1C" opacity=".6" style="mix-blend-mode:overlay" cx="52.969" cy="34.944" r="1"/>
            <circle fill="#030F1C" opacity=".6" style="mix-blend-mode:overlay" cx="53.109" cy="43.008" r="1"/>
            <path fill="#030F1C" d="M53.109 54.362c0 .162-.098.308-.248.37-.15.06-.322.025-.436-.09-.113-.116-.146-.289-.082-.438.064-.148.212-.244.374-.241.105 0 .206.042.28.117.073.075.114.177.112.282z" opacity=".6" style="mix-blend-mode:overlay"/>
        </g>
    </g>
</svg>
