<svg xmlns="http://www.w3.org/2000/svg" width="64" height="90" viewBox="0 0 64 90">
    <g fill="none" fill-rule="evenodd">
        <path fill="#F7B17D" fill-rule="nonzero" d="M23.811 7.519c-.159-1.914-2.222-1.128-2.57-.977-.35.15-1.42-2.539-1.42-2.539s-4.346 0-5.114.91c0 0 .06 3.618.37 5.886.308 2.268 1.12 3.163 1.96 3.093.264-.035.52-.117.755-.24l.35 4.194L23 14.791l-1.038-4.902c.012-.01.025-.018.038-.026 0 0 1.964-.537 1.812-2.344z"/>
        <path fill="#161B36" fill-rule="nonzero" d="M14.803 7.573s-1.156-.88-1.444-2.91c-.287-2.028-.037-4.219 1.246-4.245 1.282-.027 2.91-.087 4.172-.35 1.261-.264 4.217.186 4.615 2.406.768.98 1.19 2.188 1.197 3.434.014 2.086-.448 4.88-2.551 5.673l-.24-1.633s2.044-2.045 1.278-2.87c-.982-1.055-2.135.07-2.204.852 0 0-.428-.36-.601-1.823 0 0-1.128-.682-1.243-1.743 0 0-3.431-.061-4.1.584l-.125 2.625z"/>
        <path fill="#030F1C" fill-rule="nonzero" d="M17.796 13.642s1.66-.948 2.166-1.58c0 0 0 1.588-1.046 2.792-1.045 1.203-.998.297-.998.297l-.122-1.509z" opacity=".6" style="mix-blend-mode:overlay"/>
        <path fill="#0B122D" fill-rule="nonzero" d="M21.474 8.504h-.02c-.016-.004-.03-.016-.038-.031-.008-.016-.009-.034-.002-.05.018-.056.448-1.35 1.039-1.204.032.009.05.04.043.072-.008.033-.04.053-.073.045-.397-.1-.782.778-.895 1.125-.007.024-.029.042-.054.043z"/>
        <path fill="#0B122D" fill-rule="nonzero" d="M22.446 8.21c-.028 0-.051-.019-.058-.045-.024-.13-.1-.243-.212-.313-.118-.055-.252-.066-.378-.031-.033.01-.068-.008-.078-.042-.01-.033.008-.068.041-.078.157-.047.325-.033.472.038.141.085.24.226.272.389.007.032-.013.065-.045.073l-.014.008zM17.792 13.708c-.021 0-.041-.011-.052-.03-.008-.014-.01-.03-.005-.046.004-.015.015-.028.029-.036.019-.01 1.915-1.056 2.658-2.19.01-.022.032-.036.055-.036.024 0 .045.014.055.036.01.021.006.046-.01.064-.759 1.161-2.621 2.188-2.7 2.23-.01.006-.02.009-.03.008z"/>
        <path fill="#FFF" fill-rule="nonzero" d="M19.5 3.55c-.008 0-.017-.003-.025-.007-1.04-.488-1.01-1.896-1.009-1.956.002-.033.03-.058.063-.058.032.002.058.029.057.062 0 .014-.027 1.388.941 1.843.015.007.026.02.032.034.005.015.004.032-.003.047-.01.02-.032.034-.055.034zM21.545 5.011c-.014 0-.027-.004-.038-.013-1.096-.885-.825-2.49-.822-2.506.003-.022.018-.04.038-.047.02-.008.044-.004.06.01.017.014.025.036.022.057 0 .016-.261 1.552.78 2.392.012.01.02.025.021.04.002.016-.003.032-.013.045-.012.015-.03.023-.048.022z"/>
        <path fill="#161B36" fill-rule="nonzero" d="M17.805 11.264c0 .377-.401.681-.894.681-.149.001-.296-.028-.433-.085-.276-.12-.462-.34-.462-.596 0-.376.4-.68.895-.68.434 0 .797.24.877.55.01.043.016.087.017.13z"/>
        <path fill="#E55151" fill-rule="nonzero" d="M17.805 11.264c0 .377-.401.681-.894.681-.149.001-.296-.028-.433-.085.134-.191.601-.78 1.31-.722.01.041.016.084.017.126z"/>
        <circle cx="17.588" cy="7.707" r="1" fill="#161B36" fill-rule="nonzero"/>
        <circle cx="15.361" cy="7.861" r="1" fill="#161B36" fill-rule="nonzero"/>
        <path fill="#161B36" fill-rule="nonzero" d="M17.122 6.225c.081-.089.19-.16.52-.14.33.021.83.33.722.411-.108.08-.44-.19-.7-.1-.26.09-.41.164-.497.12-.11-.067-.084-.247-.045-.29zM15.692 6.136c-.105-.059-.23-.09-.537.035-.305.125-.68.581-.55.621.13.04.362-.321.631-.32.27.001.44.023.508-.052.084-.096-.001-.257-.052-.284z"/>
        <path stroke="#030F1C" stroke-width=".5" d="M16.24 7.49s.07 1.444 0 1.597c-.07.152-.496.64-.464.85.033.21.414.25.694.16" opacity=".6" style="mix-blend-mode:overlay"/>
        <path fill="#201F20" fill-rule="nonzero" d="M49.417 63.168s-.465-2.526-.874-3.023c-7.013.494-7.44.2-11.66.24-3.747.034-6.857.521-7.248.082-.289-.754-.593-1.593-.905-2.48 2.166-6.37 2.587-11.574 2.602-14.574 0-.643-.01-1.183-.032-1.612-.037-.77-.093-1.183-.093-1.183-1.815-.086-15.46 1.805-15.46 1.805l-.883-.164.015.206c.053.716.136 1.435.24 2.157 1.35 5.09 3.01 10.094 4.971 14.981l-.02.148c-.035.268-.052.539-.05.809l.103 22.884 3.428.748s2.122-8.62 3.02-12.634c.207-1.007.363-2.024.465-3.047.394.047.79.07 1.188.068 2.73.004 21.193-5.41 21.193-5.41z"/>
        <path fill="#DCE4EF" fill-rule="nonzero" d="M22.434 53.195c-.213 1.333-.83 6.108-.895 8.543-.067 2.435.12 7.321-.32 7.975-.241.36-.749.683-1.155.902l-.046-10.061c-.001-.27.016-.54.05-.809l.503-3.733.642-4.821c.612.47 1.347 1.211 1.22 2.004z" opacity=".6" style="mix-blend-mode:overlay"/>
        <path fill="#030F1C" fill-rule="nonzero" d="M20.571 56.012l1.043-7.884c-.512.722-1.044 1.755-1.36 3.202-.662 3.029-1.925 2.268-1.925 3.59l.626 1.744c.37.995.75 1.98 1.138 2.944l.478-3.596zM29.635 60.458c-.289-.755-.593-1.593-.905-2.481-.34 1.003-.722 2.033-1.153 3.09 0 0-.162 4.057-.542 7.447.394.048.79.07 1.188.069.447 0 1.323-.147 2.462-.391.201-1.167 1.043-4.613 1.094-7.586-1.172.06-1.959.059-2.144-.148z" opacity=".6" style="mix-blend-mode:overlay"/>
        <path fill="#030F1C" fill-rule="nonzero" d="M31.332 43.403c-2.166.804-4.428 1.325-6.728 1.548-.895.092-1.764.144-2.59.165-2.307.059-4.615-.108-6.89-.499-.108-.722-.191-1.443-.24-2.157l.868-.042 9.356-.463 6.197-.164c.017.43.03.97.027 1.612z" style="mix-blend-mode:overlay"/>
        <path fill="#FFF" fill-rule="nonzero" d="M30.955 46.547c-.589.014-1.16-.195-1.602-.584-1.17-1.04-1.265-3.061-1.269-3.147 0-.033.027-.06.06-.06.034 0 .06.027.06.06 0 .02.098 2.056 1.23 3.062.481.422 1.117.621 1.753.55.016-.001.032.004.044.014.012.01.02.026.02.042.002.032-.022.06-.055.065-.084-.004-.158-.002-.241-.002zM15.676 47.492c-.012 0-.025-.004-.034-.012-.027-.02-.033-.057-.014-.083 1.375-1.925 1.072-3.475 1.069-3.49-.004-.015-.001-.032.008-.045.009-.013.023-.023.038-.026.033-.006.064.015.071.046.014.065.32 1.615-1.088 3.586-.012.015-.03.024-.05.024z"/>
        <path fill="#6FA3EF" fill-rule="nonzero" d="M15.204 86.47l-2.665-.161c-.584.12-.853.874-.932 1.149l11.407 1.635.233-4.55-3.445-.493-4.598 2.42zM52.577 58.505l-4.31 1.471.816 3.383 3.953 3.369.842 2.533c.325.501 1.13.469 1.413.44l-2.714-11.196z"/>
        <path fill="#3268AE" fill-rule="nonzero" d="M20.994 88.803l-9.384-1.345-.01.333c.011.335.269.61.602.642l10.46 1.5c.287.042.35-.841.35-.841l.099-1.926c-2.203-.309-2.117 1.637-2.117 1.637zM19.469 83.726l.046-.32c.021-.15.161-.255.312-.233l3.782.542c.151.022.256.162.234.313l-.045.319c-.022.15-.162.256-.313.234l-3.782-.542c-.151-.022-.256-.162-.234-.313zM55.977 68.79l-2.489-10.27c-.067-.282-.91-.015-.91-.015l2.715 11.2.312-.12c.306-.135.464-.474.372-.795z"/>
        <path fill="#3268AE" fill-rule="nonzero" d="M53.059 60.488l-.482-1.983-1.819.62c.525 2.164 2.3 1.363 2.3 1.363zM47.568 59.609l.313-.076c.149-.036.298.055.334.203l.9 3.714c.036.148-.055.297-.203.333l-.314.076c-.148.036-.297-.055-.333-.203l-.9-3.714c-.036-.148.055-.297.203-.333z"/>
        <path fill="#BBDAFF" fill-rule="nonzero" d="M51.374 63.681l.498 2.054.615.524-.652-2.69c-.046-.107-.164-.165-.277-.138-.114.028-.191.133-.184.25M50.366 62.814l.498 2.053.615.525-.652-2.69c-.047-.108-.164-.166-.277-.138-.114.027-.191.133-.184.25M49.453 62.036l.498 2.054.615.525-.652-2.69c-.006-.096-.069-.18-.16-.211-.09-.033-.19-.008-.256.062-.065.07-.083.172-.045.26M18.654 86.055l-2.091-.3-.722.377 2.74.392c.116-.004.214-.09.23-.206.017-.116-.052-.227-.163-.263M19.834 85.44l-2.092-.3-.716.377 2.74.392c.117-.004.215-.09.231-.206.017-.116-.052-.227-.163-.263M20.894 84.88l-2.092-.294-.715.376 2.74.392c.09.03.19.003.254-.069.064-.072.079-.175.038-.262-.04-.086-.13-.14-.225-.138"/>
        <path fill="#3268AE" fill-rule="nonzero" d="M40.555 26.167c-1.06-1.553-1.655-2.198-2.45-2.767-.774-.55-7.272-6.435-9.306-7.036-.237-.07-.478-.126-.722-.166-.074-.03-.15-.056-.227-.076-1.094-.284-4.42-.703-4.42-.703l-3.886 1.235-2.413-.388-9.047 2.362s1.798-2.43 3.55-4.58C10.214 13.702 9.2 12.32 9.2 12.32s-7.379 7.219-8.013 7.962c-2.51 2.94-.24 5.07 3.145 4.757 5.008-.463 7.843-1.255 8.65-1.508.49 3.249 1.285 7.401 1.443 9.129.17 1.866.162 4.043.312 6.478.072 1.154-.832 3.507.12 4.165 2.808 1.945 14.632-.842 16.64-1.339.168-.042.279-.202.259-.374-.149-1.275-.431-2.532-.843-3.748-.892-2.518-.908-3.832-.955-5.354-.024-.798-.186-4.397-.338-7.762 2.797 1.467 5.955 2.961 5.955 2.961 1.212 1.324 1.684 2.082 2.197 2.677l.05.058c.11.12.5.585 1.047 1.234l.078.092c2.12 2.517 5.954 7.087 5.954 7.087.505-1.833 2.732-1.939 2.732-1.939s-6.019-9.175-7.077-10.729z"/>
        <path fill="#030F1C" fill-rule="nonzero" d="M19.738 23.342c.008.075-.03.148-.096.184-.066.037-.147.03-.206-.018-.059-.047-.084-.125-.063-.197.021-.073.084-.125.159-.134.102-.01.194.063.206.165M20.283 27.005c.008.075-.03.147-.096.184-.066.036-.147.03-.206-.018-.06-.047-.084-.125-.063-.198.021-.072.084-.125.159-.133.05-.006.099.008.137.04.039.03.064.076.069.125M21.053 31.011c.01.103-.063.195-.165.206-.102.012-.194-.062-.206-.164-.012-.102.062-.194.164-.206.049-.006.099.008.137.039.04.031.064.076.07.125" opacity=".6" style="mix-blend-mode:overlay"/>
        <path fill="#030F1C" fill-rule="nonzero" d="M21.853 35.032c.02.213-.102.405-.272.43-.17.025-.324-.127-.344-.34-.02-.213.102-.405.272-.43.17-.022.322.129.344.34M22.404 40.292c.023.212-.13.403-.342.427-.212.024-.404-.129-.428-.341-.025-.212.128-.404.34-.429.213-.023.405.13.43.343" opacity=".6"/>
        <path fill="#0B122D" fill-rule="nonzero" d="M13.606 24.596c-.02 0-.039-.01-.05-.026-.879-1.29-1.022-3.34-1.023-3.36-.001-.016.004-.032.015-.044.01-.012.025-.019.041-.02.033-.001.061.023.064.056 0 .02.142 2.04 1.002 3.3.01.013.013.03.01.045-.003.016-.012.03-.025.038-.01.007-.022.011-.034.011z"/>
        <path fill="#030F1C" fill-rule="nonzero" opacity=".6" style="mix-blend-mode:overlay" d="M18.291 18.338L20.62 16.899 19.542 16.655z"/>
        <path fill="#0B122D" fill-rule="nonzero" d="M21.072 43.89c-.03 0-.055-.022-.06-.051-.155-.924-.28-3.603-.4-6.194-.12-2.647-.25-5.376-.41-6.238-.3-1.61-1.344-9.059-1.382-10.452-.037-1.368.662-4.223.669-4.25.008-.033.04-.053.073-.045.016.004.029.014.037.027.008.014.01.03.006.046-.006.028-.702 2.867-.665 4.218.039 1.39 1.083 8.827 1.38 10.435.162.87.289 3.61.411 6.256.12 2.588.241 5.264.401 6.181.005.033-.017.063-.05.069l-.01-.003z"/>
        <path fill="#FCC92C" fill-rule="nonzero" d="M21.24 23.919L25.201 23.919 25.201 24.569 21.24 24.569z" transform="rotate(-4.77 23.22 24.244)"/>
        <path fill="#FCC92C" fill-rule="nonzero" d="M22.71 13.42c-.502 1.509-1.67 2.702-3.168 3.235-1.061-.38-1.617-1.495-1.617-1.495l-.79 1.111 1.15 2.067 1.252-1.684c.66.534.902 1.504.902 1.504l2.984-2.739-.714-2z"/>
        <path fill="#030F1C" fill-rule="nonzero" d="M30.665 37.088c-.987-2.863-.963-10.53-.963-10.53l-.082-1.832c-.93-.489-1.82-.973-2.542-1.4-.158 1.298-.185 3.818.998 7.493 1.443 4.495.02 7.673-1.523 9.609-1.311 1.643-4.255 2.255-6.303 3.49 3.626-.103 9.84-1.6 11.247-1.949.168-.041.28-.202.258-.374-.209-1.536-.574-3.046-1.09-4.507z" opacity=".6" style="mix-blend-mode:overlay"/>
        <path fill="#0B122D" fill-rule="nonzero" d="M16.295 40.996c-.01 0-.018-.002-.026-.006-1.095-.516-1.563-1.777-1.586-1.832-.01-.03.006-.064.036-.075.031-.011.065.004.077.035 0 .012.474 1.269 1.524 1.763.033.007.054.04.048.073-.007.033-.04.055-.073.048v-.006z"/>
        <path fill="#030F1C" fill-rule="nonzero" opacity=".6" style="mix-blend-mode:overlay" d="M20.444 18.159L25.42 15.696 23.427 15.42z"/>
        <path fill="#0B122D" fill-rule="nonzero" d="M28.814 24.305h-.016c-2.01-.589-2.84-3.053-2.848-3.078-.01-.032.007-.065.039-.076.031-.01.065.007.075.039.009.024.818 2.429 2.767 3 .016.004.029.014.036.028.008.014.01.03.005.046-.009.024-.032.04-.058.04z"/>
        <path fill="#030F1C" fill-rule="nonzero" d="M12.604 20.313c-.434.148-1.22.563-2.216 1.731-1.547 1.813-3.015 1.564-4.24 1.574-1.18.013-2.11.842-2.24 1.444.417-.027 4.962-.353 9.074-1.543-.193-1.276-.338-2.415-.378-3.206z" opacity=".6" style="mix-blend-mode:overlay"/>
        <path fill="#0B122D" fill-rule="nonzero" d="M5.946 21.625c-.012 0-.024-.004-.034-.01-.027-.02-.034-.057-.015-.085l2.045-2.887c.02-.027.056-.033.083-.015.013.01.022.023.025.04.003.015-.001.031-.01.044L5.995 21.6c-.011.016-.03.025-.049.025z"/>
        <path fill="#FFF" fill-rule="nonzero" d="M7.344 14.139s.57.914-.83 2.012c-1.399 1.097-3.266 3.619-3.78 4.079-.516.46-1.852.438-1.852.438s.494-.62 1.87-1.987c1.374-1.367 4.592-4.542 4.592-4.542z" opacity=".6" style="mix-blend-mode:overlay"/>
        <path fill="#36C9D8" fill-rule="nonzero" d="M14.84 8.22l-3.14.648c-.09.017-.17.07-.22.147-.052.076-.07.17-.051.26l.625 3.033c.04.186.222.305.408.267l2.851-.589c-.107-.39-.187-.786-.24-1.187-.102-.77-.179-1.694-.233-2.58zM63.715 46.887l-5.872-8.515c-.064-.093-.14-.178-.225-.25-.415-.602-1.791-.362-2.394.057l-3.828 2.64c-.22-.226-.504-.38-.813-.444-.722-.157-1.597.114-2.596.802-.97.67-1.52 1.385-1.635 2.126-.05.312-.015.631.102.925l-4.228 2.92c-.29.199-.489.505-.552.851-.064.346.012.703.212.992l5.873 8.515c.596.864 1.946.658 2.548.24l.033-.023c.013-.008.026-.016.038-.026l12.998-8.967c.29-.2.488-.505.552-.851.063-.346-.013-.703-.213-.992zm-16.85-2.942c-.055-.184-.068-.378-.038-.568.093-.602.588-1.22 1.433-1.805.866-.602 1.629-.85 2.207-.733.195.037.376.125.525.257l-4.128 2.849z"/>
        <path fill="#FFF" fill-rule="nonzero" d="M15.076 10.799c-.096-.704-.168-1.537-.221-2.352l-2.887.601c-.187.039-.307.221-.269.408l.534 2.59c.039.186.222.306.408.268l2.62-.54c-.078-.322-.14-.647-.185-.975z" opacity=".6" style="mix-blend-mode:overlay"/>
        <path fill="#030F1C" fill-rule="nonzero" d="M48.867 57.127l-5.566-8.156c-.2-.29-.276-.647-.213-.992.064-.346.263-.653.552-.852L56.3 38.39c.498-.344 1.164-.307 1.62.089l-.306-.361c-.415-.602-1.79-.361-2.394.057l-12.994 8.973c-.29.199-.489.505-.552.851-.064.346.012.703.212.992l5.873 8.515c.596.864 1.946.658 2.548.24l.567-.389c-.606.397-1.596.365-2.007-.23z" opacity=".6" style="mix-blend-mode:overlay"/>
        <path fill="#030F1C" fill-rule="nonzero" d="M59.05 40.122c-.01.007-.019.016-.027.025l-5.534 7.14c-.214-.1-.465-.079-.66.055-.194.135-.303.362-.286.597l-8.228 2.514.106.22 8.18-2.5c.017.035.036.068.057.1l.132.192c.21.305.627.381.932.171.304-.21.38-.627.17-.931l-.132-.191c-.022-.032-.046-.062-.073-.088l5.508-7.1-.144-.204z" opacity=".6" style="mix-blend-mode:overlay"/>
        <path fill="#DCE4EF" fill-rule="nonzero" d="M39.25 31.404c-.062.143-.166.263-.299.343l-.078-.092c-.548-.65-.937-1.11-1.048-1.234l-.05-.058c-.51-.602-.985-1.35-2.196-2.677l-5.488-2.718c.181-.223.987-.587 1.55-.361.902.36 4 1.504 4.57 2.256.572.752 3.368 3.73 3.038 4.54z" opacity=".6" style="mix-blend-mode:overlay"/>
        <path fill="#F7B17D" fill-rule="nonzero" d="M15.315 11.986l-2.85.589c-.187.038-.37-.081-.408-.267l-.589-2.853c-.436.372-.902.826-1.082 1.347-.21.584-.796 1.248-1.123 1.591.224.28 1.07 1.259 2.208 1.605.335-.36.912-.952 1.094-1.017.443-.117.895-.194 1.351-.228.536-.048 1.289.12 1.805.24-.178-.328-.316-.677-.41-1.04 0 .017.002.025.004.033zM14.887 8.911c-.032-.424-.058-.85-.08-1.259-.15.028-.263.15-.28.3l-.058.51c-.01.117.03.232.109.318.08.085.192.133.31.131zM13.92 8.95c.189-.062.309-.248.288-.446l-.038-.435c-.007-.088-.052-.167-.122-.22-.071-.05-.16-.07-.246-.05l-.192.042c-.14.03-.24.153-.241.295v.4c-.004.136.059.267.169.349.109.082.252.106.382.064zM12.742 9.144c.167-.062.264-.237.228-.411l-.045-.368c-.01-.077-.054-.146-.12-.186-.068-.04-.149-.047-.222-.019l-.19.075c-.102.04-.167.142-.16.252l.027.377c.017.107.081.2.175.254.093.055.206.064.307.026zM48.409 38.01c-.36-.22-.755-.668-1.077-1.082-.564.092-1.762.416-2.285 1.51.264.39.57.868.59 1.024.039.276.214.772.15 1.214-.063.441-.24 2.113-.218 2.276.021.164.584.39.9-.14.315-.531.007-1.075.17-1.05.164.025.308.87.66.994.085.029.531.088.66.043.188-.063.303-.297.507-.416.158-.094.412-.085.567-.202.156-.117.204-.378.331-.495.128-.116.345-.096.453-.221.107-.156.197-.324.269-.5.084-.141.126-.304.12-.469-.05-.52-1.22-2.126-1.797-2.485z"/>
    </g>
</svg>
