<svg xmlns="http://www.w3.org/2000/svg" width="12" height="12" viewBox="0 0 12 12">
    <g fill="none" fill-rule="evenodd">
        <path d="M0 0H20V20H0z" transform="translate(-4 -4)"/>
        <path stroke="#2743FF" stroke-linecap="round" stroke-linejoin="round" stroke-width="2" d="M10 5L10 15M5 10L15 10" transform="translate(-4 -4)"/>
    </g>
</svg>
