<svg xmlns="http://www.w3.org/2000/svg" width="195" height="180" viewBox="0 0 195 180">
    <g fill="none" transform="translate(1)">
        <rect width="134.264" height="103.552" x=".376" y=".47" fill="#FFF" stroke="#CDE7E8" stroke-width=".77" rx="7.245"/>
        <g>
            <g>
                <path fill="#F3B9B7" d="M18.89 13.896c0-3.596-3.972-2.45-4.647-2.227-.676.223-2.257-4.953-2.257-4.953s-8.108-.676-9.683.899c0 0-.452 6.757-.229 11.04.223 4.284 1.604 6.076 3.179 6.076.5-.03.99-.142 1.451-.335v7.879l9.536-4.947-1.175-9.307.077-.042s3.748-.687 3.748-4.083z" transform="translate(10.576 22.915) translate(47.593)"/>
                <path fill="#322418" d="M2.045 13.473s.44-3.696.493-4.7C2.621 7.302 3.99 7.01 4.8 8.025 5.953 9.57 7.923 10.265 9.79 9.79c1.633-.382 2.35-.817 2.473.828.124 1.645.711 4.39 1.234 3.66.523-.728 1.117-2.35 2.15-2.532 1.593-.287 2.574 1.61 2.198 2.738-.376 1.129-.905 1.84-2.861 2.938l.587 4.842c4.854-6.463 6.681-15.277.094-17.333-2.456-.764-5.011-5.723-9.777-4.595-3.372.799-3.372 3.384-3.613 5.635-4.507.111-.23 7.503-.23 7.503z" transform="translate(10.576 22.915) translate(47.593)"/>
                <g transform="translate(10.576 22.915) translate(47.593) translate(1.175 9.401)">
                    <circle cx="5.952" cy="3.378" r="1" fill="#171B34"/>
                    <circle cx="1.786" cy="3.666" r="1" fill="#171B34"/>
                    <path fill="#171B34" d="M5.082.588c.153-.17.359-.3.976-.265.617.035 1.557.588 1.351.77-.205.182-.828-.359-1.316-.188-.488.17-.764.305-.928.217C5 1.034 5.012.687 5.082.588zM2.403.435C2.21.323 1.974.27 1.398.505.823.74.13 1.592.37 1.68c.241.089.664-.587 1.175-.587s.823.047.952-.094c.13-.141 0-.511-.094-.564z"/>
                    <path fill="#050F1B" d="M3.32 8.056c-.217.01-.433-.042-.623-.147-.127-.07-.216-.193-.241-.335-.047-.294.253-.746.623-1.27.092-.123.177-.253.252-.387.073-.978.073-1.96 0-2.938h.194c.08 1.011.08 2.027 0 3.038-.08.15-.172.293-.276.429-.229.323-.617.875-.587 1.098.015.078.065.145.135.182.327.127.69.127 1.016 0l.07.212c-.18.069-.37.108-.563.118z" opacity=".6"/>
                    <g>
                        <path fill="#171B34" d="M.112 1.974c-.02-.066-.013-.137.02-.198s.09-.106.156-.125c.335-.094.946-.276 1.41-.435.484-.192.956-.415 1.41-.67.08-.042.175-.04.253.003.079.044.13.125.135.215.03.693-.053 2.045-1.14 2.35-.448.171-.947.145-1.375-.072-.427-.217-.743-.605-.87-1.068z" transform="translate(2.938 8.226)"/>
                        <path fill="#D35B57" d="M.687 2.838s1.14-1.592 2.768-1.228c.013.679-.408 1.29-1.046 1.522-.585.213-1.24.101-1.722-.294z" transform="translate(2.938 8.226)"/>
                    </g>
                </g>
                <path fill="#0C122B" d="M14.378 15.37h-.041c-.028-.01-.05-.033-.06-.06-.011-.028-.01-.059 0-.086.042-.1 1.047-2.45 2.122-2.086.058.02.09.083.07.141-.007.029-.027.053-.054.067-.027.013-.059.015-.087.003-.734-.246-1.58 1.334-1.845 1.963-.021.038-.062.06-.105.059z" transform="translate(10.576 22.915) translate(47.593)"/>
                <path fill="#0C122B" d="M16.24 14.971c-.055 0-.103-.04-.111-.094-.033-.234-.158-.446-.347-.587-.212-.12-.46-.16-.7-.112-.028.007-.059.002-.084-.013-.025-.016-.043-.04-.05-.07-.007-.028-.003-.059.013-.084.015-.025.04-.044.069-.05.3-.065.612-.014.875.14.253.181.415.461.447.77.005.03-.002.06-.02.085-.018.024-.044.04-.074.045l-.018-.03zM6.704 24.507c-.045.002-.087-.023-.106-.064-.025-.059.001-.126.06-.153.034 0 3.736-1.669 5.287-3.672.025-.032.065-.047.105-.041.04.006.074.033.088.07.015.038.009.08-.017.112-1.598 2.044-5.229 3.672-5.388 3.737-.008.006-.018.01-.029.011z" transform="translate(10.576 22.915) translate(47.593)"/>
                <path fill="#FFF" d="M11.98 8.62c-.022.007-.047.007-.07 0-1.698-1.322-1.064-3.878-1.04-3.99.008-.03.028-.054.054-.068.027-.014.058-.017.087-.008.029.006.053.025.068.05.014.026.017.057.008.085 0 0-.622 2.526.964 3.754.021.021.033.05.033.08s-.012.058-.033.079c-.02.014-.046.02-.07.018z" transform="translate(10.576 22.915) translate(47.593)"/>
                <path fill="#050F1B" d="M6.71 24.449s3.243-1.51 4.295-2.61c-.224 1.896-1.062 3.667-2.385 5.042-2.145 2.086-1.91.4-1.91.4v-2.832z" opacity=".6" style="mix-blend-mode:overlay" transform="translate(10.576 22.915) translate(47.593)"/>
            </g>
            <path fill="#FFF" d="M35.806 48.703c.632.72.782 1.744.382 2.615-.652 1.598-1.175 3.843-2.262 4.959-1.087 1.116-2.35.664-4.7-.652-2.128-1.175-4.501-2.192-4.948-2.99-.195-.362-.296-.766-.294-1.176 2.75 1.582 5.654 2.882 8.667 3.878l3.155-6.634z" opacity=".6" style="mix-blend-mode:overlay" transform="translate(10.576 22.915)"/>
            <g>
                <path fill="#5AAA84" d="M74.585 23.984c7.404 4.854 16.587 9.554 16.587 9.554l2.938-9.272S80.01 9.248 72.682 6.305c-1-.424-2.058-.7-3.138-.817-2.38-.588-5.006-1.134-5.006-1.134l-7.726 3.472-4.16-2.873c-2.444 1.05-4.824 2.243-7.127 3.573-1.481.758-3.18 2.62-5.606 7.509-3.843 7.72-5.734 12.444-7.233 15.223-3.146-1.092-6.198-2.44-9.125-4.03.093-.357-.07-.73-.393-.905l-1.728-.94c-.388-.212-1.292.205-1.504.587l-3.067 5.711c-.212.394.253 1.387.64 1.599l1.446.805c.276.148.613.123.864-.065 3.748 2.662 8.143 6.105 10.576 7.42 2.938 1.61 6.193 1.117 8.19-1.298 2.378-2.972 4.465-6.166 6.234-9.536.141 1.851.241 3.432.247 4.507.03 3.525-.323 7.568-.423 12.133-.047 2.162-2.32 8.39-.646 9.765h31.576s.458-5.875-.541-9.665c-.943-3.29-1.264-6.728-.946-10.136.047-1.369.276-7.326.5-13.226z" transform="translate(10.576 22.915) translate(0 24.09)"/>
                <path fill="#0C122B" d="M44.214 24.031c-.057 0-.105-.042-.111-.1-.454-2.853-.586-5.748-.394-8.63.009-.061.063-.104.123-.1.03 0 .059.015.078.038.02.024.027.055.022.085-.188 2.865-.056 5.742.394 8.578.007.06-.035.114-.094.124l-.018.005zM47.24 50.96h-.053c-1.968-1.135-2.65-3.561-2.679-3.667-.007-.029-.002-.06.013-.085.016-.025.04-.043.07-.05.027-.009.058-.006.084.009.025.014.044.039.05.067 0 0 .688 2.439 2.574 3.526.052.035.07.103.041.158-.025.03-.062.045-.1.041z" transform="translate(10.576 22.915) translate(0 24.09)"/>
                <path fill="#050F1B" d="M74.497 23.926c-1.827-1.175-3.525-2.41-4.982-3.561-.057 4.515.38 9.023 1.304 13.443 1.675 8.685-1.175 14.325-4.336 17.692-2.703 2.867-8.29 3.525-12.304 5.523h21.382c.333-3.727.031-7.484-.893-11.11-1.099-2.527-.54-15.36-.17-21.987zM59.685 8.508L68.199 5.176 64.52 4.354z" opacity=".6" style="mix-blend-mode:overlay" transform="translate(10.576 22.915) translate(0 24.09)"/>
                <g fill="#2C2B6E">
                    <path d="M11.199.505s-1.304 2.35-5.611 5.071L4.5 7.826l2.156-.852c.287.49.533 1.003.735 1.534l4.835-4.154L11.2.505z" transform="translate(10.576 22.915) translate(0 24.09) translate(52.293)"/>
                    <path d="M1.992 3.002L.34 4.953 2.004 8.59l1.24-1.633 1.257.87-.488-2.35c-1.07-.401-1.842-1.346-2.021-2.475z" transform="translate(10.576 22.915) translate(0 24.09) translate(52.293)"/>
                </g>
                <g>
                    <g>
                        <path fill="#4670CE" d="M10.353.27l6.37 1.687.181-.694c.058-.209.272-.334.482-.282l1.287.341.135-.517c.049-.17.222-.27.394-.23l4.812 1.276c.082.022.152.076.194.15.042.074.052.162.029.243l-.135.518 1.287.34c.209.058.334.272.282.482l-.188.693 6.363 1.687c.617.169.986.801.828 1.422L24.22 39.285c-.169.614-.797.982-1.416.828L1.31 34.42c-.617-.17-.985-.802-.828-1.422L8.937 1.093c.172-.612.8-.977 1.416-.823z" transform="translate(10.576 22.915) translate(0 24.09) translate(0 5.876) translate(85.784 9.401)"/>
                        <path fill="#FFF" d="M30.36 6.722l-5.095-1.37-.147.547c-.057.21-.27.335-.481.282l-8.003-2.139c-.207-.06-.329-.273-.276-.481l.147-.553L11.38 1.64c-.558-.146-1.129.185-1.28.74L2.29 31.494c-.071.269-.034.554.105.794.14.24.368.416.636.487l19.008 5.077c.268.073.554.036.795-.103.24-.139.415-.368.485-.637L31.1 7.997c.071-.268.034-.552-.105-.792-.14-.239-.368-.413-.636-.483zM8.436 15.917c.028-.112.1-.208.2-.267.099-.059.218-.075.33-.044l6.415 1.692c.23.063.368.297.312.529-.063.23-.297.367-.529.311l-6.422-1.686c-.112-.03-.206-.104-.264-.204-.057-.1-.072-.22-.042-.33zm-1.633 6.181c.063-.229.299-.365.529-.305l9.63 2.538c.111.029.206.101.263.2.058.1.073.218.043.329-.034.129-.125.235-.247.288-.092.03-.19.03-.282 0l-9.63-2.539c-.22-.065-.352-.287-.306-.51zm14.16 7.051c-.034.129-.124.235-.246.288-.092.033-.191.033-.282 0L6.299 25.712c-.219-.071-.344-.3-.286-.522.057-.223.278-.362.503-.318l14.143 3.73c.114.03.21.103.268.206.058.102.071.223.037.335v.006zm1.123-6.322c-.034.129-.125.235-.247.288-.092.03-.19.03-.282 0L7.926 19.519c-.23-.062-.367-.299-.305-.529.061-.23.298-.367.529-.305l13.631 3.59c.114.03.211.105.269.208.058.103.07.225.037.338v.006zm.4-6.51c-.035.128-.126.234-.248.288-.09.032-.19.032-.282 0L9.56 13.338c-.23-.06-.369-.296-.309-.526.06-.23.296-.369.526-.309l12.398 3.267c.114.03.211.103.27.205.058.102.073.223.041.336v.006zm4.917-2.01c-.035.128-.126.234-.247.288-.091.03-.19.03-.282 0l-16.499-4.348c-.228-.06-.367-.29-.313-.52.054-.23.282-.375.513-.326l16.505 4.354c.118.024.22.098.282.202.062.104.077.229.041.344v.006z" opacity=".6" style="mix-blend-mode:overlay" transform="translate(10.576 22.915) translate(0 24.09) translate(0 5.876) translate(85.784 9.401)"/>
                    </g>
                    <g fill="#F3B9B7">
                        <path d="M12.445 16.223c-.33-.794-.585-1.616-.764-2.456-.347-1.546.188-4.237.04-4.513-.146-.276-1.715.082-1.938 1.222-.223 1.14.329 2.245-.552 2.315-.1 0-.353-.064-.852-.464-.206-.2-3.461-3.443-3.896-3.578-.435-.135-1.116.147-.781.828.24.488 2.056 2.262 3.067 3.232-.036.07-.077.14-.112.217-1.34-.975-4.413-3.184-4.777-3.255-.458-.088-1.087.288-.67.923.33.51 3.526 2.873 4.7 3.784l-.034.211c-1.575-.946-4.154-2.474-4.472-2.503-.47-.047-1.063.376-.587.975.323.418 2.938 2.057 4.436 3.003-.041.123-.088.235-.13.352-1.351-.639-2.74-1.196-4.16-1.668-.422 0-.898.452-.417.928.341.34 2.862 1.51 4.319 2.174.893.711 2.427 2.533 4.113 2.88.937.265 1.822.69 2.615 1.257l5.364 3.619 2.885-5.37-6.246-3.085c-.428-.29-.816-.635-1.151-1.028zM56.794 1.951L57.499.494 56.512.576zM116.056 28.567l-.946-.158c-.274-.046-.552.057-.729.271-.177.214-.226.507-.13.767.098.26.326.45.6.495l.958.106c.3.033.582-.145.682-.429l.07-.2c.061-.18.04-.378-.057-.542-.097-.164-.26-.277-.448-.31zM115.445 30.647l-.776-.246c-.353-.118-.74.023-.934.34-.131.221-.146.491-.041.725.105.234.318.402.57.45l.728.165c.258.05.516-.078.635-.311l.159-.335c.064-.15.064-.319 0-.468-.065-.149-.188-.265-.341-.32zM114.399 32.804l-.652-.235c-.224-.108-.489-.085-.69.06-.201.146-.307.39-.274.636.032.246.197.455.429.543l.676.206c.198.06.412-.017.528-.188l.212-.317c.081-.12.102-.27.058-.409-.045-.137-.151-.247-.287-.296z" transform="translate(10.576 22.915) translate(0 24.09) translate(0 5.876)"/>
                    </g>
                </g>
                <path fill="#0C122B" d="M72.91 22.092h-.052c-2.591-.883-4.848-2.542-6.463-4.753-.036-.058-.024-.133.03-.176.022-.024.054-.037.087-.037.033 0 .065.013.088.037 1.59 2.173 3.816 3.8 6.37 4.653.053.024.084.082.074.14-.01.058-.057.102-.115.107l-.018.03z" transform="translate(10.576 22.915) translate(0 24.09)"/>
                <path fill="#050F1B" d="M57.881 5.576l-1.087 2.25 2.156-.852c-.281-.519-.642-.99-1.069-1.398zM56.306 5.47L56.794 7.826 55.537 6.957z" opacity=".6" style="mix-blend-mode:overlay" transform="translate(10.576 22.915) translate(0 24.09)"/>
                <path fill="#0C122B" d="M7.838 24.73c-.053 0-.098-.036-.112-.088-1.057-3.89.835-5.734.917-5.81.046-.044.118-.043.162.002.043.046.042.118-.003.162 0 0-1.88 1.839-.858 5.588.009.029.006.06-.008.086-.015.027-.04.047-.069.055l-.029.006z" transform="translate(10.576 22.915) translate(0 24.09)"/>
                <path fill="#FFF" d="M35.806 24.613c.632.72.782 1.744.382 2.615-.652 1.598-1.175 3.842-2.262 4.959-1.087 1.116-2.286.999-4.607-.317-2.127-1.205-4.506-2.192-4.953-2.991-.187-.394-.233-.84-.129-1.263 2.72 1.415 5.537 2.633 8.432 3.642 1.01-1.939 3.137-6.645 3.137-6.645z" opacity=".6" style="mix-blend-mode:overlay" transform="translate(10.576 22.915) translate(0 24.09)"/>
                <path fill="#050F1B" d="M43.903 19.725c-1.652 1.51-2.601 3.638-2.62 5.875-.077 4.871.493 7.809-.876 8.867-1.875 1.445-2.685 3.378-1.845 5.675 2.366-2.974 4.453-6.16 6.234-9.518-.241-3.202-.617-7.233-.893-10.9zM20.024 33.767l3.479-6.357c.205-.382-3.19 2.667-3.367 4.824-.118 1.398-1.287 1.175-1.792.746-.711-.588-.917-2.303-.917-2.303s-.5.946-.505.94l-.041.07c-.212.394.252 1.387.64 1.599l1.446.805c.382.19.846.048 1.057-.324z" opacity=".6" style="mix-blend-mode:overlay" transform="translate(10.576 22.915) translate(0 24.09)"/>
            </g>
        </g>
        <g transform="translate(89.31 68.158)">
            <rect width="102.765" height="110.879" x=".071" y=".071" fill="#FFF" stroke="#CDE7E8" stroke-width=".693" rx="6.557"/>
            <g>
                <g>
                    <path fill="#C3D2EB" d="M3.72 29.378c.528-1.422 2.35-4.312 8.472-4.412 8.108-.13 14.025.899 12.092-15.312-.781-6.563.964-9.19 2.092-9.607h11.592c.147.002.287.059.394.159.153.158.271.346.347.552 1.175 2.985 9.76 25.348-.934 29.131-.454.158-.93.243-1.41.253H4.253c-.183-.008-.351-.1-.456-.25-.105-.15-.134-.34-.079-.514z" transform="translate(22.915 17.04) translate(8.226 29.378)"/>
                    <path fill="#C5DFFB" d="M24.09 37.775l3.813 14.271c.133.497-.161 1.007-.658 1.14-.496.133-1.006-.161-1.14-.658L23.11 41.306l-.241-.9-.4-1.486 1.622-1.145zM.088 52.046l5.647-21.152.211-.793h1.927l-.082.305-.13.482-2.532 9.478-.24.899-3.003 11.234c-.133.496-.643.791-1.14.658-.496-.133-.79-.643-.658-1.14v.03z" transform="translate(22.915 17.04) translate(8.226 29.378)"/>
                    <path fill="#050F1B" d="M.752 53.186c.496.131 1.005-.162 1.14-.658l5.746-21.61.212-.788h-.476l-.212.788-5.752 21.61c-.088.32-.338.57-.658.658z" opacity=".6" style="mix-blend-mode:overlay" transform="translate(22.915 17.04) translate(8.226 29.378)"/>
                    <path fill="#050F1B" opacity=".6" style="mix-blend-mode:overlay" d="M5.735 30.918L7.186 30.918 7.397 30.13 5.952 30.13z" transform="translate(22.915 17.04) translate(8.226 29.378)"/>
                    <path fill="#C5DFFB" d="M14.307 52.046l5.64-21.152.218-.793h1.922l-.083.305-.129.482-2.532 9.478-.241.899-3.003 11.263c-.033.37-.283.685-.636.8-.353.116-.74.01-.986-.27-.245-.278-.3-.676-.14-1.012h-.03z" transform="translate(22.915 17.04) translate(8.226 29.378)"/>
                    <g>
                        <path fill="#C5DFFB" d="M2.485 1.539L2.615 1.058 2.662 0.881 2.838 1.539 4.507 7.785 2.891 8.931 1.698 4.483z" transform="translate(22.915 17.04) translate(8.226 29.378) translate(19.39 29.378)"/>
                        <path fill="#838175" d="M0.734 0.881L0.699 0.752 0.77 0.752z" transform="translate(22.915 17.04) translate(8.226 29.378) translate(19.39 29.378)"/>
                    </g>
                    <path fill="#050F1B" opacity=".6" style="mix-blend-mode:overlay" d="M5.129 40.395L13.467 34.472 7.791 30.436 7.873 30.124 8.379 30.124 13.978 34.108 19.578 30.124 20.089 30.124 20.124 30.26 20.059 30.518 14.489 34.472 18.279 37.169 18.115 37.78 13.978 34.837 4.889 41.294z" transform="translate(22.915 17.04) translate(8.226 29.378)"/>
                    <path fill="#C5DFFB" d="M34.82 30.13h1.41l.217.794 5.64 21.152c.133.496-.161 1.007-.658 1.14-.496.133-1.007-.162-1.14-.658l-2.996-11.223-.241-.899-2.533-9.489-.135-.482-.076-.305.511-.03z" transform="translate(22.915 17.04) translate(8.226 29.378)"/>
                    <path fill="#050F1B" d="M37.017 3.443c.052 1.487.123 3.526.44 6.193 1.04 8.737-.194 12.468-2.826 14.066-.522.328-1.093.57-1.692.717-2.004.488-3.813.54-6.857.523-1.539-.054-3.076.129-4.56.54-3.977 1.14-4.63 3.879-4.63 3.879-.057.175-.029.366.076.517.105.152.275.245.46.252h18.919c.48-.01.956-.095 1.41-.252C48.45 26.094 39.89 3.73 38.69.746c-.076-.206-.194-.394-.347-.552-.106-.1-.247-.157-.393-.159-.162-.005-.318.065-.423.188-.124.139-.206.31-.235.494-.06.212-.107.428-.141.646-.003.027-.003.055 0 .082-.05.318-.082.637-.094.958 0 .106-.041.811-.041 1.04z" opacity=".6" style="mix-blend-mode:overlay" transform="translate(22.915 17.04) translate(8.226 29.378)"/>
                    <path fill="#050F1B" d="M37.017 3.443c.052 1.487.123 3.526.44 6.193 1.04 8.737-.194 12.468-2.826 14.066-.522.328-1.093.57-1.692.717-2.004.488-3.813.54-6.857.523-1.539-.054-3.076.129-4.56.54-3.977 1.14-4.63 3.879-4.63 3.879-.057.175-.029.366.076.517.105.152.275.245.46.252h18.919c.48-.01.956-.095 1.41-.252C48.45 26.094 39.89 3.73 38.69.746c-.076-.206-.194-.394-.347-.552-.106-.1-.247-.157-.393-.159-.162-.005-.318.065-.423.188-.124.139-.206.31-.235.494-.06.212-.107.428-.141.646-.003.027-.003.055 0 .082-.05.318-.082.637-.094.958 0 .106-.041.811-.041 1.04zM40.965 53.186c.32.085.662-.007.896-.242.234-.235.325-.577.238-.898l-5.64-21.152h-.47l5.646 21.152c.127.5-.172 1.008-.67 1.14z" opacity=".6" style="mix-blend-mode:overlay" transform="translate(22.915 17.04) translate(8.226 29.378)"/>
                    <path fill="#050F1B" opacity=".6" style="mix-blend-mode:overlay" d="M35.765 30.13L36.229 30.13 36.447 30.924 34.519 30.924 34.308 30.136zM14.965 53.186c.496.131 1.005-.162 1.14-.658l5.77-21.61.212-.788h-.476l-.212.788-5.776 21.61c-.085.322-.336.573-.658.658z" transform="translate(22.915 17.04) translate(8.226 29.378)"/>
                    <path fill="#050F1B" opacity=".6" style="mix-blend-mode:overlay" d="M19.102 41.294L28.191 34.837 37.293 41.306 37.052 40.407 28.708 34.472 34.384 30.436 34.308 30.124 33.791 30.124 28.191 34.108 22.592 30.124 22.087 30.124 22.051 30.26 22.122 30.518 27.68 34.472 19.343 40.395z" transform="translate(22.915 17.04) translate(8.226 29.378)"/>
                    <path fill="#050F1B" d="M27.404 52.046l-3.737-13.995.394-.276 3.813 14.271c.087.32-.004.663-.238.898-.234.235-.575.327-.896.242.24-.062.445-.217.57-.431.124-.214.158-.47.094-.709z" opacity=".6" style="mix-blend-mode:overlay" transform="translate(22.915 17.04) translate(8.226 29.378)"/>
                    <g fill="#050F1B" opacity=".6">
                        <path style="mix-blend-mode:overlay" d="M1.698.969L1.187 1.334.347.734.511.123zM2.209 1.334L3.449 2.215 3.69 3.114 1.698 1.692z" transform="translate(22.915 17.04) translate(8.226 29.378) translate(19.39 38.192)"/>
                    </g>
                    <path fill="#050F1B" opacity=".6" style="mix-blend-mode:overlay" d="M21.875 30.918L22.228 30.918 23.896 37.163 23.503 37.44 21.816 31.135z" transform="translate(22.915 17.04) translate(8.226 29.378)"/>
                    <g>
                        <path fill="#5F5E57" d="M0.734 0.881L0.699 0.746 0.77 0.746z" transform="translate(22.915 17.04) translate(8.226 29.378) translate(19.39 29.378)"/>
                        <path fill="#050F1B" opacity=".6" style="mix-blend-mode:overlay" d="M2.615 1.058L2.697 0.752 2.697 0.752 2.662 0.881 2.732 1.146 2.838 1.539 2.485 1.539z" transform="translate(22.915 17.04) translate(8.226 29.378) translate(19.39 29.378)"/>
                    </g>
                </g>
                <g>
                    <g>
                        <g fill="#916F64">
                            <path d="M.823 11.751L3.854 11.751 4.454.447.494.311zM14.002.311L14.337 11.751 17.363 11.751 17.968.447z" transform="translate(22.915 17.04) translate(0 42.892) translate(0 22.915) translate(7.05)"/>
                        </g>
                        <g fill="#3C64B5">
                            <path d="M11.11 1.24c-.04-.84-.246-.735-.246-.735s-.523 1.845-1.88 1.81c-.523 0-.9-.306-.999-1.974C7.943.278 7.868.246 7.793.26 7.72.274 7.66.33 7.644.405c-.24.911-2.938 2.527-4.354 2.88C1.11 3.818.517 4.006.417 4.46v.505c0 .108.044.212.121.289.077.076.182.118.29.116h10.406c.109.002.213-.04.29-.116.078-.077.122-.18.122-.29v-.387c.028-.785-.007-1.57-.106-2.35-.106-.435-.412-.682-.43-.987zM25.036 2.244c-.094-.452-.394-.699-.411-1.004-.041-.84-.247-.735-.247-.735s-.523 1.845-1.88 1.81c-.529 0-.905-.306-.999-1.974-.042-.063-.117-.095-.192-.081-.074.014-.133.071-.149.145-.24.911-2.938 2.527-4.354 2.88-2.185.534-2.779.722-2.879 1.175v.505c0 .224.182.405.406.405h10.411c.109.002.214-.04.29-.116.078-.077.122-.18.122-.29v-.387c.024-.78-.016-1.56-.118-2.333z" transform="translate(22.915 17.04) translate(0 42.892) translate(0 22.915) translate(0 8.813)"/>
                        </g>
                        <path fill="#FFF" d="M7.985 9.154c-.24-.211-.34.065-.34.065s.158.3-1.264 1.334c-1.016.731-2.154 1.276-3.36 1.61 0 0-1.176.311-1.881.528-.705.218-.74.588-.74.588h3.496c.51-.682.129-.94-.277-1.046 1.553-.62 3.04-1.392 4.442-2.303l-.076-.776zM10.465 12.427c-.223 0-.437.089-.595.246-.157.158-.246.371-.246.594h2.004v-.84h-1.163zM21.499 9.154c-.247-.211-.34.065-.34.065s.158.3-1.27 1.334c-1.014.732-2.15 1.277-3.355 1.61 0 0-1.175.311-1.886.528-.711.218-.734.588-.734.588h3.49c.517-.682.135-.94-.27-1.046 1.552-.62 3.04-1.392 4.441-2.303l-.076-.776zM23.979 12.427c-.224-.002-.44.086-.598.244-.16.158-.249.372-.249.596h2.01v-.84h-1.163z" opacity=".6" style="mix-blend-mode:overlay" transform="translate(22.915 17.04) translate(0 42.892) translate(0 22.915)"/>
                        <g fill="#9AC7EA">
                            <path d="M.4 3.784c0 .108.043.212.12.289.078.076.182.118.29.116h10.407c.108.002.213-.04.29-.116.077-.077.12-.18.12-.29V3.28H.4v.505zM6.34.687c.28.107.51.318.64.588.02.044.064.072.112.07h.053c.03-.013.052-.039.063-.07.011-.03.01-.064-.004-.094C7.055.834 6.77.565 6.416.435c-.06-.006-.117.031-.135.09-.019.057.006.12.059.15v.012zM4.524 1.71c.281.107.51.317.64.587.022.045.068.073.118.07h.047c.03-.012.055-.037.067-.068.012-.03.012-.065-.002-.096-.154-.345-.44-.613-.793-.746-.061-.006-.117.032-.136.09-.018.058.006.12.06.151v.012zM5.505 1.205c.281.106.51.317.64.587.02.045.063.075.113.076h.052c.03-.014.053-.039.064-.07.011-.03.01-.064-.005-.094-.153-.342-.436-.609-.787-.74-.031-.012-.066-.01-.095.005-.03.014-.053.04-.064.071-.01.033-.008.069.007.1.015.03.043.054.075.065zM13.914 3.279v.505c0 .224.181.405.405.405h10.412c.108.002.213-.04.29-.116.077-.077.12-.18.12-.29V3.28H13.915zM19.854.687c.28.107.51.318.64.588.02.044.064.072.112.07h.053c.06-.03.085-.102.059-.164-.152-.346-.439-.616-.794-.746-.064-.016-.13.02-.152.082-.024.07.013.146.082.17zM18.038 1.71c.281.107.51.317.64.587.02.045.064.072.112.07h.053c.06-.03.085-.102.059-.164-.152-.343-.436-.612-.787-.746-.046-.026-.103-.022-.145.011-.041.033-.058.087-.044.138.015.05.06.087.112.092v.012zM19.02 1.205c.278.108.505.318.634.587.02.046.067.076.118.076h.047c.03-.012.054-.037.067-.068.012-.031.01-.066-.003-.096-.153-.344-.44-.611-.793-.74-.03-.011-.064-.01-.093.005-.029.014-.05.04-.06.071-.013.033-.011.07.005.1.015.032.044.055.077.065z" transform="translate(22.915 17.04) translate(0 42.892) translate(0 22.915) translate(0 9.989)"/>
                        </g>
                    </g>
                    <path fill="#6C5432" d="M25.917.358l-.235.077C24.578.787 11.81 4.413 10.406 5.04 9.184 5.6 7.15 6.064 7.227 10.594c.118 6.616-.2 19.895-.2 19.895.722.362 1.514.563 2.321.587 1.592 0 2.08-.523 2.08-.523.505-5.799 1.252-7.85 1.587-11.134.37-3.69.37-6.645.37-6.645h6.622c.346 6.804.634 17.756.634 17.756.834.356 1.731.542 2.638.546 1.334 0 1.816-.529 1.816-.529.13-6.974.5-7.38.846-11.087.269-2.186.375-4.39.317-6.592l9.448-.094c3.103-.002 5.757-2.232 6.293-5.288l.088-.559 1-6.31-17.17-.259z" transform="translate(22.915 17.04) translate(0 42.892)"/>
                    <path fill="#050F1B" d="M10.359 30.976h-.124c0-.81.341-19.848 1.646-21.064 1.304-1.216 7.544-.805 7.808-.787v.13c-.064 0-6.463-.43-7.72.751-1.258 1.181-1.61 20.77-1.61 20.97z" transform="translate(22.915 17.04) translate(0 42.892)"/>
                    <path fill="#050F1B" d="M24.214 30.976c0-.17-.277-17.139 0-19.648.205-1.85 4.112-2.144 7.932-2.432 1.527-.112 2.973-.224 4.113-.43 3.86-.693 3.402-6.151 3.396-6.204h.123c.061.97-.02 1.944-.24 2.89-.488 1.958-1.617 3.15-3.262 3.45-1.175.206-2.597.317-4.113.435-3.572.264-7.638.587-7.814 2.32-.27 2.498 0 19.46 0 19.631l-.135-.012z" opacity=".6" transform="translate(22.915 17.04) translate(0 42.892)"/>
                    <path fill="#050F1B" d="M19.977 11.751c-.094-2.203-.158-3.807.846-4.506.865-.506 1.769-.94 2.703-1.299 3.267-1.375 5.67-2.35 9.101-3.602l-1.821-.258-11.457 3.067c-.764.23-2.991 1.081-3.679 2.15-1.04 1.622.247 4.272-1.404 5.289l-.358.217h6.116c-.012-.376-.047-.723-.047-1.058z" opacity=".6" style="mix-blend-mode:overlay" transform="translate(22.915 17.04) translate(0 42.892)"/>
                    <path fill="#050F1B" d="M25.765.405l-.5.183C32.1 3.49 42.81 2.585 42.81 2.585l.34-2.191-17.385.011z" opacity=".6" transform="translate(22.915 17.04) translate(0 42.892)"/>
                    <path fill="#050F1B" d="M13.379 12.85c-.034-.003-.059-.031-.059-.065.059-.51.088-1.868-.452-2.01-.034-.008-.055-.041-.047-.075.004-.016.014-.03.029-.038.014-.008.031-.009.047-.004.758.194.558 2.057.546 2.14-.001.015-.009.03-.02.04-.013.009-.029.014-.044.012z" opacity=".6" style="mix-blend-mode:overlay" transform="translate(22.915 17.04) translate(0 42.892)"/>
                    <path fill="#FFF" d="M16.593 3.096c-.056.578-.404 1.086-.923 1.346-.781.458-5.775 1.44-6.54 2.803-.928 1.662-.663 6.85-.64 7.908.024 1.058-1.222 1.88-1.222 1.88V10.57c0-3.73 1.087-4.753 3.179-5.552 1.58-.6 6.146-1.922 6.146-1.922z" opacity=".6" style="mix-blend-mode:overlay" transform="translate(22.915 17.04) translate(0 42.892)"/>
                    <path fill="#050F1B" d="M42.405 4.86l-.382 2.643c-.537 3.057-3.19 5.286-6.293 5.288l-8.226.083c1.763-3.561 6.04-.794 9.906-2.938 1.657-.876 3.76-4.002 4.995-5.077zM26.252 13.08c-.034-.007-.059-.037-.058-.071.088-.677.088-1.362 0-2.04-.008-.015-.009-.033-.002-.048.007-.016.02-.028.037-.033.014-.008.03-.01.045-.004s.026.018.031.033c.09.698.09 1.405 0 2.103 0 .03-.022.056-.053.06z" opacity=".6" style="mix-blend-mode:overlay" transform="translate(22.915 17.04) translate(0 42.892)"/>
                    <path fill="#FFF" d="M26.617 4.7s.37.659-.511 1.176c-1.176.681-4.243 1.615-4.601 2.632-.359 1.016-.106 5.588-.135 6.522-.03.934-1.175 1.763-1.175 1.763l-.218-5.042c-.047-1.616-.376-3.73.846-4.506 1.763-1.11 5.794-2.544 5.794-2.544z" opacity=".6" style="mix-blend-mode:overlay" transform="translate(22.915 17.04) translate(0 42.892)"/>
                </g>
                <g>
                    <g>
                        <path fill="#916F64" d="M11.487 6.804c0-1.98-2.192-1.351-2.562-1.228-.37.123-1.246-2.726-1.246-2.726s-4.465-.376-5.335.493c0 0-.246 3.725-.123 6.082.123 2.356.881 3.349 1.763 3.349.275-.015.545-.077.799-.182v4.342l5.253-2.727-.647-5.13h.041s2.057-.399 2.057-2.273z" transform="translate(22.915 17.04) translate(17.04) translate(9.401)"/>
                        <path fill="#322418" d="M2.973 9.301c.358-.21.741-.374 1.14-.488.448-.16.926-.216 1.398-.164.241.1.747.458.47.435-.393-.054-.793-.026-1.175.082-.531.159-1.047.367-1.54.623-.164.123-.616.529-.628.393-.016-.327.105-.647.335-.88z" transform="translate(22.915 17.04) translate(17.04) translate(9.401)"/>
                        <g transform="translate(22.915 17.04) translate(17.04) translate(9.401) translate(1.763 4.113)">
                            <circle cx="3.243" cy="2.08" r="1" fill="#171B34"/>
                            <circle cx=".946" cy="2.239" r="1" fill="#171B34"/>
                            <path fill="#171B34" d="M2.762.552c.082-.094.2-.164.54-.147.34.018.852.341.74.423-.111.083-.452-.193-.722-.1-.27.095-.423.165-.511.118C2.72.774 2.7.648 2.762.552zM1.287.458C1.18.394 1.046.364.734.494c-.311.129-.705.587-.587.64.117.053.37-.335.652-.335.282 0 .453 0 .523-.053S1.34.488 1.287.458z"/>
                            <path fill="#050F1B" d="M1.792 4.654c-.12.003-.24-.025-.347-.083-.068-.038-.116-.105-.129-.182-.03-.164.141-.411.34-.7.054-.066.1-.136.142-.21.04-.54.04-1.082 0-1.622h.123c.045.557.045 1.117 0 1.674-.045.082-.096.16-.152.235-.124.182-.341.482-.318.588.008.04.034.075.07.094.189.078.4.078.588 0l.036.117c-.111.052-.23.082-.353.089z" opacity=".6"/>
                            <g>
                                <path fill="#171B34" d="M.464 1.134c-.01-.037-.006-.076.013-.11C.496.992.527.968.564.959c.182-.053.517-.153.776-.241.268-.105.53-.229.781-.37.044-.026.098-.026.142 0 .043.025.07.072.07.123 0 .382-.03 1.128-.63 1.275-.244.098-.519.088-.755-.029C.71 1.6.535 1.388.464 1.134z" transform="translate(1.175 4.7)"/>
                                <path fill="#D35B57" d="M.781 1.61c.348-.487.934-.746 1.528-.676.002.377-.233.713-.587.84-.321.11-.676.048-.94-.164z" transform="translate(1.175 4.7)"/>
                            </g>
                        </g>
                        <path fill="#DAB395" d="M9.207 1.874c.395-.266.864-.4 1.34-.382-.56-.126-1.143-.096-1.687.089C7.785.61 5.758.306 3.72.846 1.873 1.334.67 3.373.446 5.758h.799c.1.69.43 1.327.94 1.804l.04-1.863c1.634-.17 2.598-.675 3.133-1.762.83-.147 1.685.067 2.35.587.587.547.511 2.88.799 2.474.288-.406.588-1.287 1.175-1.393.876-.158 1.416.888 1.21 1.51-.205.623-.499 1.011-1.58 1.599l.335 2.667c1.069-1.46 1.768-3.158 2.039-4.947 0-.153.423.3.423.153.047-2.962-.858-4.824-2.903-4.713z" transform="translate(22.915 17.04) translate(17.04) translate(9.401)"/>
                        <path fill="#FFF" d="M5.235 3.59c-.013.004-.028.004-.04 0-.51-.583-.783-1.335-.765-2.11-.002-.015.004-.032.015-.043.012-.011.028-.017.044-.015.036 0 .065.029.065.065-.015.74.245 1.46.728 2.02.013.012.02.028.02.045 0 .017-.007.033-.02.044l-.047-.006z" transform="translate(22.915 17.04) translate(17.04) translate(9.401)"/>
                        <path fill="#050F1B" d="M4.771 12.592c.839-.383 1.628-.867 2.35-1.44-.124 1.045-.586 2.02-1.316 2.78-1.175 1.145-1.052.222-1.052.222l.018-1.562z" opacity=".6" style="mix-blend-mode:overlay" transform="translate(22.915 17.04) translate(17.04) translate(9.401)"/>
                        <path fill="#0C122B" d="M9.001 7.638c-.014-.005-.027-.016-.033-.03-.007-.015-.007-.031-.002-.046 0-.059.588-1.351 1.175-1.175.021.006.037.023.042.044.005.022-.001.044-.017.06-.016.014-.039.02-.06.013-.405-.135-.875.735-1.016 1.081-.003.02-.014.038-.031.049-.018.01-.039.012-.058.004z" transform="translate(22.915 17.04) translate(17.04) translate(9.401)"/>
                        <path fill="#0C122B" d="M10.024 7.397c-.03-.002-.054-.023-.059-.052-.016-.136-.086-.258-.194-.341-.115-.067-.252-.088-.382-.059-.034.007-.067-.013-.076-.047-.008-.034.013-.068.047-.076.165-.032.336-.003.482.082.137.1.226.254.246.423.004.016 0 .034-.01.047-.01.014-.026.022-.042.023h-.012zM4.771 12.65c-.025 0-.047-.013-.059-.035-.013-.03 0-.067.03-.082 0 0 2.062-.923 2.937-2.021.01-.013.026-.02.042-.02.016 0 .03.007.04.02.013.01.02.027.02.044 0 .016-.007.033-.02.044-.88 1.122-2.884 2.02-2.937 2.056l-.053-.006z" transform="translate(22.915 17.04) translate(17.04) translate(9.401)"/>
                    </g>
                    <g>
                        <path fill="#BFA6DB" d="M14.16.67s-.822.3-1.639.676c0 0-3.672 1.762-4.113 2.35-.664.881.529 10.97.535 13.954 0 1.934.076 4.172 0 6.687-.036 1.175-.964 3.613-.047 4.377 2.938 2.445 17.04-.082 17.04-.082-.126-1.402-.357-2.793-.694-4.16-.682-2.667-.4-4.113-.306-5.664.094-1.551.617-13.65.682-14.53.064-.882-.235-2.092-1.334-2.48C23.185 1.41 19.431.035 19.431.035s-1.052 2.991-3.608 3.138C13.861 3.243 14.16.67 14.16.67z" transform="translate(22.915 17.04) translate(17.04) translate(0 14.102)"/>
                        <g fill="#6638A3">
                            <path d="M19.9.176L19.426 0c-.5 1.175-1.733 3.073-3.602 3.138C13.837 3.202 14.166.67 14.166.67l-.587.223s-.053 2.938 2.432 2.768c2.973-.183 3.89-3.485 3.89-3.485zM12.521 1.346c-1.101.468-2.166 1.018-3.185 1.645-1.351.758-3.12 2.85-3.772 5.288-.587 2.262-1.146 3.842-1.463 4.7-.429-.252-.905-.487-1.263-.752-.717-.523-1.175.976-1.175.976s-2.938 5.164.511 5.875c2.115.43 3.061-3.32 3.061-3.32l-.252-.74c.305-.36.332-.88.064-1.269h3.62c.094.687.17 1.21.188 1.475.1 1.357.176 8.36-.353 10.194-.529 1.833-.652 5.688-.652 5.688.517 1.075 4.277 2.25 4.277 2.25s1.058-19.69.94-23.285c-.111-2.791-.546-8.725-.546-8.725zM34.26 14.342C28.868 5.323 26.289 2.25 23.48 1.498l-2.557-.94s-2.062 6.416-2.203 10.435c-.141 4.02-.588 22.328-.588 22.328s6.364-.33 8.132-1.598c0 0-.035-5.048-.652-6.857-.488-1.434-.635-3.432-.588-6.223 1.88.218 3.855.412 4.583.43 1.125.104 2.259-.043 3.32-.43.75-.39 1.314-1.064 1.565-1.872.25-.808.167-1.682-.231-2.429zm-9.112.083c0-.588.04-1.14.07-1.763.03-.623.03-1.11 0-1.645 1.434 1.451 3.05 3.05 3.279 3.343l-3.35.065z" transform="translate(22.915 17.04) translate(17.04) translate(0 14.102)"/>
                        </g>
                        <g fill="#050F1B" opacity=".6">
                            <path d="M5.423 1.028C5.288.84 5.165.658 5.047.47c-.127 2.118-.097 4.243.088 6.358l2.35-.042c.036-1.269.083-2.444.13-3.378-.771-.755-1.502-1.55-2.192-2.38zM7.456 11.017l-1.586-.194c.987 4.536 1.862 10.024.276 11.687-1.498 1.574-3.367.646-5.617 3.178 4.589-.288 7.227-.952 8.132-1.598.041-2.303-.177-4.603-.652-6.857-.37-1.004-.541-3.496-.553-6.216z" style="mix-blend-mode:overlay" transform="translate(22.915 17.04) translate(17.04) translate(0 14.102) translate(17.627 7.638)"/>
                        </g>
                        <path fill="#0C122B" d="M24.09 9.883c-.013.005-.028.005-.041 0-.89-.69-1.588-1.596-2.027-2.632-.164-.382-.26-.79-.282-1.205 0-.035 0-.065.065-.059.016-.001.033.004.045.015.012.011.02.027.02.044 0 0 0 1.886 2.261 3.743.023.025.023.063 0 .088-.012.007-.027.01-.04.006zM22.915 14.525c-.032 0-.059-.027-.059-.06-.001-.016.004-.032.015-.045.011-.012.027-.019.044-.019l5.23-.07c.016-.002.032.003.045.015.012.01.02.027.019.043 0 .034-.025.062-.059.065l-5.23.07h-.005zM27.08 18.931l-4.858-.558c-.035-.006-.06-.036-.06-.07.007-.034.038-.057.071-.053l4.86.558c.016.001.032.01.042.023.01.014.014.03.01.047-.001.016-.009.03-.02.04-.013.01-.029.015-.044.013z" transform="translate(22.915 17.04) translate(17.04) translate(0 14.102)"/>
                        <path fill="#FFF" d="M25.73 11.522c.562-.273 1.233-.188 1.71.218.68.699 2.35 2.38 2.555 2.702.123.226.13.496.022.728-.11.232-.322.398-.574.447-1.183.066-2.37-.03-3.526-.287-.352-.147-.4-.847-.4-.847s.9 0 2.986-.111l-2.774-2.85z" opacity=".6" style="mix-blend-mode:overlay" transform="translate(22.915 17.04) translate(17.04) translate(0 14.102)"/>
                        <path fill="#050F1B" d="M1.64 13.19s.475-1.497 1.174-.975c1.093.8 3.162 1.305 2.004 2.885-1.54 1.31-3.525.042-3.179-1.91z" opacity=".6" style="mix-blend-mode:overlay" transform="translate(22.915 17.04) translate(17.04) translate(0 14.102)"/>
                        <path fill="#F3CA51" d="M2.115 6.14L11.763 6.14 15.594 19.478 6.404 19.478z" transform="translate(22.915 17.04) translate(17.04) translate(0 14.102)"/>
                        <g fill="#916F64">
                            <path d="M14.06 3.138C15.93 3.073 17.163 1.152 17.662 0l-5.288.67h-.053.059s-.306 2.532 1.68 2.468zM6.334 10.359c-.194-.041-.94 0-.688-.165.253-.164.1-.587-.152-.587-.901.158-1.79.376-2.662.652-.346.137-.715.208-1.087.211 0 0-.247-.722-.311-.94-.065-.217-.588.752-.882 1.11-.587.765-.264 1.364-.4 2.192-.073.585-.105 1.174-.093 1.763.135.347.397.629.734.787.46.27 1.015.321 1.516.141-.027-.194-.045-.39-.053-.587.588-.223.588-.776 1.046-1.075.763-.175 1.513-.403 2.245-.682.305-.217.094-.5-.136-.546-.129-.03.47-.382.7-.54.346-.236.105-.588-.147-.588-.165-.036.258-.335.523-.518.264-.182.1-.575-.153-.628zM20.53 14.771l-3.35-.064-.258-.094c-.422-.8-1.113-1.424-1.95-1.763-.911-.426-1.744-1.002-2.463-1.704-.652.552 1.175 2.391 1.175 2.391s-5.705-.428-5.84.1c-.135.53 2.762.764 2.762.764-.282.711.587.9.587.9-.417.546.588.869.588.869s-.376.323.229.658 3.984.188 3.984.188l.81.14.318.054 3.278.482c.272-.95.316-1.95.13-2.92z" transform="translate(22.915 17.04) translate(17.04) translate(0 14.102) translate(1.763)"/>
                        </g>
                        <g fill="#050F1B">
                            <path d="M1.246.893H.165C.148.893.132.886.12.873.11.863.104.846.106.829.106.796.132.77.165.77h1.08c.016 0 .031.006.042.017.011.01.017.026.017.041.002.017-.003.034-.015.046-.01.012-.027.02-.043.02zM2.156 1.816H.74c-.033 0-.061-.026-.064-.06 0-.035.029-.064.064-.064h1.416c.017 0 .033.007.044.02.011.012.017.028.015.045 0 .032-.026.059-.059.059zM2.28 2.68h-.952c-.017 0-.033-.008-.044-.02-.011-.012-.017-.029-.015-.045-.002-.016.004-.033.015-.044.012-.011.028-.017.044-.015h.952c.016-.002.033.004.045.015.012.011.02.027.02.044 0 .035-.03.064-.065.064z" transform="translate(22.915 17.04) translate(17.04) translate(0 14.102) translate(12.339 13.514)"/>
                        </g>
                        <path fill="#0C122B" d="M10.094 26.37h-.029c-.71-.48-1.229-1.196-1.463-2.021-.007-.034.013-.068.047-.077.032-.008.065.01.076.041.225.792.72 1.48 1.399 1.945.023.025.023.064 0 .088-.008.011-.018.02-.03.024z" transform="translate(22.915 17.04) translate(17.04) translate(0 14.102)"/>
                        <path fill="#FFF" d="M7.638 4.512c.853-.673 1.826-1.177 2.868-1.486.955-.24 1.887-.565 2.785-.97l-.423-.851C11.522 1.76 10.228 2.435 9 3.22c-.529.344-.99.782-1.363 1.292z" opacity=".6" transform="translate(22.915 17.04) translate(17.04) translate(0 14.102)"/>
                        <g fill="#050F1B">
                            <path d="M.358.899C.333.897.31.881.3.858.293.824.31.79.34.776L2.05.188c.016-.005.033-.004.048.004.014.008.025.021.029.037.006.015.005.031-.002.046-.006.014-.018.025-.033.03L.382.894.358.9zM.435 2.174c-.027.001-.051-.016-.059-.041-.008-.016-.008-.034 0-.05.009-.014.024-.025.041-.027l1.998-.622c.034-.012.07.007.082.04.012.035-.007.072-.041.083l-2.004.588-.017.029zM.723 3.132C.697 3.13.675 3.114.663 3.09c-.011-.033.004-.07.036-.083l1.175-.423c.033-.012.07.004.083.036.005.016.004.034-.004.05-.008.015-.021.026-.038.032L.74 3.126l-.017.006z" transform="translate(22.915 17.04) translate(17.04) translate(0 14.102) translate(5.288 9.989)"/>
                        </g>
                    </g>
                </g>
            </g>
        </g>
        <g transform="translate(143.953)">
            <rect width="48.592" height="48.592" x=".535" y=".47" fill="#FFF" stroke="#CDE7E8" stroke-width=".693" rx="4.842"/>
            <g>
                <path fill="#4670CE" d="M.059 15.63v.552c0 .181.147.329.329.329h28.708c.097-.005.192-.025.282-.06.277-.074.518-.247.676-.487.083-.125.143-.264.176-.411l.094-.47 2.826-13.79c.062-.3-.014-.61-.206-.847-.193-.237-.481-.375-.787-.375H12.18c-.123-.001-.245.023-.358.07-.34.116-.591.405-.658.758L8.226 15.277H.388c-.092 0-.18.037-.242.104s-.094.157-.087.248z" transform="translate(8.226 17.04)"/>
                <path fill="#000" d="M.059 15.63v.552c0 .181.147.329.329.329h7.979c.567.011 1.062-.385 1.175-.94L12.48 1.31c.114-.496-.158-1-.635-1.176-.35.11-.612.403-.681.764L8.226 15.277H.388c-.092 0-.18.037-.242.104s-.094.157-.087.248z" transform="translate(8.226 17.04)"/>
                <path fill="#FFF" d="M22.915 10.041c.528.002.983-.37 1.087-.887v-.047c.065-.326-.02-.663-.23-.92-.21-.258-.525-.407-.857-.408-.528-.002-.983.37-1.087.888v.047c-.065.325.02.663.23.92.21.258.525.407.857.407z" style="mix-blend-mode:overlay" transform="translate(8.226 17.04)"/>
            </g>
        </g>
        <g transform="translate(0 113.4)">
            <rect width="35.712" height="62" x=".376" y=".458" fill="#FFF" stroke="#CDE7E8" stroke-width=".676" rx="4.689"/>
            <g>
                <path fill="#68E1BD" d="M11.422 15.664c-.223-1.645 1.534-3.454 0-5.875-1.533-2.42-1.98-4.23-1.762-6.428.104-1.025-.303-2.036-1.087-2.703C8.389.492 8.15.4 7.903.4c-.248 0-.487.092-.67.258-.785.667-1.191 1.678-1.087 2.703.223 2.197-.217 4.007-1.763 6.428-1.545 2.42.224 4.224 0 5.875-.223 1.652-1.304 5.706-1.057 8.42.194 2.168 1.662 3.76 4.077 4.195.163.034.328.052.494.053.158-.003.315-.018.47-.047 2.432-.429 3.907-2.027 4.113-4.2.247-2.715-.84-6.77-1.058-8.42z" transform="translate(9.989 8.226)"/>
                <path fill="#050F1B" d="M8.55 27.616c-.156.028-.313.043-.471.047-.168-.005-.335-.022-.5-.053-2.414-.435-3.877-2.027-4.077-4.196-.212-2.35.91-7.761.905-7.82-.003.02-.003.04 0 .059-.224 1.65-1.31 5.705-1.064 8.42.194 2.168 1.663 3.76 4.078 4.195.162.033.328.051.493.053.158-.003.315-.02.47-.047 2.257-.4 3.69-1.804 4.043-3.749-.6 1.684-2.103 2.881-3.878 3.09z" opacity=".6" style="mix-blend-mode:overlay" transform="translate(9.989 8.226)"/>
                <path fill="#C5DFFB" d="M12.827 35.477H8.079v-3.901h.33c3.032-.002 5.52-2.404 5.628-5.435-.11.012-.22.012-.33 0-.161 2.863-2.531 5.101-5.399 5.1H8.08v-2.938H7.75v2.938h-.24c-2.727.002-5.027-2.03-5.36-4.736-.076.009-.153.009-.229 0H1.81c.295 2.872 2.712 5.056 5.6 5.059h.34v3.901H2.997c-.195 0-.353.158-.353.353 0 .195.158.352.353.352h9.83c.194 0 .352-.157.352-.352-.006-.19-.162-.34-.352-.34z" transform="translate(9.989 8.226)"/>
                <path fill="#050F1B" d="M14.037 26.14c-.108 3.032-2.596 5.434-5.629 5.436H8.08v3.901H7.75v-3.901h-.34c-2.888-.003-5.305-2.187-5.6-5.06h.111c.076.01.153.01.23 0 .332 2.707 2.632 4.74 5.358 4.737h.241v-2.938h.329v2.938h.23c2.867.001 5.237-2.237 5.399-5.1.11.007.22.003.329-.012z" opacity=".6" style="mix-blend-mode:overlay" transform="translate(9.989 8.226)"/>
                <path fill="#C5DFFB" d="M12.55 44.814c-.165.335-.507.547-.881.546H4.154c-.374 0-.716-.211-.881-.546-.77-1.57-2.75-6.052-.629-6.928.423-.126.787-.402 1.022-.775.134-.315.07-.68-.164-.929h8.813c-.233.25-.298.614-.164.929.236.373.599.649 1.022.775 2.104.893.147 5.359-.623 6.928z" transform="translate(9.989 8.226)"/>
                <path fill="#050F1B" d="M12.157 37.11h-8.49c.133-.314.069-.678-.165-.928h8.813c-.231.251-.294.615-.158.929z" opacity=".6" style="mix-blend-mode:overlay" transform="translate(9.989 8.226)"/>
                <path fill="#9AF0C8" d="M3.426 23.285c-.588-.758-.647-1.052-.347-1.433.396-.508.396-1.22 0-1.728-.588-.664-.523-1.328-.494-2.15v-.083c0-.353-.286-.64-.64-.64-.354 0-.64.287-.64.64v.083c0 .822.111 1.486-.494 2.15-.396.508-.396 1.22 0 1.728.3.381.247.675-.347 1.433-.555 1.054-.235 2.357.746 3.032.216.128.46.199.711.206.234-.009.464-.065.676-.165 1.334-.705 1.228-2.568.829-3.073z" transform="translate(9.989 8.226)"/>
                <path fill="#050F1B" d="M2.597 26.358c-.212.1-.442.156-.676.165-.25-.007-.495-.078-.71-.206C.516 25.859.128 25.059.2 24.231c-.004.753.377 1.455 1.01 1.863.216.127.46.2.711.211.234-.008.464-.064.676-.164.681-.394 1.099-1.123 1.093-1.91.08.861-.347 1.69-1.093 2.127z" opacity=".6" style="mix-blend-mode:overlay" transform="translate(9.989 8.226)"/>
                <path fill="#9AF0C8" d="M15.482 20.012c.588-1.175.265-3.102-.34-4.171-.606-1.07-.588-1.128-.253-2.586.093-.374.093-.765 0-1.14-.13-.447-.54-.755-1.005-.755-.466 0-.875.308-1.005.756-.093.374-.093.765 0 1.14.306 1.457.353 1.51-.252 2.585s-.923 3.02-.341 4.171c.582 1.152-.817 1.934-.81 3.814.068.955.681 1.786 1.574 2.133.53.258 1.15.258 1.68 0 .893-.347 1.506-1.178 1.575-2.133-.012-1.88-1.398-2.674-.823-3.814z" transform="translate(9.989 8.226)"/>
                <path fill="#050F1B" d="M16.293 23.826c-.069.955-.682 1.786-1.575 2.133-.53.258-1.15.258-1.68 0-.893-.347-1.506-1.178-1.575-2.133v-.194c.125.9.724 1.663 1.57 1.998.53.252 1.148.252 1.68 0 .844-.336 1.443-1.099 1.568-1.998.012.064.012.13.012.194zM10.705 19.701c-.035.106-.781 2.568-2.626 2.873v5.752H7.75V25.49c-1.363-.359-2.462-1.365-2.938-2.691-.015-.042-.011-.087.009-.126.02-.04.055-.068.097-.08.086-.028.179.016.211.1.44 1.194 1.422 2.106 2.644 2.456v-2.62c-.047-.054-.047-.135 0-.189v-4.418c-1.621-.476-2.35-2.386-2.35-2.468-.028-.086.016-.179.1-.212.086-.028.179.016.212.1 0 0 .646 1.763 2.044 2.233v-3.326c-.026-.047-.026-.105 0-.152V9.824c-.475-.508-.737-1.179-.734-1.874.003-.09.074-.165.164-.17.09.002.162.074.165.164.01.494.15.976.405 1.398V7.298c0-.09.07-.162.159-.165.09.003.161.075.165.165v6.621c1.01-.587 1.092-2.162 1.092-2.18.01-.09.086-.159.177-.158.043.003.084.023.113.056.028.033.043.077.04.12 0 .082-.1 1.933-1.422 2.533v7.95c1.604-.324 2.303-2.61 2.309-2.633.012-.042.04-.078.08-.099.038-.02.083-.025.125-.013.077.037.114.125.088.206zM2.11 22.051v3.802c-.002.22.012.44.04.658-.076.009-.153.009-.229 0H1.81v-.998c-.583-.337-.993-.906-1.128-1.564-.01-.042-.004-.087.02-.123.023-.037.06-.062.103-.07.087-.02.173.036.194.123.118.501.404.947.81 1.263v-6.34c0-.09.074-.164.165-.164.044-.002.087.015.118.046.032.031.048.074.047.118v2.726c.174-.3.294-.627.352-.97.005-.042.027-.082.061-.109.034-.026.078-.038.121-.031.09.012.152.093.141.182-.083.544-.329 1.05-.705 1.451z" opacity=".6" style="mix-blend-mode:overlay" transform="translate(9.989 8.226)"/>
                <path fill="#050F1B" d="M15.277 22.621c-.192.66-.647 1.212-1.258 1.528v1.968c-.11.012-.22.012-.329 0v-4.965c-.617-.435-1.04-1.095-1.175-1.839-.008-.043.001-.089.027-.125.025-.037.064-.062.108-.069.042-.008.086 0 .122.025.035.024.06.062.066.105.116.58.412 1.108.846 1.51v-7.71c0-.09.074-.164.165-.164.09.003.161.075.164.165v3.16c.103-.16.178-.337.224-.522.01-.043.036-.08.074-.104.037-.023.083-.03.125-.02.087.021.142.107.124.194-.078.36-.27.686-.547.929v7.092c.448-.292.78-.73.94-1.24.01-.061.055-.112.114-.13.06-.018.124-.002.168.043.043.045.057.11.036.17h.006z" opacity=".6" style="mix-blend-mode:overlay" transform="translate(9.989 8.226)"/>
            </g>
        </g>
        <g transform="translate(42.305 113.4)">
            <rect width="35.712" height="62" x=".206" y=".458" fill="#FFF" stroke="#CDE7E8" stroke-width=".676" rx="4.689"/>
            <g transform="translate(9.989 8.813)">
                <rect width="12.85" height="1.475" x="1.974" y="34.455" fill="#C5DFFB" rx=".429"/>
                <path fill="#C5DFFB" d="M11.58 46.512H5.213c-.378 0-.696-.283-.74-.658L3.26 35.93h10.253l-1.175 9.9c-.034.391-.365.69-.758.682z"/>
                <path fill="#050F1B" opacity=".6" style="mix-blend-mode:overlay" d="M13.532 35.93L13.461 36.517 3.331 36.517 3.261 35.93z"/>
                <path fill="#68E1BD" d="M14.548 7.68l-.123-.112c-.166-.142-.37-.23-.588-.253h-.147c-.213.01-.418.083-.587.212l-.124.105c-.213.219-.333.512-.335.817v3.302c0 .221-.178.4-.4.4h-1.668v2.197h2.039c.114 0 .228-.01.34-.029h.124c.225-.048.442-.131.64-.247l.124-.076c.231-.157.43-.357.588-.588.045-.061.087-.126.123-.194.177-.324.27-.688.27-1.057v-3.76c-.006-.264-.103-.518-.276-.718zM10.576 2.491v31.964H6.205v-16.37h.352c.777.002 1.422-.6 1.475-1.375v-.164c-.013-.316-.128-.62-.329-.864-.03-.04-.064-.077-.1-.112l-.053-.052c-.272-.246-.626-.382-.993-.382h-.352V2.49c.004-.832.48-1.59 1.227-1.956C8.179.169 9.07.257 9.73.764c.07.056.137.117.2.182.057.052.11.11.158.17.315.39.487.875.488 1.375z"/>
                <path fill="#050F1B" d="M6.563 18.085c.168 0 .335-.027.494-.082v16.452H6.21v-16.37h.352zM8.813.347c-1.025.2-1.765 1.1-1.762 2.144v12.733c-.158-.06-.325-.09-.494-.088h-.352V2.49c-.002-.58.228-1.137.638-1.547.41-.41.967-.64 1.547-.639.143 0 .284.013.423.042z" opacity=".6" style="mix-blend-mode:overlay"/>
                <path fill="#68E1BD" d="M8.038 16.546c-.013-.316-.128-.62-.33-.864-.03-.04-.063-.077-.099-.112l-.053-.052c-.144-.132-.314-.232-.5-.294-.157-.06-.324-.09-.493-.088H3.99c-.296 0-.535-.24-.535-.535v-4.466c0-.414-.165-.811-.458-1.104l-.165-.141c-.24-.177-.53-.276-.828-.282H1.81c-.744.084-1.306.714-1.305 1.463v5.053c0 .981.489 1.898 1.305 2.444l.158.1c.269.158.56.273.864.34l.165.03c.151.024.304.035.458.035h3.108c.168 0 .335-.027.494-.082.556-.196.942-.704.98-1.292v-.165.012z"/>
                <path fill="#050F1B" d="M7.48 17.762c-.26.21-.583.323-.917.323H3.455c-1.623 0-2.938-1.315-2.938-2.938v-5.053c0-.762.58-1.399 1.34-1.469-.36.284-.565.718-.558 1.176v5.047c0 1.622 1.315 2.938 2.937 2.938H7.35l.13-.024zM8.573.405v34.05h-.347V.588c.11-.07.226-.132.347-.183z" opacity=".6" style="mix-blend-mode:overlay"/>
                <path fill="#050F1B" d="M8.038 16.61v.1h-4.46c-.973 0-1.762-.789-1.762-1.762V8.62h.158v6.216c0 .95.771 1.722 1.722 1.722h4.348l-.006.052zM10.1 1.116v33.339h-.358V.764c.07.056.137.117.2.182.057.052.11.11.158.17z" opacity=".6" style="mix-blend-mode:overlay"/>
                <path fill="#050F1B" d="M7.709 15.682H3.837c-.266.002-.522-.103-.71-.29-.189-.188-.295-.443-.295-.709V8.89l.165.14v5.66c.003.467.383.845.852.845h3.707l.053.053c.036.029.069.06.1.094zM14.548 7.68l-.123-.112c-.166-.142-.37-.23-.588-.253h-.147c-.213.01-.418.083-.587.212l-.124.105c-.213.219-.333.512-.335.817v3.302c0 .221-.178.4-.4.4h-1.668v.464c.068-.009.138-.009.206 0h1.915c.107.002.21-.04.285-.115.075-.076.116-.178.115-.285V8.89c-.001-.307.122-.602.34-.817l.124-.106c.17-.128.375-.202.588-.211h.24l.124.035.123.053c-.006-.053-.047-.106-.088-.165z" opacity=".6" style="mix-blend-mode:overlay"/>
                <path fill="#050F1B" d="M14.548 7.803v4.436c0 .973-.79 1.763-1.763 1.763h-2.209v-.124h2.18c.918 0 1.663-.744 1.663-1.663v-4.43l.13.018z" opacity=".6" style="mix-blend-mode:overlay"/>
                <path fill="#68E1BD" d="M16.746 18.215c-.057-.067-.12-.128-.188-.183-.254-.217-.567-.353-.9-.387h-.223c-.347.007-.684.122-.963.329-.065.052-.13.105-.188.164-.336.34-.526.797-.53 1.275v5.177c0 .324-.262.587-.587.587h-2.59v3.414h3.166c.18-.002.358-.016.535-.041l.188-.035c.351-.077.688-.208.999-.388l.188-.118c.353-.235.659-.536.899-.887.07-.095.132-.196.188-.3.276-.506.422-1.074.423-1.65v-5.847c-.003-.408-.151-.801-.417-1.11z"/>
                <path fill="#050F1B" d="M16.746 18.215c-.057-.067-.12-.128-.188-.183-.254-.217-.567-.353-.9-.387h-.223c-.347.007-.684.122-.963.329-.065.052-.13.105-.188.164-.336.34-.526.797-.53 1.275v5.177c0 .324-.262.587-.587.587h-2.59v.717c.104-.019.21-.029.316-.03h2.985c.342-.003.617-.28.617-.622v-5.17c.002-.479.192-.937.529-1.276.06-.06.125-.114.194-.164.277-.208.612-.323.958-.33h.376l.188.054.188.076c-.055-.078-.116-.15-.182-.217z" opacity=".6" style="mix-blend-mode:overlay"/>
                <path fill="#050F1B" d="M15.659 18.39v6.552c0 1.13-.915 2.047-2.045 2.05h-3.038v-.187h2.897c.53 0 1.037-.211 1.41-.586.374-.375.583-.883.582-1.412v-6.334c.061-.034.126-.061.194-.082z" opacity=".6" style="mix-blend-mode:overlay"/>
                <path fill="#050F1B" d="M16.746 18.385v6.88c0 1.5-1.216 2.715-2.715 2.715h-3.455v-.188h3.39c1.428 0 2.586-1.158 2.586-2.585v-6.875l.194.053zM13.849 7.809v4.213c0 .726-.59 1.316-1.316 1.316h-1.957v-.118h1.863c.34 0 .667-.136.908-.377.24-.242.374-.569.373-.91V7.862c.04-.023.084-.04.129-.053z" opacity=".6" style="mix-blend-mode:overlay"/>
            </g>
        </g>
    </g>
</svg>
