<svg width="166" height="123" viewBox="0 0 166 123" fill="none" xmlns="http://www.w3.org/2000/svg">
<path d="M5.51196 108.572V110.941C5.51195 111.314 5.66082 111.673 5.92547 111.936C6.19013 112.199 6.54862 112.345 6.92125 112.342H129.863C130.231 112.333 130.596 112.279 130.951 112.18V112.18C132.138 111.86 133.167 111.115 133.844 110.085C134.205 109.553 134.457 108.955 134.585 108.324L135.006 106.303L147.096 47.0618C147.359 45.7818 147.035 44.4508 146.213 43.4365C145.392 42.4223 144.159 41.8322 142.856 41.8295H57.3836C56.8554 41.8283 56.3315 41.925 55.8383 42.1147C54.455 42.647 53.4356 43.8469 53.131 45.3012L40.4969 107.159H6.92125C6.14292 107.159 5.51196 107.792 5.51196 108.572H5.51196Z" fill="#D59045"/>
<g style="mix-blend-mode:overlay" opacity="0.6">
<path d="M5.51202 108.572V110.941C5.512 111.314 5.66087 111.673 5.92553 111.936C6.19018 112.199 6.54868 112.345 6.9213 112.342H41.1398C43.5303 112.351 45.5971 110.672 46.0846 108.324L58.5951 47.0618C59.0432 44.9641 57.8912 42.8538 55.8878 42.1023C54.5046 42.6346 53.4851 43.8345 53.1805 45.2888L40.5464 107.147H6.9213C6.54539 107.147 6.18504 107.297 5.92039 107.565C5.65574 107.833 5.50872 108.195 5.51202 108.572V108.572Z" fill="#050F1B"/>
</g>
<g style="mix-blend-mode:overlay">
<path d="M103.346 84.5683V84.5683C105.607 84.567 107.555 82.971 108.007 80.7494V80.5635C108.289 79.1625 107.928 77.7086 107.025 76.6031C106.122 75.4977 104.771 74.8578 103.346 74.86V74.86C101.088 74.8624 99.1448 76.4592 98.6979 78.6788V78.8648C98.4163 80.2636 98.7752 81.7154 99.6757 82.8203C100.576 83.9252 101.923 84.5668 103.346 84.5683Z" fill="white"/>
</g>
<g clip-path="url(#clip0)">
<rect x="5.28174" y="33.2278" width="156" height="85" stroke="#888C9C"/>
<rect x="158.282" y="115.228" width="7" height="7" rx="0.5" fill="white" stroke="#888C9C"/>
<rect x="158.282" y="29.2278" width="7" height="7" rx="0.5" fill="white" stroke="#888C9C"/>
<rect x="1.28174" y="115.228" width="7" height="7" rx="0.5" fill="white" stroke="#888C9C"/>
<rect x="1.28174" y="29.2278" width="7" height="7" rx="0.5" fill="white" stroke="#888C9C"/>
<path d="M83.6091 32.7278V12.7278" stroke="#888C9C"/>
<circle cx="83.7817" cy="6.72778" r="5.5" fill="white" stroke="#888C9C"/>
</g>
<defs>
<clipPath id="clip0">
<rect width="164.528" height="121.706" fill="white" transform="translate(0.781738 0.727783)"/>
</clipPath>
</defs>
</svg>
