<svg width="412" height="460" viewBox="0 0 412 460" fill="none" xmlns="http://www.w3.org/2000/svg">
<path d="M143.738 414.139H323V220.796C323 212.894 319.861 205.316 314.274 199.728C308.686 194.141 301.108 191.002 293.206 191.002L173.52 191.002C157.07 191.009 143.738 204.346 143.738 220.796L143.738 414.139Z" fill="#B1B1DD"/>
<path d="M143.727 414.139H299.195V218.751C299.195 203.432 286.776 191.014 271.458 191.014L171.463 191.014C156.145 191.014 143.727 203.432 143.727 218.751L143.727 414.139Z" fill="#D3D3EF"/>
<rect width="167.87" height="181.83" transform="matrix(1 0 0 -1 26.2793 448.813)" fill="#B1B1DD"/>
<path d="M0.0512695 448.813H58.4704L58.4704 296.169C58.4704 280.037 45.3929 266.959 29.2608 266.959V266.959C13.1288 266.959 0.0512695 280.037 0.0512695 296.169L0.0512695 448.813Z" fill="#D3D3EF"/>
<rect width="163.768" height="97.7669" transform="matrix(1 0 0 -1 59.043 448.874)" fill="#D3D3EF"/>
<rect width="90.075" height="3.17654" transform="matrix(1 0 0 -1 71.6152 400.094)" fill="#B1B1DD"/>
<rect width="90.075" height="3.17654" transform="matrix(1 0 0 -1 71.6152 376.97)" fill="#B1B1DD"/>
<rect width="90.075" height="3.17654" transform="matrix(1 0 0 -1 71.6152 423.218)" fill="#B1B1DD"/>
<rect width="12.7914" height="97.061" transform="matrix(1 0 0 -1 59.0059 448.338)" fill="#A9C1E9"/>
<path d="M157.759 351.874C157.748 351.744 157.748 351.614 157.759 351.484V351.874Z" fill="#050F1B"/>
<g style="mix-blend-mode:overlay" opacity="0.6">
<g style="mix-blend-mode:overlay" opacity="0.6">
<path d="M45.8684 453.923L73.3097 351.202L74.2798 347.584H83.643L83.3015 348.86L82.6781 351.202L70.3633 397.283L69.1921 401.65L54.6029 456.255C54.1862 457.815 52.9688 459.035 51.4093 459.454C49.8498 459.874 48.185 459.429 47.0421 458.288C45.8992 457.147 45.4518 455.483 45.8684 453.923Z" fill="#030F1C"/>
</g>
</g>
<path d="M143.17 347.584H143.387L143.278 347.992L143.17 347.584Z" fill="#848274"/>
<g style="mix-blend-mode:overlay" opacity="0.6">
<g style="mix-blend-mode:overlay" opacity="0.6">
<path d="M235.19 339.05C235.255 338.614 235.286 338.176 235.284 337.736C235.284 337.407 235.265 337.079 235.237 336.751V336.732C235.381 336.181 235.453 335.613 235.452 335.043C235.452 335.24 235.462 335.437 235.481 335.625C235.5 335.85 235.527 336.066 235.565 336.282C235.603 336.479 235.65 336.685 235.706 336.882C235.754 337.08 235.817 337.275 235.893 337.464C235.903 337.483 235.903 337.501 235.912 337.52C235.978 337.68 236.043 337.839 236.118 337.999C236.166 338.092 236.212 338.186 236.259 338.271C237.284 340.215 239.172 341.556 241.345 341.883H234.345C234.767 340.986 235.051 340.031 235.19 339.05Z" fill="#030F1C"/>
</g>
</g>
<g style="mix-blend-mode:overlay" opacity="0.6">
<g style="mix-blend-mode:overlay" opacity="0.6">
<path d="M143.168 347.584H143.386L143.278 347.985L143.168 347.584Z" fill="#030F1C"/>
</g>
</g>
<path d="M194.527 124.724C194.317 123.625 194.119 122.489 193.941 121.307C198.554 116.473 202.948 111.801 201.377 106.265C199.23 98.7023 196.332 93.1765 187.027 100.853C187.027 100.853 186.317 93.246 182.579 90.5249C178.842 87.8038 155.687 76.2131 156.645 98.2981C156.645 98.2981 157.686 116.018 158.048 120.434C158.409 124.85 166.025 139.287 171.339 138.852C172.049 138.787 172.751 138.658 173.438 138.468C172.505 143.701 170.717 148.745 168.145 153.397L200.892 147.006C200.892 147.006 196.096 139.52 194.416 124.813C194.453 124.783 194.491 124.754 194.527 124.724Z" fill="#FFB7B6"/>
<path d="M208.907 53.7022C193.537 54.9597 194.629 69.4001 194.629 69.4001L197.417 73.5024C178.287 61.8885 168.92 74.6318 168.92 74.6318C154.141 72.6815 147.543 82.7503 147.362 94.1254C147.181 105.501 157.308 109.279 157.308 109.279L156.825 101.331C161.454 98.2325 160.256 95.2012 160.715 93.5784C163.085 101.411 177.25 103.869 180.268 106.179C183.474 108.633 184.293 114.617 186.01 114.477C187.727 114.336 186.055 105.535 191.17 102.077C197.702 97.6597 200.246 105.457 199.324 109.683C198.306 114.346 193.464 120.224 193.464 120.224L194.737 127.652C204.872 120.104 211.58 104.295 209.262 90.9309L209.262 90.932C221.513 89.592 225.816 84.8357 228.876 77.1352C232.112 68.9949 224.277 52.4446 208.907 53.7022Z" fill="#161B36"/>
<g style="mix-blend-mode:overlay" opacity="0.6">
<g style="mix-blend-mode:overlay" opacity="0.6">
<path d="M175.012 137.966C174.475 138.168 173.946 138.332 173.426 138.471C172.949 141.042 172.275 143.573 171.411 146.042C174.424 145.837 178.719 144.94 181.462 141.85C184.199 138.706 185.935 134.817 186.449 130.68C180.407 134.817 175.012 137.966 175.012 137.966Z" fill="#030F1C"/>
</g>
</g>
<path d="M172.56 106.012C171.926 105.963 171.289 105.977 170.659 106.054C169.984 106.151 169.567 107.128 169.725 108.237C169.883 109.346 170.559 110.166 171.233 110.07C171.908 109.974 172.325 108.996 172.167 107.887C172.106 107.399 171.919 106.936 171.623 106.543C172.115 106.489 172.613 106.493 173.104 106.556C173.581 106.623 173.538 106.098 172.56 106.012Z" fill="#161B36"/>
<path d="M160.476 108.592C159.891 108.546 159.303 108.555 158.719 108.617C158.712 108.618 158.704 108.615 158.697 108.616C158.691 108.617 158.687 108.62 158.682 108.621C158.619 108.628 158.576 108.634 158.576 108.634L158.573 108.656C157.974 108.849 157.615 109.762 157.763 110.799C157.922 111.908 158.597 112.729 159.271 112.632C159.945 112.536 160.364 111.559 160.205 110.45C160.144 109.964 159.958 109.502 159.665 109.11C160.116 109.069 160.571 109.078 161.022 109.135C161.498 109.203 161.455 108.677 160.476 108.592Z" fill="#161B36"/>
<g style="mix-blend-mode:overlay" opacity="0.6">
<g style="mix-blend-mode:overlay" opacity="0.6">
<path d="M165.317 122.409C164.703 122.52 164.07 122.466 163.484 122.251C163.098 122.102 162.799 121.788 162.67 121.396C162.417 120.58 163.086 119.167 163.918 117.54C164.133 117.148 164.324 116.744 164.488 116.329C164.636 115.844 163.983 111.708 163.265 107.989L163.9 107.866C164.149 109.156 165.376 115.634 165.107 116.518C164.934 116.97 164.729 117.41 164.495 117.834C163.97 118.859 163.093 120.575 163.288 121.205C163.362 121.417 163.529 121.583 163.741 121.658C164.717 121.92 165.755 121.805 166.649 121.333L166.933 121.915C166.423 122.161 165.878 122.328 165.317 122.409Z" fill="#030F1C"/>
</g>
</g>
<path d="M166.603 101.445C166.96 100.905 167.492 100.449 169.264 100.304C171.036 100.159 173.933 101.429 173.408 101.938C172.884 102.448 170.922 101.262 169.607 101.939C168.291 102.616 167.553 103.123 167.051 102.929C166.418 102.685 166.431 101.705 166.603 101.445Z" fill="#161B36"/>
<path d="M158.921 102.045C158.318 101.809 157.621 101.742 156.088 102.643C154.555 103.543 152.916 106.248 153.638 106.363C154.36 106.478 155.283 104.38 156.748 104.177C158.214 103.974 159.109 103.965 159.408 103.517C159.785 102.953 159.211 102.159 158.921 102.045Z" fill="#161B36"/>
<path d="M165.457 128.658C165.376 128.476 165.37 128.271 165.442 128.085C165.513 127.899 165.656 127.751 165.837 127.67C166.74 127.263 168.403 126.502 169.661 125.862C170.962 125.119 172.211 124.289 173.402 123.379C173.61 123.224 173.883 123.187 174.124 123.282C174.366 123.376 174.542 123.589 174.59 123.844C174.961 125.801 175.275 129.684 172.288 130.911C168.656 132.404 166.392 130.647 165.457 128.658Z" fill="#161B36"/>
<path d="M167.447 130.88C167.447 130.88 170.041 125.887 174.822 126.259C174.822 126.259 175.335 129.796 172.463 131.02C169.37 132.338 167.447 130.88 167.447 130.88Z" fill="#E55151"/>
<path d="M187.294 89.2723C187.158 89.2833 187.03 89.2083 186.973 89.0846C182.703 79.7544 172.254 76.2791 172.149 76.2449C171.979 76.1899 171.886 76.0076 171.941 75.8377C171.996 75.6678 172.178 75.5747 172.349 75.6297C172.457 75.6647 183.174 79.2295 187.562 88.8154C187.636 88.9777 187.565 89.1696 187.402 89.2441C187.368 89.2596 187.332 89.2692 187.294 89.2723Z" fill="white"/>
<path d="M221.975 81.5074C221.846 81.5179 221.724 81.4513 221.663 81.3376C221.602 81.2239 221.614 81.085 221.695 80.9841C227.881 73.1872 222.705 64.4212 222.652 64.3336C222.56 64.1809 222.609 63.9821 222.762 63.8896C222.914 63.7972 223.113 63.8461 223.205 63.9988C223.261 64.0902 228.664 73.241 222.202 81.3861C222.146 81.4563 222.064 81.5002 221.975 81.5074Z" fill="white"/>
<path d="M195.981 109.957C195.814 109.069 195.275 108.295 194.501 107.829C193.944 107.537 193.313 107.415 192.687 107.479C193.532 106.237 194.536 105.318 195.565 105.576C195.737 105.619 195.913 105.514 195.956 105.341C195.999 105.168 195.895 104.992 195.722 104.948C194.127 104.548 192.742 106.081 191.736 107.769L191.731 107.778C191.042 108.972 190.471 110.231 190.028 111.536C189.991 111.646 190.016 111.766 190.093 111.852C190.171 111.938 190.288 111.977 190.401 111.953C190.514 111.929 190.606 111.847 190.642 111.737C191.055 110.509 191.587 109.325 192.231 108.201C192.885 108.029 193.579 108.098 194.187 108.395C194.802 108.777 195.226 109.401 195.353 110.114C195.392 110.267 195.536 110.37 195.693 110.358C195.711 110.356 195.728 110.353 195.746 110.349C195.829 110.328 195.9 110.275 195.944 110.202C195.988 110.128 196.001 110.04 195.981 109.957Z" fill="#0B122D"/>
<path d="M172.719 138.861C172.566 138.853 172.439 138.74 172.415 138.589C172.391 138.438 172.475 138.291 172.618 138.236C172.729 138.193 183.791 133.888 188.649 128.261C188.724 128.174 188.841 128.132 188.954 128.154C189.068 128.175 189.161 128.256 189.2 128.366C189.237 128.475 189.214 128.596 189.138 128.684C184.174 134.434 173.31 138.662 172.851 138.839C172.809 138.855 172.763 138.863 172.719 138.861Z" fill="#0B122D"/>
<path d="M208.605 81.3457C203.705 72.856 196.436 69.4372 194.63 69.4001C192.34 69.3531 191.628 70.5709 191.628 70.5709L191.629 70.572C193.846 71.4756 195.978 72.5752 197.999 73.8579C205.664 78.6608 209.162 86.2304 209.661 94.3425C210.217 93.9923 210.741 93.5934 211.226 93.1502C211.944 92.4663 213.507 89.8354 208.605 81.3457Z" fill="#F76161"/>
<path fill-rule="evenodd" clip-rule="evenodd" d="M0.244893 457.416L0 455.005C0 455.005 48.8138 449.919 47.9724 454.421C47.7872 455.462 47.5202 456.486 47.1738 457.484C46.639 458.992 45.2118 460.001 43.6113 460L3.0371 459.942C1.59639 459.941 0.390682 458.849 0.244893 457.416ZM64.9834 457.416L64.739 455.005C64.739 455.005 113.553 449.919 112.711 454.421C112.526 455.462 112.259 456.486 111.913 457.484C111.378 458.992 109.95 460.001 108.35 460L67.7759 459.942C66.3351 459.941 65.1296 458.849 64.9834 457.416Z" fill="#3268AE"/>
<path fill-rule="evenodd" clip-rule="evenodd" d="M1.29829 451.757C3.4302 450.415 18.5088 446.089 18.5088 446.089L45.8034 439.265C45.8034 439.265 48.8216 444.651 48.8135 449.92C48.8354 451.875 48.3675 453.804 47.4525 455.532C46.6978 456.913 45.2563 457.779 43.6828 457.796C36.0771 457.917 6.96678 458.28 3.53109 457.702C-0.503398 457.023 -0.833626 453.099 1.29829 451.757ZM83.2477 446.089L110.542 439.265C110.542 439.265 113.561 444.651 113.552 449.92C113.574 451.875 113.106 453.804 112.192 455.532C111.437 456.913 109.995 457.779 108.422 457.796C100.816 457.917 71.7058 458.28 68.2698 457.702C64.2355 457.023 63.9051 453.099 66.0373 451.757C68.1689 450.415 83.2477 446.089 83.2477 446.089Z" fill="#7686D6"/>
<g style="mix-blend-mode:overlay" opacity="0.6">
<g style="mix-blend-mode:overlay" opacity="0.6">
<path d="M18.4492 458.02C19.6964 455.034 22.5815 453.059 25.8163 452.977C32.3117 452.728 33.5981 457.914 33.5981 457.914L18.4492 458.02Z" fill="#030F1C"/>
</g>
</g>
<g style="mix-blend-mode:overlay" opacity="0.6">
<g style="mix-blend-mode:overlay" opacity="0.6">
<path d="M83.188 458.02C84.4355 455.034 87.3205 453.059 90.5554 452.977C97.0504 452.728 98.3367 457.914 98.3367 457.914L83.188 458.02Z" fill="#030F1C"/>
</g>
</g>
<path fill-rule="evenodd" clip-rule="evenodd" d="M30.5577 439.354C34.3932 436.077 36.1331 416.844 36.1331 416.844L50.0403 418.565C50.0403 418.565 45.5817 437.471 45.8033 439.265C46.0247 441.059 37.3855 445.978 30.2096 447.088C23.0335 448.198 17.093 447.74 16.982 447.068C16.9391 446.808 18.2475 446.2 20.1417 445.321C23.1586 443.919 27.6617 441.828 30.5577 439.354ZM97.4211 417.447L110.561 419.525C110.561 419.525 110.32 437.471 110.542 439.265C110.764 441.059 102.124 445.978 94.948 447.088C87.772 448.198 81.8319 447.74 81.7207 447.068C81.678 446.808 82.9863 446.201 84.8806 445.321C87.8975 443.919 92.4006 441.828 95.2966 439.354C99.1323 436.077 97.4211 417.447 97.4211 417.447Z" fill="#FFB7B6"/>
<path d="M217.554 254.188C217.131 250.455 185.592 255.693 185.592 255.693C185.169 251.961 160.796 253.22 153.269 257.092C119.461 269.056 104.092 273.041 85.9491 278.957C63.6919 286.214 45.0762 291.265 42.2981 313.903C36.6501 359.926 31.4717 430.448 31.4717 430.448C31.4717 430.448 43.4433 433.746 49.68 430.735C59.0728 400.27 63.8718 382.675 65.7036 373.468C68.3215 360.313 71.7769 345.389 73.2663 328.174L94.0169 328.239C92.0528 364.334 96.1401 430.448 96.1401 430.448C96.1401 430.448 108.112 433.746 114.348 430.735C120.585 400.411 122.39 397.848 125.401 379.138C127.524 365.946 130.992 342.793 132.068 328.168L183.825 328.328C198.527 328.328 214.759 323.371 221.318 304.664C227.124 288.104 218.654 263.865 217.554 254.188Z" fill="#2C2B6E"/>
<g style="mix-blend-mode:overlay" opacity="0.6">
<g style="mix-blend-mode:overlay" opacity="0.6">
<path d="M94.2892 323.939C95.0608 313.523 96.1531 304.62 111.852 298.921C116.218 297.336 145.718 284.391 169.587 276.124C171.251 275.189 172.758 274 174.054 272.599C169.42 272.027 164.187 272.133 156.799 275.049C140.455 280.927 85.955 294.189 83.1877 305.587C81.1208 314.098 83.1806 320.975 75.8183 327.137C75.4154 327.475 74.5462 327.753 74.1104 328.206C80.042 328.215 86.8746 328.255 94.015 328.273C94.0959 326.776 94.1864 325.325 94.2892 323.939Z" fill="#030F1C"/>
</g>
</g>
<g style="mix-blend-mode:overlay" opacity="0.6">
<g style="mix-blend-mode:overlay" opacity="0.6">
<path d="M222.263 278.353C222.263 278.353 205.834 288.382 204.4 302.72C203.284 313.881 195.797 317.917 185.761 318.204C175.725 318.491 149.344 318.491 145.043 327.954L183.825 328.328C183.825 328.328 212.608 330.222 220.892 305.821C222.497 301.093 224.544 291.985 222.263 278.353Z" fill="#030F1C"/>
</g>
</g>
<g style="mix-blend-mode:overlay" opacity="0.6">
<g style="mix-blend-mode:overlay" opacity="0.6">
<path d="M126.821 292.744C126.821 292.744 127.588 297.845 124.003 299.995C120.419 302.146 104.182 306.304 103.178 314.19C102.175 322.075 100.885 339.997 100.024 344.872C99.1643 349.746 93.4292 352.47 93.4292 352.47C93.4292 352.47 93.8593 329.96 94.2893 323.939C94.7194 317.917 94.0028 304.584 111.853 298.921L126.821 292.744Z" fill="white"/>
</g>
</g>
<g style="mix-blend-mode:overlay" opacity="0.6">
<g style="mix-blend-mode:overlay" opacity="0.6">
<path d="M85.9488 278.957C85.9488 278.957 87.9555 284.726 81.7936 287.092C75.6323 289.457 54.3414 300.301 52.621 306.232C50.6448 313.045 48.5939 333.114 47.3161 336.126C45.3089 340.857 39.1328 342.424 39.1328 342.424L42.298 313.902C42.298 313.902 43.2978 300.762 53.8736 292.744C64.4493 284.726 85.9488 278.957 85.9488 278.957Z" fill="white"/>
</g>
</g>
<path fill-rule="evenodd" clip-rule="evenodd" d="M228.533 162.265C235.494 173.005 245.956 200.986 249.464 214.863C251.376 222.425 251.54 225.77 247.732 232.93C239.359 248.677 230.164 263.973 220.187 278.757C219.099 273.871 212.071 267.984 206.03 268.711C207.526 265.476 209.635 261.677 211.92 257.715C196.196 263.288 159.937 264.86 150.057 257.092C148.898 256.16 148.327 254.678 148.559 253.208C151.596 233.02 150.232 219.709 147.962 213.964C147.621 213.102 147.283 212.292 146.958 211.51C146.381 210.122 145.841 208.824 145.388 207.495C142.371 211.468 139.069 215.83 135.465 220.661C131.846 225.514 127.696 228.963 123.277 229.121C122.647 229.144 122.017 229.1 121.398 228.988C121.113 228.961 120.829 228.911 120.551 228.84C117.798 227.994 113.477 223.464 111.657 215.592C109.321 205.478 107.991 162.966 108.107 146.035C112.87 148.998 119.257 149.052 125.473 146.767C125.568 147.676 125.896 154.132 126.207 160.24C126.484 165.697 126.748 170.877 126.818 171.572C127.247 175.881 127.604 179.872 127.736 182.758C127.746 182.991 127.86 184.028 128.037 185.64C128.161 186.77 128.317 188.184 128.489 189.8C132.524 182.494 138.231 171.82 139.896 168.652C144.22 160.422 149.445 155.014 154.853 152.662C154.968 152.602 155.089 152.55 155.212 152.508L155.319 152.471C155.809 152.273 156.301 152.101 156.793 151.955L171.002 146.982C171.002 146.982 165.565 165.798 178.189 165.014C195.587 163.933 200.226 144.841 200.226 144.841C200.226 144.841 212.495 148.05 216.516 149.54C216.554 149.555 216.589 149.577 216.619 149.603C217.631 150.011 218.616 150.483 219.567 151.017C222.893 152.866 224.842 156.142 226.827 159.48C227.383 160.413 227.941 161.352 228.533 162.265ZM217.424 248.263C220.878 242.281 223.958 236.639 225.179 232.701C227 226.819 227.006 225.376 227.013 223.408C227.019 222.094 227.024 220.545 227.573 217.285C224.267 210.449 220.608 203.79 216.61 197.336C216.31 199.571 215.966 201.689 215.576 203.627C212.078 220.959 215.252 238.328 217.424 248.263Z" fill="#6638A3"/>
<path fill-rule="evenodd" clip-rule="evenodd" d="M134.217 124.197V120.547H150.614V137.098C150.614 138.577 150.027 139.995 148.982 141.04C147.936 142.085 146.519 142.673 145.04 142.673H139.791C138.312 142.673 136.895 142.085 135.849 141.04C134.804 139.995 134.217 138.577 134.217 137.098V135.986C133.166 135.945 132.156 135.573 131.328 134.924C130.114 133.926 129.498 132.326 129.498 130.167C129.498 128.006 130.114 126.385 131.33 125.35C132.15 124.678 133.159 124.275 134.217 124.197ZM130.891 130.167C130.891 131.884 131.332 133.12 132.204 133.841C132.782 134.291 133.485 134.553 134.217 134.59V125.598C133.486 125.669 132.793 125.954 132.224 126.418C131.339 127.177 130.891 128.438 130.891 130.167Z" fill="#00B9B9"/>
<g style="mix-blend-mode:overlay" opacity="0.6">
<g style="mix-blend-mode:overlay" opacity="0.6">
<path d="M144.21 197.081C144.477 193.96 145.697 188.152 147.254 180.492C147.224 180.013 147.192 179.528 147.163 179.056C144.644 182.958 143.022 187.371 142.415 191.975C140.703 203.721 143.331 203.821 138.271 210.916C136.708 213.108 133.396 218.896 135.464 220.66C139.07 215.826 142.37 211.467 145.387 207.495C144.228 204.154 143.825 200.597 144.21 197.081Z" fill="#030F1C"/>
</g>
</g>
<path d="M131.183 204.895C131.172 204.895 131.163 204.894 131.152 204.893C131.002 204.877 130.893 204.741 130.909 204.59C131.295 201.019 128.253 189.984 128.222 189.873C128.196 189.779 128.222 189.677 128.29 189.606C128.359 189.536 128.46 189.508 128.556 189.533C128.651 189.557 128.725 189.631 128.752 189.726C128.879 190.184 131.853 200.974 131.456 204.649C131.44 204.789 131.323 204.894 131.183 204.895Z" fill="#0B122D"/>
<g style="mix-blend-mode:overlay" opacity="0.6">
<g style="mix-blend-mode:overlay" opacity="0.6">
<path d="M217.361 248.369C215.921 242.375 213.398 229.803 214.319 212.458C214.574 207.672 215.677 203.944 216.642 197.388C215.196 195.031 213.679 192.634 212.075 190.153C211.919 195.183 211.472 200.207 210.449 203.627C208.513 210.093 200.817 213.393 195.609 214.287C187.652 215.653 188.7 218.922 199.745 218.66C206.551 218.498 209.94 235 208.728 240.003C206.362 249.772 196.04 256.464 190.233 257.849C186.63 258.743 183.222 260.29 180.178 262.413C180.178 262.413 199.438 262.313 211.933 257.692C213.705 254.62 215.58 251.452 217.361 248.369Z" fill="#030F1C"/>
</g>
</g>
<path d="M173.518 190.934H173.509C173.33 190.929 173.19 190.78 173.195 190.601L173.941 165.186C173.957 165.013 174.1 164.879 174.273 164.872C174.452 164.877 174.593 165.026 174.587 165.205L173.842 190.621C173.837 190.795 173.694 190.934 173.518 190.934Z" fill="#0B122D"/>
<path d="M227.704 218.016C227.641 218.016 227.579 217.997 227.526 217.963C227.454 217.915 227.404 217.841 227.387 217.757C227.369 217.673 227.387 217.585 227.434 217.513C228.994 215.156 231.375 213.729 234.929 213.024C235.104 212.992 235.273 213.104 235.31 213.278C235.345 213.454 235.231 213.625 235.055 213.66C231.637 214.338 229.453 215.637 227.974 217.871C227.915 217.962 227.813 218.016 227.704 218.016Z" fill="#0B122D"/>
<g style="mix-blend-mode:overlay" opacity="0.6">
<g style="mix-blend-mode:overlay" opacity="0.6">
<path d="M215.494 195.613C218.749 195.706 221.306 195.465 224.081 199.514C227.67 204.75 234.184 214.375 232.946 221.251C231.708 228.126 226.887 238.16 224.808 244.39C222.848 250.264 219.016 251.986 215.79 251.359C217.898 246.136 222.351 241.78 225.354 232.042C228.206 222.795 226.401 222.801 227.573 217.285C224.499 211.02 215.853 195.623 215.494 195.613Z" fill="white"/>
</g>
</g>
<path d="M210.909 191.174C210.851 191.165 210.798 191.138 210.757 191.096C203.998 184.322 206.097 172.63 206.119 172.512C206.156 172.37 206.292 172.276 206.439 172.293C206.589 172.32 206.687 172.464 206.659 172.613C206.637 172.728 204.594 184.14 211.146 190.709C211.23 190.793 211.25 190.921 211.196 191.027C211.142 191.133 211.026 191.192 210.909 191.174Z" fill="#0B122D"/>
<path fill-rule="evenodd" clip-rule="evenodd" d="M200.226 144.841L211.361 147.897C211.361 147.897 213.504 160.013 194.794 162.375C196.41 169.604 184.522 180.435 174.211 164.764C174.211 164.764 193.072 168.317 200.226 144.841ZM160.464 150.67L171.001 146.982C166.941 161.822 174.211 164.764 174.211 164.764C162.817 177.089 159.585 162.461 164.688 158.463C159.075 153.701 160.464 150.67 160.464 150.67Z" fill="#F76161"/>
<g style="mix-blend-mode:overlay" opacity="0.6">
<g style="mix-blend-mode:overlay" opacity="0.6">
<path d="M166.382 148.599C167.582 149.209 168.316 153.622 168.316 153.622C168.316 153.622 148.607 161.416 140.211 168.059C140.663 167.354 144.871 159.118 150.911 154.944C155.113 151.913 155.704 152.478 166.382 148.599Z" fill="white"/>
</g>
</g>
<path fill-rule="evenodd" clip-rule="evenodd" d="M133.961 125.103C133.883 124.472 133.362 123.989 132.728 123.959L132.714 123.958L130.627 123.853C131.129 123.506 131.577 123.088 131.956 122.611C132.764 121.47 132.496 118.481 130.032 120.822C128.718 122.071 125.908 122.947 123.567 123.495L122.265 123.429C121.485 123.467 120.732 123.721 120.09 124.163C119.922 124.189 119.826 124.202 119.826 124.202L120.001 124.219C118.621 125.109 117.315 126.598 116.228 127.837C115.937 128.168 115.662 128.481 115.405 128.76C115.405 128.76 111.404 133.733 110.849 136.282L110.786 136.274L110.352 147.164C111.777 147.733 113.275 148.102 114.801 148.261L114.804 148.261C115.841 148.371 116.885 148.4 117.927 148.348L117.969 148.347C117.996 148.345 118.024 148.344 118.051 148.343C119.113 148.284 120.169 148.154 121.214 147.952C121.252 147.944 121.291 147.937 121.329 147.929L121.384 147.918C121.907 147.814 122.431 147.696 122.956 147.558L122.472 139.468C122.496 139.463 122.52 139.459 122.544 139.454C122.571 139.45 122.597 139.445 122.623 139.439L130.638 137.645L131.438 136.741C132.01 136.096 132.136 135.171 131.76 134.397L132.841 133.27C133.213 132.882 133.417 132.363 133.408 131.826L133.39 130.703C134.014 130.123 134.198 129.21 133.847 128.434L133.579 127.841C134.146 127.066 134.063 125.8 133.961 125.103ZM200.225 144.841L170.732 148.048C170.732 148.048 165.293 164.65 176.424 165.033C188.03 165.432 198.282 157.575 200.225 144.841ZM218.535 275.264C218.544 275.277 218.553 275.289 218.562 275.303C218.698 275.497 218.829 275.693 218.952 275.889L218.922 275.937C217.972 277.446 217.245 279.083 216.763 280.8C216.089 283.835 211.911 288.953 209.908 290.306C207.525 293.452 204.177 297.764 203.304 298.325C201.911 299.219 201.105 297.849 201.3 296.842C201.384 296.408 200.012 297.362 198.885 298.145C198.515 298.403 198.171 298.641 197.914 298.806C196.357 299.809 195.455 298.275 195.674 297.151C195.759 296.711 195.277 297.006 194.589 297.427C194.136 297.704 193.596 298.035 193.069 298.247C192.196 298.6 190.356 297.42 190.576 296.295C190.625 296.038 190.778 295.633 190.937 295.211C191.308 294.228 191.712 293.157 190.921 293.665C189.364 294.665 188.463 293.133 188.681 292.008C188.852 291.13 193.607 285.074 195.687 282.457C195.835 282.261 195.989 282.058 196.146 281.853C197.048 280.668 198.006 279.411 197.902 278.869C197.806 278.36 196.487 278.167 194.775 277.917C193.989 277.802 193.121 277.675 192.251 277.5C189.482 276.945 188.63 273.107 189.3 272.748C189.605 272.584 191.707 272.82 194.096 273.088C196.95 273.408 200.213 273.773 201.299 273.557C202.731 273.273 204.1 272.416 205.179 271.741C205.603 271.475 205.983 271.238 206.303 271.074C207.129 270.406 207.858 269.626 208.467 268.756C208.721 268.793 208.973 268.839 209.226 268.894L209.268 268.903C209.789 269.019 210.301 269.168 210.802 269.348L210.811 269.351C211.06 269.442 211.308 269.539 211.554 269.644L211.583 269.656C212.084 269.872 212.574 270.114 213.05 270.381L213.09 270.404C213.317 270.532 213.543 270.666 213.766 270.806L213.799 270.827C214.258 271.117 214.705 271.431 215.135 271.762C215.146 271.77 215.157 271.779 215.168 271.787C215.178 271.795 215.189 271.804 215.199 271.812C215.401 271.968 215.596 272.128 215.789 272.291L215.822 272.319C216.228 272.665 216.614 273.029 216.979 273.403C216.997 273.421 217.015 273.44 217.033 273.458L217.051 273.477C217.221 273.653 217.386 273.833 217.545 274.013C217.55 274.018 217.554 274.023 217.558 274.027C217.561 274.03 217.564 274.034 217.567 274.037C217.74 274.235 217.907 274.435 218.068 274.637L218.073 274.645C218.222 274.834 218.364 275.024 218.501 275.217C218.512 275.232 218.523 275.248 218.535 275.264Z" fill="#FFB7B6"/>
<path d="M199.232 284.118C199.176 284.071 199.104 284.049 199.031 284.056C198.958 284.064 198.892 284.1 198.846 284.157L191.191 293.53C191.095 293.648 191.113 293.821 191.231 293.917C191.348 294.013 191.521 293.995 191.617 293.878L199.272 284.505C199.318 284.448 199.34 284.375 199.333 284.303C199.325 284.23 199.289 284.164 199.232 284.118Z" fill="#0B122D"/>
<path d="M203.356 287.152C203.298 287.107 203.225 287.087 203.153 287.097C203.08 287.106 203.015 287.145 202.971 287.203L195.456 296.982C195.395 297.06 195.382 297.164 195.419 297.255C195.457 297.345 195.54 297.409 195.637 297.422C195.734 297.435 195.831 297.395 195.891 297.317L203.406 287.537C203.451 287.48 203.471 287.406 203.461 287.334C203.452 287.262 203.414 287.196 203.356 287.152Z" fill="#0B122D"/>
<path d="M207.953 288.576C207.896 288.53 207.824 288.509 207.751 288.516C207.679 288.525 207.612 288.561 207.567 288.618L201.086 296.669C201.024 296.746 201.007 296.85 201.043 296.942C201.078 297.034 201.16 297.099 201.258 297.114C201.355 297.129 201.452 297.09 201.514 297.013L207.995 288.963C208.09 288.844 208.072 288.671 207.953 288.576Z" fill="#0B122D"/>
<path d="M131.597 127.502L124.748 127.184C124.675 127.179 124.602 127.204 124.548 127.253C124.494 127.302 124.463 127.372 124.461 127.445C124.457 127.518 124.483 127.59 124.532 127.643C124.581 127.697 124.65 127.729 124.722 127.732L131.571 128.05L131.584 128.051C131.733 128.051 131.855 127.932 131.859 127.782C131.862 127.633 131.745 127.509 131.597 127.502Z" fill="#030F1C"/>
<path d="M131.382 130.421L124.765 130.541C124.613 130.542 124.492 130.667 124.494 130.817C124.495 130.969 124.618 131.09 124.769 131.09H124.774L131.392 130.971C131.544 130.968 131.664 130.843 131.661 130.691C131.662 130.618 131.632 130.547 131.579 130.496C131.527 130.445 131.455 130.418 131.382 130.421Z" fill="#030F1C"/>
<path d="M130.29 134.377L124.028 134.619C123.879 134.625 123.761 134.749 123.764 134.899C123.767 135.049 123.889 135.169 124.039 135.169H124.05L130.311 134.927C130.463 134.921 130.581 134.793 130.576 134.641C130.57 134.489 130.442 134.371 130.29 134.377Z" fill="#030F1C"/>
<path d="M188.052 448.813H322.574V297.045C322.574 280.442 309.115 266.983 292.513 266.983H188.052L188.052 448.813Z" fill="#B1B1DD"/>
<path d="M161.874 448.813H220.293L220.293 296.169C220.293 280.037 207.215 266.959 191.083 266.959V266.959C174.951 266.959 161.874 280.037 161.874 296.169L161.874 448.813Z" fill="#D3D3EF"/>
<path d="M376.135 251.309C374.513 239.187 387.457 225.846 376.135 208.065C364.814 190.285 361.581 176.944 363.191 160.773C363.969 153.225 360.984 145.777 355.207 140.854C353.851 139.645 352.099 138.974 350.282 138.968C348.468 138.972 346.72 139.643 345.369 140.854C339.593 145.778 336.604 153.224 337.373 160.773C338.995 176.944 335.762 190.273 324.44 208.065C313.119 225.857 326.051 239.187 324.44 251.309C322.83 263.431 314.799 293.31 316.617 313.276C318.078 329.251 328.87 340.982 346.646 344.179C347.853 344.408 349.077 344.539 350.305 344.57C351.465 344.552 352.62 344.428 353.757 344.202C371.648 341.062 382.521 329.251 383.971 313.276C385.766 293.322 377.746 263.419 376.135 251.309Z" fill="#68E1BD"/>
<g style="mix-blend-mode:overlay" opacity="0.6">
<path d="M354.965 339.325C353.827 339.546 352.672 339.666 351.513 339.682C350.281 339.651 349.054 339.52 347.843 339.291C330.067 336.094 319.286 324.34 317.825 308.388C316.248 291.137 324.544 251.263 324.463 250.883C324.463 251.033 324.463 251.182 324.463 251.332C322.853 263.465 314.822 293.333 316.64 313.299C318.101 329.274 328.893 341.005 346.669 344.19C347.875 344.43 349.099 344.565 350.328 344.593C351.488 344.578 352.643 344.455 353.78 344.225C370.394 341.304 380.945 330.953 383.522 316.623C379.587 328.4 369.635 336.772 354.965 339.325Z" fill="#050F1B"/>
</g>
<path d="M386.479 377.003H351.502V368.411H353.929C376.236 368.377 394.527 350.728 395.35 328.446C394.534 328.52 393.714 328.52 392.899 328.446C391.715 349.52 374.275 366.004 353.158 366.008H351.444V344.524C351.041 344.524 350.639 344.524 350.213 344.524C349.787 344.524 349.408 344.524 349.062 344.466V365.95H347.302C327.216 365.949 310.285 350.973 307.838 331.045C307.283 331.178 306.716 331.255 306.146 331.275C305.87 331.275 305.583 331.275 305.318 331.275C307.474 352.418 325.293 368.495 346.554 368.48H349.051V377.072H314.074C312.642 377.072 311.48 378.228 311.473 379.659C311.473 381.095 312.638 382.258 314.074 382.258H386.479C387.181 382.256 387.851 381.969 388.339 381.465C388.827 380.96 389.089 380.28 389.068 379.579C389.061 378.154 387.904 377.002 386.479 377.003Z" fill="#D3D3EF"/>
<g style="mix-blend-mode:overlay" opacity="0.6">
<path d="M395.408 328.446C394.585 350.75 376.259 368.408 353.93 368.411H351.502V377.003H349.074V368.411H346.578C325.317 368.426 307.497 352.349 305.342 331.206C305.606 331.206 305.894 331.206 306.17 331.206C306.734 331.208 307.297 331.154 307.85 331.045C310.297 350.973 327.228 365.949 347.314 365.95H349.074V344.512C349.466 344.512 349.868 344.57 350.225 344.57C350.582 344.57 351.053 344.57 351.456 344.57V366.042H353.17C374.287 366.039 391.727 349.555 392.911 328.48C393.742 328.546 394.578 328.535 395.408 328.446V328.446Z" fill="#050F1B"/>
</g>
<path d="M384.385 445.732C383.174 448.197 380.666 449.758 377.919 449.757H322.599C319.853 449.755 317.347 448.195 316.133 445.732C310.38 434.151 295.86 401.154 311.531 394.725C315.972 392.897 318.147 390.873 319.056 388.975C320.851 385.283 317.836 382.166 317.836 382.166H382.763C382.763 382.166 379.783 385.329 381.543 388.998C382.463 390.873 384.626 392.897 389.068 394.748C404.704 401.154 390.138 434.151 384.385 445.732Z" fill="#D3D3EF"/>
<g style="mix-blend-mode:overlay" opacity="0.6">
<path d="M381.543 388.998H319.021C320.816 385.306 317.802 382.189 317.802 382.189H382.763C382.763 382.189 379.783 385.329 381.543 388.998Z" fill="#050F1B"/>
</g>
<path d="M317.261 307.41C312.877 301.821 312.475 299.67 314.695 296.841C316.916 294.012 318.285 288.054 314.695 284.109C310.243 279.221 310.852 274.368 311.059 268.307V267.686C310.898 261.74 301.786 261.74 301.625 267.686C301.613 267.893 301.613 268.1 301.625 268.307C301.832 274.368 302.43 279.221 297.989 284.109C294.388 288.054 295.757 294.012 297.989 296.841C300.221 299.67 299.807 301.821 295.423 307.41C292.57 311.068 291.741 324.271 300.923 329.711C302.51 330.65 304.304 331.187 306.147 331.275C307.876 331.207 309.574 330.792 311.14 330.056C320.977 324.834 320.172 311.137 317.261 307.41Z" fill="#9AF0C8"/>
<g style="mix-blend-mode:overlay" opacity="0.6">
<path d="M311.163 330.044C309.59 330.751 307.893 331.141 306.17 331.194C304.319 331.121 302.516 330.587 300.923 329.642C295.078 326.191 293.283 319.578 293.502 314.288C293.686 319.256 295.654 324.926 300.923 328.032C302.518 328.972 304.32 329.506 306.17 329.584C307.898 329.505 309.593 329.091 311.163 328.365C316.916 325.34 318.987 319.429 319.217 314.299C319.401 319.774 317.48 326.674 311.163 330.044Z" fill="#050F1B"/>
</g>
<path d="M406.05 283.327C410.296 274.84 407.972 260.464 403.53 252.574C399.089 244.684 399.434 244.293 401.655 233.586C402.349 230.826 402.349 227.938 401.655 225.179C400.678 221.903 397.665 219.658 394.245 219.658C390.826 219.658 387.812 221.903 386.836 225.179C386.156 227.94 386.156 230.825 386.836 233.586C389.068 244.293 389.424 244.696 384.972 252.574C380.519 260.452 378.195 274.84 382.441 283.327C386.686 291.815 376.469 297.543 376.481 311.39C376.481 317.531 380.68 323.535 388.067 327.088C391.986 328.975 396.551 328.975 400.47 327.088C407.81 323.535 411.999 317.531 411.999 311.39C411.999 297.543 401.805 291.815 406.05 283.327Z" fill="#9AF0C8"/>
<g style="mix-blend-mode:overlay" opacity="0.6">
<path d="M411.999 311.39C411.999 317.531 407.787 323.535 400.401 327.088C396.479 328.964 391.919 328.964 387.998 327.088C380.611 323.535 376.423 317.531 376.412 311.39C376.412 310.891 376.412 310.408 376.412 309.94C376.837 315.691 381.014 321.292 387.917 324.662C391.839 326.537 396.399 326.537 400.32 324.662C407.316 321.292 411.458 315.737 411.826 309.94C411.999 310.412 411.999 310.895 411.999 311.39Z" fill="#050F1B"/>
</g>
<g style="mix-blend-mode:overlay" opacity="0.6">
<path d="M370.854 281.004C370.612 281.798 365.101 299.9 351.502 302.177V344.524C351.099 344.524 350.696 344.524 350.27 344.524C349.845 344.524 349.465 344.524 349.12 344.466V323.615C333.012 320.257 327.57 304.501 327.34 303.822C327.202 303.411 327.294 302.958 327.581 302.633C327.868 302.309 328.307 302.162 328.732 302.248C329.157 302.334 329.503 302.641 329.641 303.051C329.698 303.189 334.784 317.819 349.12 321.131V301.821C348.992 301.654 348.912 301.455 348.89 301.246C348.87 300.959 348.951 300.674 349.12 300.441V267.905C337.177 264.397 332.011 250.354 331.792 249.745C331.567 249.109 331.899 248.412 332.534 248.186C333.17 247.961 333.868 248.293 334.093 248.928C334.093 249.066 338.857 261.832 349.131 265.351V241.142C349.06 241.057 349.005 240.959 348.97 240.854C348.812 240.47 348.874 240.03 349.131 239.704V208.284C343.885 203.994 343.758 194.885 343.758 194.483C343.739 194.166 343.852 193.855 344.07 193.624C344.288 193.394 344.591 193.263 344.909 193.264C345.226 193.244 345.536 193.357 345.767 193.575C345.998 193.793 346.129 194.096 346.128 194.414C346.128 194.494 346.22 200.716 349.085 204.764V189.721C349.084 189.074 349.589 188.539 350.236 188.502C350.907 188.508 351.449 189.051 351.455 189.721V238.439C358.911 234.103 359.509 222.522 359.509 222.407C359.508 222.083 359.643 221.774 359.882 221.555C360.121 221.336 360.441 221.228 360.764 221.257C361.433 221.294 361.947 221.864 361.914 222.533C361.914 223.131 361.143 236.783 351.409 241.176V299.716C363.226 297.336 368.38 280.51 368.438 280.326C368.677 279.757 369.307 279.46 369.899 279.637C370.49 279.814 370.852 280.409 370.739 281.016L370.854 281.004Z" fill="#050F1B"/>
</g>
<g style="mix-blend-mode:overlay" opacity="0.6">
<path d="M307.551 298.302V326.237C307.551 327.86 307.651 329.481 307.85 331.091C307.29 331.209 306.719 331.271 306.147 331.275C305.871 331.275 305.583 331.275 305.318 331.275C305.18 329.883 305.1 328.48 305.1 327.054V324.018C298.726 321.269 296.85 312.896 296.77 312.517C296.656 311.872 297.072 311.253 297.712 311.114C298.352 310.975 298.987 311.366 299.151 311.999C299.151 312.068 300.636 318.589 305.1 321.28V274.38C305.055 273.918 305.276 273.471 305.67 273.226C306.064 272.981 306.563 272.981 306.957 273.226C307.352 273.471 307.573 273.918 307.528 274.38V294.472C308.821 292.267 309.695 289.841 310.105 287.318C310.16 286.889 310.441 286.522 310.841 286.355C311.24 286.188 311.699 286.247 312.043 286.51C312.387 286.773 312.565 287.199 312.51 287.629C312.498 287.916 311.601 294.472 307.551 298.302Z" fill="#050F1B"/>
</g>
<g style="mix-blend-mode:overlay" opacity="0.6">
<path d="M404.692 302.522C404.612 302.856 402.564 310.378 395.488 313.77V326.916C395.488 327.433 395.488 327.939 395.488 328.446C394.673 328.52 393.852 328.52 393.037 328.446C393.037 327.709 393.037 326.962 393.037 326.226V312.988V291.631C386.26 287.859 384.5 278.497 384.431 278.094C384.353 277.775 384.415 277.438 384.602 277.168C384.789 276.897 385.083 276.72 385.409 276.68C386.065 276.568 386.69 277.003 386.813 277.657C386.813 277.749 388.228 285.11 393.037 288.744V232.056C393.098 231.432 393.623 230.955 394.251 230.955C394.879 230.955 395.404 231.432 395.465 232.056V255.369C396.203 254.165 396.736 252.848 397.041 251.47C397.19 250.817 397.837 250.407 398.491 250.55C398.812 250.606 399.095 250.795 399.268 251.072C399.442 251.348 399.489 251.685 399.4 251.999C399.4 252.206 398.318 256.737 395.396 258.807V311.022C398.698 308.892 401.142 305.667 402.299 301.913C402.468 301.278 403.119 300.899 403.755 301.068C404.39 301.236 404.769 301.887 404.6 302.522H404.692Z" fill="#050F1B"/>
</g>
<ellipse rx="36.5479" ry="36.5018" transform="matrix(-1 0 0 1 293.993 77.2189)" fill="#4670CE"/>
<ellipse rx="27.9694" ry="27.9341" transform="matrix(-1 0 0 1 293.993 77.2189)" fill="#F0F0FC"/>
<path d="M293.993 57.91L295.179 77.2189H292.795L293.993 57.91Z" fill="#294A84"/>
<path d="M282.409 71.3653L292.795 75.5859L291.666 77.6904L282.409 71.3653Z" fill="#294A84"/>
<ellipse rx="4.08775" ry="4.08259" transform="matrix(-1 0 0 1 293.993 77.2189)" fill="#4670CE"/>
<rect width="0.944212" height="5.34762" transform="matrix(-1 0 0 1 294.464 48.2613)" fill="#4670CE"/>
<rect width="0.944212" height="5.34762" transform="matrix(-1 0 0 1 294.464 100.817)" fill="#4670CE"/>
<path d="M264.998 77.2184V77.2195H270.352V77.2184H264.998Z" fill="#4670CE"/>
<path d="M317.62 77.2184V77.2195H322.974V77.2184H317.62Z" fill="#4670CE"/>
<path d="M279.643 52.0242L279.642 52.0248L282.287 56.6741L282.288 56.6735L279.643 52.0242Z" fill="#4670CE"/>
<path d="M305.643 97.7148L305.642 97.7154L308.288 102.365L308.289 102.364L305.643 97.7148Z" fill="#4670CE"/>
<path d="M268.76 91.5565L268.761 91.5575L273.416 88.9153L273.416 88.9143L268.76 91.5565Z" fill="#4670CE"/>
<path d="M314.508 65.5774L314.509 65.5784L319.164 62.9361L319.163 62.9352L314.508 65.5774Z" fill="#4670CE"/>
<path d="M269.141 62.2296L269.141 62.2306L273.724 64.9952L273.724 64.9942L269.141 62.2296Z" fill="#4670CE"/>
<path d="M314.189 89.4044L314.188 89.4053L318.772 92.1699L318.772 92.169L314.189 89.4044Z" fill="#4670CE"/>
<path d="M278.998 102.046L278.999 102.047L281.767 97.4694L281.766 97.4689L278.998 102.046Z" fill="#4670CE"/>
<path d="M306.195 57.0463L306.196 57.0469L308.964 52.4693L308.963 52.4687L306.195 57.0463Z" fill="#4670CE"/>
<g clip-path="url(#clip0)">
<rect x="252.729" y="32.5" width="82" height="86" stroke="#888C9C"/>
<rect x="331.729" y="115.5" width="7" height="7" rx="0.5" fill="white" stroke="#888C9C"/>
<rect x="331.729" y="28.5" width="7" height="7" rx="0.5" fill="white" stroke="#888C9C"/>
<rect x="248.729" y="115.5" width="7" height="7" rx="0.5" fill="white" stroke="#888C9C"/>
<rect x="248.729" y="28.5" width="7" height="7" rx="0.5" fill="white" stroke="#888C9C"/>
<path d="M295.1 32V12" stroke="#888C9C"/>
<circle cx="295.229" cy="6" r="5.5" fill="white" stroke="#888C9C"/>
</g>
<defs>
<clipPath id="clip0">
<rect width="91.4852" height="123.11" fill="white" transform="translate(248.229)"/>
</clipPath>
</defs>
</svg>
