<svg xmlns="http://www.w3.org/2000/svg" width="16" height="16" fill="none" viewBox="0 0 16 16">
    <path stroke="#888C9C" stroke-linecap="round" stroke-linejoin="round" stroke-width="1.4" d="M8 3v10M3 8h10"/>
</svg>
