<svg xmlns="http://www.w3.org/2000/svg" width="18" height="18" fill="none" viewBox="0 0 18 18">
    <rect width="13.211" height="13.211" x="2.202" y="2.202" stroke="#fff" stroke-linecap="round" stroke-linejoin="round" stroke-width="1.4" rx="1.468"/>
    <circle cx="6.239" cy="6.239" r="1.101" stroke="#fff" stroke-linecap="round" stroke-linejoin="round" stroke-width="1.4"/>
    <path stroke="#fff" stroke-linecap="round" stroke-linejoin="round" stroke-width="1.4" d="M15.413 11.01l-3.67-3.67-8.073 8.073"/>
</svg>
